2N3904/RigolDS8.csv

CH1V,CH2V,t0 =-1.000000e-02, tInc = 2.000000e-06,
+4.479733e+00,+1.204800e+00,,
+4.479733e+00,+1.218133e+00,,
+4.475200e+00,+1.209333e+00,,
+4.497334e+00,+1.240533e+00,,
+4.488533e+00,+1.222667e+00,,
+4.484000e+00,+1.245067e+00,,
+4.501867e+00,+1.213867e+00,,
+4.506134e+00,+1.249333e+00,,
+4.515200e+00,+1.191467e+00,,
+4.515200e+00,+1.253867e+00,,
+4.506134e+00,+1.253867e+00,,
+4.519467e+00,+1.267200e+00,,
+4.537067e+00,+1.213867e+00,,
+4.524000e+00,+1.267200e+00,,
+4.541600e+00,+1.236000e+00,,
+4.528267e+00,+1.253867e+00,,
+4.537067e+00,+1.253867e+00,,
+4.532800e+00,+1.258400e+00,,
+4.550400e+00,+1.249333e+00,,
+4.528267e+00,+1.262667e+00,,
+4.541600e+00,+1.245067e+00,,
+4.563734e+00,+1.280533e+00,,
+4.554934e+00,+1.249333e+00,,
+4.568000e+00,+1.280533e+00,,
+4.550400e+00,+1.249333e+00,,
+4.572534e+00,+1.276000e+00,,
+4.563734e+00,+1.262667e+00,,
+4.559200e+00,+1.267200e+00,,
+4.572534e+00,+1.253867e+00,,
+4.590133e+00,+1.280533e+00,,
+4.581333e+00,+1.289333e+00,,
+4.598933e+00,+1.307200e+00,,
+4.581333e+00,+1.276000e+00,,
+4.590133e+00,+1.298400e+00,,
+4.594666e+00,+1.285067e+00,,
+4.594666e+00,+1.302667e+00,,
+4.598933e+00,+1.280533e+00,,
+4.594666e+00,+1.302667e+00,,
+4.577067e+00,+1.280533e+00,,
+4.621067e+00,+1.298400e+00,,
+4.616800e+00,+1.271733e+00,,
+4.616800e+00,+1.311733e+00,,
+4.625600e+00,+1.285067e+00,,
+4.621067e+00,+1.311733e+00,,
+4.616800e+00,+1.298400e+00,,
+4.621067e+00,+1.311733e+00,,
+4.638933e+00,+1.307200e+00,,
+4.630133e+00,+1.333867e+00,,
+4.647733e+00,+1.316000e+00,,
+4.652000e+00,+1.320533e+00,,
+4.652000e+00,+1.307200e+00,,
+4.643200e+00,+1.325067e+00,,
+4.647733e+00,+1.298400e+00,,
+4.669867e+00,+1.316000e+00,,
+4.661067e+00,+1.307200e+00,,
+4.682933e+00,+1.338400e+00,,
+4.661067e+00,+1.320533e+00,,
+4.678667e+00,+1.347200e+00,,
+4.682933e+00,+1.325067e+00,,
+4.696267e+00,+1.356000e+00,,
+4.682933e+00,+1.342667e+00,,
+4.682933e+00,+1.347200e+00,,
+4.674133e+00,+1.329333e+00,,
+4.700800e+00,+1.356000e+00,,
+4.696267e+00,+1.338400e+00,,
+4.709600e+00,+1.351733e+00,,
+4.696267e+00,+1.338400e+00,,
+4.705067e+00,+1.347200e+00,,
+4.692000e+00,+1.342667e+00,,
+4.700800e+00,+1.360533e+00,,
+4.700800e+00,+1.347200e+00,,
+4.722933e+00,+1.351733e+00,,
+4.705067e+00,+1.325067e+00,,
+4.731733e+00,+1.369333e+00,,
+4.740533e+00,+1.347200e+00,,
+4.731733e+00,+1.351733e+00,,
+4.749333e+00,+1.356000e+00,,
+4.731733e+00,+1.365067e+00,,
+4.745067e+00,+1.360533e+00,,
+4.758133e+00,+1.396000e+00,,
+4.740533e+00,+1.342667e+00,,
+4.749333e+00,+1.382667e+00,,
+4.749333e+00,+1.382667e+00,,
+4.749333e+00,+1.391733e+00,,
+4.762667e+00,+1.373867e+00,,
+4.766933e+00,+1.413867e+00,,
+4.771467e+00,+1.360533e+00,,
+4.758133e+00,+1.422667e+00,,
+4.771467e+00,+1.391733e+00,,
+4.789067e+00,+1.387200e+00,,
+4.802400e+00,+1.387200e+00,,
+4.798133e+00,+1.409333e+00,,
+4.798133e+00,+1.396000e+00,,
+4.806933e+00,+1.413867e+00,,
+4.789067e+00,+1.405067e+00,,
+4.798133e+00,+1.413867e+00,,
+4.806933e+00,+1.391733e+00,,
+4.802400e+00,+1.422667e+00,,
+4.811200e+00,+1.405067e+00,,
+4.789067e+00,+1.418400e+00,,
+4.824533e+00,+1.391733e+00,,
+4.824533e+00,+1.436000e+00,,
+4.820000e+00,+1.413867e+00,,
+4.820000e+00,+1.436000e+00,,
+4.837867e+00,+1.409333e+00,,
+4.824533e+00,+1.458400e+00,,
+4.837867e+00,+1.413867e+00,,
+4.842134e+00,+1.449333e+00,,
+4.829067e+00,+1.418400e+00,,
+4.846667e+00,+1.467200e+00,,
+4.868800e+00,+1.449333e+00,,
+4.864267e+00,+1.453867e+00,,
+4.860000e+00,+1.440533e+00,,
+4.868800e+00,+1.471733e+00,,
+4.873067e+00,+1.431733e+00,,
+4.873067e+00,+1.462667e+00,,
+4.886400e+00,+1.422667e+00,,
+4.873067e+00,+1.471733e+00,,
+4.881867e+00,+1.427200e+00,,
+4.890934e+00,+1.476000e+00,,
+4.908534e+00,+1.449333e+00,,
+4.890934e+00,+1.471733e+00,,
+4.895200e+00,+1.449333e+00,,
+4.904000e+00,+1.493867e+00,,
+4.913067e+00,+1.462667e+00,,
+4.899734e+00,+1.476000e+00,,
+4.908534e+00,+1.476000e+00,,
+4.908534e+00,+1.489333e+00,,
+4.913067e+00,+1.471733e+00,,
+4.917334e+00,+1.489333e+00,,
+4.917334e+00,+1.476000e+00,,
+4.939467e+00,+1.489333e+00,,
+4.948267e+00,+1.480533e+00,,
+4.952800e+00,+1.511733e+00,,
+4.934933e+00,+1.480533e+00,,
+4.930667e+00,+1.511733e+00,,
+4.930667e+00,+1.489333e+00,,
+4.939467e+00,+1.507200e+00,,
+4.948267e+00,+1.480533e+00,,
+4.957067e+00,+1.525067e+00,,
+4.939467e+00,+1.480533e+00,,
+4.961600e+00,+1.516000e+00,,
+4.952800e+00,+1.489333e+00,,
+4.965867e+00,+1.529600e+00,,
+4.992533e+00,+1.507200e+00,,
+4.983733e+00,+1.560533e+00,,
+4.979200e+00,+1.507200e+00,,
+4.988000e+00,+1.529600e+00,,
+4.979200e+00,+1.507200e+00,,
+4.974934e+00,+1.542933e+00,,
+5.010133e+00,+1.502667e+00,,
+4.997066e+00,+1.538400e+00,,
+5.005867e+00,+1.547200e+00,,
+4.997066e+00,+1.542933e+00,,
+5.005867e+00,+1.525067e+00,,
+5.005867e+00,+1.551733e+00,,
+5.005867e+00,+1.529600e+00,,
+5.028000e+00,+1.560533e+00,,
+5.014667e+00,+1.538400e+00,,
+5.014667e+00,+1.560533e+00,,
+5.023467e+00,+1.529600e+00,,
+5.028000e+00,+1.565067e+00,,
+5.018933e+00,+1.542933e+00,,
+5.028000e+00,+1.578400e+00,,
+5.036800e+00,+1.529600e+00,,
+5.041067e+00,+1.578400e+00,,
+5.058933e+00,+1.547200e+00,,
+5.032267e+00,+1.596267e+00,,
+5.023467e+00,+1.582933e+00,,
+5.054400e+00,+1.587200e+00,,
+5.058933e+00,+1.542933e+00,,
+5.041067e+00,+1.578400e+00,,
+5.049867e+00,+1.578400e+00,,
+5.063200e+00,+1.591733e+00,,
+5.058933e+00,+1.578400e+00,,
+5.089867e+00,+1.591733e+00,,
+5.089867e+00,+1.569600e+00,,
+5.081067e+00,+1.600533e+00,,
+5.094133e+00,+1.569600e+00,,
+5.107467e+00,+1.596267e+00,,
+5.102933e+00,+1.587200e+00,,
+5.116267e+00,+1.622933e+00,,
+5.089867e+00,+1.569600e+00,,
+5.102933e+00,+1.622933e+00,,
+5.112000e+00,+1.609600e+00,,
+5.116267e+00,+1.640533e+00,,
+5.112000e+00,+1.596267e+00,,
+5.133867e+00,+1.627200e+00,,
+5.120800e+00,+1.605067e+00,,
+5.129600e+00,+1.627200e+00,,
+5.116267e+00,+1.618400e+00,,
+5.147200e+00,+1.640533e+00,,
+5.138400e+00,+1.631733e+00,,
+5.151733e+00,+1.658400e+00,,
+5.142933e+00,+1.645067e+00,,
+5.129600e+00,+1.653867e+00,,
+5.151733e+00,+1.622933e+00,,
+5.142933e+00,+1.640533e+00,,
+5.164800e+00,+1.627200e+00,,
+5.160533e+00,+1.658400e+00,,
+5.156000e+00,+1.658400e+00,,
+5.169333e+00,+1.671733e+00,,
+5.178133e+00,+1.627200e+00,,
+5.182667e+00,+1.667200e+00,,
+5.178133e+00,+1.640533e+00,,
+5.178133e+00,+1.671733e+00,,
+5.156000e+00,+1.649600e+00,,
+5.191467e+00,+1.685067e+00,,
+5.191467e+00,+1.649600e+00,,
+5.191467e+00,+1.685067e+00,,
+5.191467e+00,+1.667200e+00,,
+5.191467e+00,+1.671733e+00,,
+5.209067e+00,+1.671733e+00,,
+5.209067e+00,+1.702933e+00,,
+5.222400e+00,+1.689600e+00,,
+5.213600e+00,+1.716267e+00,,
+5.240000e+00,+1.671733e+00,,
+5.226933e+00,+1.707200e+00,,
+5.222400e+00,+1.698400e+00,,
+5.231200e+00,+1.716267e+00,,
+5.240000e+00,+1.698400e+00,,
+5.253334e+00,+1.716267e+00,,
+5.240000e+00,+1.698400e+00,,
+5.253334e+00,+1.720533e+00,,
+5.248800e+00,+1.693867e+00,,
+5.253334e+00,+1.751733e+00,,
+5.257867e+00,+1.720533e+00,,
+5.262134e+00,+1.733867e+00,,
+5.266667e+00,+1.711733e+00,,
+5.275467e+00,+1.738400e+00,,
+5.275467e+00,+1.720533e+00,,
+5.280000e+00,+1.751733e+00,,
+5.293067e+00,+1.725067e+00,,
+5.284267e+00,+1.760533e+00,,
+5.293067e+00,+1.725067e+00,,
+5.315200e+00,+1.738400e+00,,
+5.306400e+00,+1.729600e+00,,
+5.306400e+00,+1.765067e+00,,
+5.293067e+00,+1.733867e+00,,
+5.297600e+00,+1.769600e+00,,
+5.315200e+00,+1.756267e+00,,
+5.324000e+00,+1.769600e+00,,
+5.306400e+00,+1.738400e+00,,
+5.328533e+00,+1.778400e+00,,
+5.341866e+00,+1.773867e+00,,
+5.337333e+00,+1.778400e+00,,
+5.324000e+00,+1.756267e+00,,
+5.341866e+00,+1.787200e+00,,
+5.328533e+00,+1.769600e+00,,
+5.341866e+00,+1.773867e+00,,
+5.341866e+00,+1.769600e+00,,
+5.364000e+00,+1.773867e+00,,
+5.350667e+00,+1.769600e+00,,
+5.359467e+00,+1.800533e+00,,
+5.359467e+00,+1.791733e+00,,
+5.381600e+00,+1.805067e+00,,
+5.381600e+00,+1.791733e+00,,
+5.372800e+00,+1.809600e+00,,
+5.372800e+00,+1.800533e+00,,
+5.394933e+00,+1.818400e+00,,
+5.390400e+00,+1.800533e+00,,
+5.403733e+00,+1.827467e+00,,
+5.403733e+00,+1.809600e+00,,
+5.416800e+00,+1.858400e+00,,
+5.408000e+00,+1.814133e+00,,
+5.403733e+00,+1.818400e+00,,
+5.416800e+00,+1.822933e+00,,
+5.412533e+00,+1.862933e+00,,
+5.421333e+00,+1.840800e+00,,
+5.430133e+00,+1.854133e+00,,
+5.412533e+00,+1.827467e+00,,
+5.421333e+00,+1.862933e+00,,
+5.430133e+00,+1.822933e+00,,
+5.434667e+00,+1.854133e+00,,
+5.416800e+00,+1.854133e+00,,
+5.438933e+00,+1.867467e+00,,
+5.434667e+00,+1.836267e+00,,
+5.447733e+00,+1.880800e+00,,
+5.461067e+00,+1.858400e+00,,
+5.456800e+00,+1.880800e+00,,
+5.452267e+00,+1.854133e+00,,
+5.465600e+00,+1.894133e+00,,
+5.461067e+00,+1.902933e+00,,
+5.469867e+00,+1.889600e+00,,
+5.465600e+00,+1.885067e+00,,
+5.478933e+00,+1.894133e+00,,
+5.487733e+00,+1.894133e+00,,
+5.487733e+00,+1.911733e+00,,
+5.509867e+00,+1.885067e+00,,
+5.492000e+00,+1.911733e+00,,
+5.487733e+00,+1.898400e+00,,
+5.518667e+00,+1.934133e+00,,
+5.514133e+00,+1.898400e+00,,
+5.514133e+00,+1.938400e+00,,
+5.522933e+00,+1.934133e+00,,
+5.518667e+00,+1.934133e+00,,
+5.531734e+00,+1.907467e+00,,
+5.540800e+00,+1.965067e+00,,
+5.536267e+00,+1.920800e+00,,
+5.536267e+00,+1.956267e+00,,
+5.540800e+00,+1.942933e+00,,
+5.545067e+00,+1.960800e+00,,
+5.545067e+00,+1.942933e+00,,
+5.553867e+00,+1.965067e+00,,
+5.549600e+00,+1.929600e+00,,
+5.549600e+00,+1.929600e+00,,
+5.562933e+00,+1.942933e+00,,
+5.549600e+00,+1.965067e+00,,
+5.562933e+00,+1.942933e+00,,
+5.576000e+00,+1.978400e+00,,
+5.558400e+00,+1.951733e+00,,
+5.571733e+00,+1.996267e+00,,
+5.558400e+00,+1.956267e+00,,
+5.584800e+00,+2.018400e+00,,
+5.589334e+00,+1.965067e+00,,
+5.598134e+00,+1.991733e+00,,
+5.584800e+00,+1.969600e+00,,
+5.589334e+00,+1.991733e+00,,
+5.593867e+00,+1.987467e+00,,
+5.584800e+00,+2.005067e+00,,
+5.611467e+00,+1.982933e+00,,
+5.593867e+00,+2.031733e+00,,
+5.615734e+00,+1.982933e+00,,
+5.615734e+00,+2.027467e+00,,
+5.611467e+00,+1.978400e+00,,
+5.606934e+00,+2.009600e+00,,
+5.620267e+00,+2.009600e+00,,
+5.620267e+00,+2.049600e+00,,
+5.651200e+00,+2.014133e+00,,
+5.642400e+00,+2.049600e+00,,
+5.629067e+00,+2.027467e+00,,
+5.646934e+00,+2.045067e+00,,
+5.655734e+00,+2.031733e+00,,
+5.642400e+00,+2.062933e+00,,
+5.660000e+00,+2.040800e+00,,
+5.673333e+00,+2.067467e+00,,
+5.664534e+00,+2.045067e+00,,
+5.673333e+00,+2.049600e+00,,
+5.677867e+00,+2.054133e+00,,
+5.686667e+00,+2.080800e+00,,
+5.677867e+00,+2.049600e+00,,
+5.699733e+00,+2.102933e+00,,
+5.690933e+00,+2.062933e+00,,
+5.695467e+00,+2.098667e+00,,
+5.704267e+00,+2.076267e+00,,
+5.699733e+00,+2.102933e+00,,
+5.708800e+00,+2.094133e+00,,
+5.704267e+00,+2.102933e+00,,
+5.721867e+00,+2.085067e+00,,
+5.713067e+00,+2.112000e+00,,
+5.726400e+00,+2.094133e+00,,
+5.739733e+00,+2.107467e+00,,
+5.739733e+00,+2.098667e+00,,
+5.730667e+00,+2.116267e+00,,
+5.708800e+00,+2.107467e+00,,
+5.748533e+00,+2.129600e+00,,
+5.735200e+00,+2.098667e+00,,
+5.748533e+00,+2.134133e+00,,
+5.757333e+00,+2.129600e+00,,
+5.779467e+00,+2.165333e+00,,
+5.761867e+00,+2.098667e+00,,
+5.770667e+00,+2.165333e+00,,
+5.770667e+00,+2.138667e+00,,
+5.783733e+00,+2.152000e+00,,
+5.792800e+00,+2.142933e+00,,
+5.774933e+00,+2.165333e+00,,
+5.792800e+00,+2.129600e+00,,
+5.792800e+00,+2.178667e+00,,
+5.783733e+00,+2.156267e+00,,
+5.801600e+00,+2.182933e+00,,
+5.801600e+00,+2.169600e+00,,
+5.792800e+00,+2.187467e+00,,
+5.779467e+00,+2.142933e+00,,
+5.801600e+00,+2.178667e+00,,
+5.814667e+00,+2.182933e+00,,
+5.805867e+00,+2.200800e+00,,
+5.814667e+00,+2.178667e+00,,
+5.819200e+00,+2.218667e+00,,
+5.832533e+00,+2.182933e+00,,
+5.841333e+00,+2.214133e+00,,
+5.819200e+00,+2.174133e+00,,
+5.850133e+00,+2.227467e+00,,
+5.850133e+00,+2.187467e+00,,
+5.867733e+00,+2.218667e+00,,
+5.858933e+00,+2.200800e+00,,
+5.858933e+00,+2.240800e+00,,
+5.863467e+00,+2.227467e+00,,
+5.867733e+00,+2.236267e+00,,
+5.876800e+00,+2.209600e+00,,
+5.854667e+00,+2.254133e+00,,
+5.894400e+00,+2.218667e+00,,
+5.885600e+00,+2.254133e+00,,
+5.907733e+00,+2.236267e+00,,
+5.907733e+00,+2.262933e+00,,
+5.898667e+00,+2.254133e+00,,
+5.903200e+00,+2.267467e+00,,
+5.920800e+00,+2.240800e+00,,
+5.898667e+00,+2.262933e+00,,
+5.903200e+00,+2.262933e+00,,
+5.907733e+00,+2.294133e+00,,
+5.916533e+00,+2.258667e+00,,
+5.912000e+00,+2.289600e+00,,
+5.916533e+00,+2.249600e+00,,
+5.912000e+00,+2.302933e+00,,
+5.951734e+00,+2.267467e+00,,
+5.942934e+00,+2.329600e+00,,
+5.942934e+00,+2.285333e+00,,
+5.938667e+00,+2.312000e+00,,
+5.965067e+00,+2.307467e+00,,
+5.956267e+00,+2.325333e+00,,
+5.947467e+00,+2.312000e+00,,
+5.947467e+00,+2.325333e+00,,
+5.969600e+00,+2.334133e+00,,
+5.969600e+00,+2.334133e+00,,
+5.965067e+00,+2.320800e+00,,
+5.960800e+00,+2.356267e+00,,
+5.987200e+00,+2.316267e+00,,
+5.973867e+00,+2.356267e+00,,
+5.982667e+00,+2.342933e+00,,
+5.991734e+00,+2.360800e+00,,
+5.987200e+00,+2.352000e+00,,
+6.009334e+00,+2.347467e+00,,
+6.004800e+00,+2.352000e+00,,
+6.009334e+00,+2.383200e+00,,
+6.004800e+00,+2.338667e+00,,
+6.031467e+00,+2.374133e+00,,
+6.009334e+00,+2.352000e+00,,
+6.049067e+00,+2.387467e+00,,
+6.035733e+00,+2.365333e+00,,
+6.049067e+00,+2.396533e+00,,
+6.049067e+00,+2.369600e+00,,
+6.031467e+00,+2.396533e+00,,
+6.035733e+00,+2.387467e+00,,
+6.053600e+00,+2.400800e+00,,
+6.080000e+00,+2.383200e+00,,
+6.075733e+00,+2.409867e+00,,
+6.071200e+00,+2.383200e+00,,
+6.062400e+00,+2.427467e+00,,
+6.071200e+00,+2.418667e+00,,
+6.084533e+00,+2.423200e+00,,
+6.080000e+00,+2.392000e+00,,
+6.102133e+00,+2.436533e+00,,
+6.088800e+00,+2.423200e+00,,
+6.097600e+00,+2.463200e+00,,
+6.080000e+00,+2.427467e+00,,
+6.088800e+00,+2.463200e+00,,
+6.084533e+00,+2.440800e+00,,
+6.084533e+00,+2.467467e+00,,
+6.102133e+00,+2.436533e+00,,
+6.102133e+00,+2.463200e+00,,
+6.124267e+00,+2.449867e+00,,
+6.124267e+00,+2.458667e+00,,
+6.102133e+00,+2.458667e+00,,
+6.133067e+00,+2.485333e+00,,
+6.133067e+00,+2.458667e+00,,
+6.133067e+00,+2.485333e+00,,
+6.137600e+00,+2.449867e+00,,
+6.141867e+00,+2.494133e+00,,
+6.155200e+00,+2.498667e+00,,
+6.146400e+00,+2.507467e+00,,
+6.159733e+00,+2.489867e+00,,
+6.164000e+00,+2.525333e+00,,
+6.164000e+00,+2.494133e+00,,
+6.177333e+00,+2.516533e+00,,
+6.168533e+00,+2.498667e+00,,
+6.172800e+00,+2.520800e+00,,
+6.181600e+00,+2.516533e+00,,
+6.181600e+00,+2.525333e+00,,
+6.190667e+00,+2.503200e+00,,
+6.177333e+00,+2.520800e+00,,
+6.186133e+00,+2.525333e+00,,
+6.199467e+00,+2.534133e+00,,
+6.208267e+00,+2.516533e+00,,
+6.177333e+00,+2.552000e+00,,
+6.199467e+00,+2.534133e+00,,
+6.212800e+00,+2.534133e+00,,
+6.217067e+00,+2.556533e+00,,
+6.212800e+00,+2.574133e+00,,
+6.230400e+00,+2.534133e+00,,
+6.234667e+00,+2.569867e+00,,
+6.230400e+00,+2.560800e+00,,
+6.234667e+00,+2.583200e+00,,
+6.217067e+00,+2.552000e+00,,
+6.256800e+00,+2.583200e+00,,
+6.252533e+00,+2.578667e+00,,
+6.248000e+00,+2.614133e+00,,
+6.248000e+00,+2.592000e+00,,
+6.256800e+00,+2.605333e+00,,
+6.265600e+00,+2.587467e+00,,
+6.270133e+00,+2.618667e+00,,
+6.278934e+00,+2.592000e+00,,
+6.292267e+00,+2.609867e+00,,
+6.278934e+00,+2.592000e+00,,
+6.283467e+00,+2.627467e+00,,
+6.296534e+00,+2.614133e+00,,
+6.283467e+00,+2.649867e+00,,
+6.301067e+00,+2.623200e+00,,
+6.305600e+00,+2.649867e+00,,
+6.309867e+00,+2.636533e+00,,
+6.327734e+00,+2.663200e+00,,
+6.323200e+00,+2.627467e+00,,
+6.318667e+00,+2.685333e+00,,
+6.327734e+00,+2.636533e+00,,
+6.332000e+00,+2.681067e+00,,
+6.349600e+00,+2.645333e+00,,
+6.349600e+00,+2.676533e+00,,
+6.340800e+00,+2.645333e+00,,
+6.332000e+00,+2.694400e+00,,
+6.340800e+00,+2.663200e+00,,
+6.340800e+00,+2.707733e+00,,
+6.336534e+00,+2.663200e+00,,
+6.362934e+00,+2.703200e+00,,
+6.349600e+00,+2.654133e+00,,
+6.376267e+00,+2.703200e+00,,
+6.354134e+00,+2.694400e+00,,
+6.354134e+00,+2.694400e+00,,
+6.371733e+00,+2.712000e+00,,
+6.389600e+00,+2.716533e+00,,
+6.385067e+00,+2.672000e+00,,
+6.398400e+00,+2.743200e+00,,
+6.402667e+00,+2.694400e+00,,
+6.416000e+00,+2.725333e+00,,
+6.389600e+00,+2.743200e+00,,
+6.407200e+00,+2.747733e+00,,
+6.424800e+00,+2.743200e+00,,
+6.416000e+00,+2.752000e+00,,
+6.407200e+00,+2.725333e+00,,
+6.429333e+00,+2.747733e+00,,
+6.411734e+00,+2.734400e+00,,
+6.438133e+00,+2.783200e+00,,
+6.438133e+00,+2.729867e+00,,
+6.451467e+00,+2.783200e+00,,
+6.451467e+00,+2.756533e+00,,
+6.451467e+00,+2.787733e+00,,
+6.438133e+00,+2.765333e+00,,
+6.451467e+00,+2.809867e+00,,
+6.455733e+00,+2.765333e+00,,
+6.460267e+00,+2.823200e+00,,
+6.464533e+00,+2.774400e+00,,
+6.442667e+00,+2.792000e+00,,
+6.477867e+00,+2.787733e+00,,
+6.477867e+00,+2.814400e+00,,
+6.464533e+00,+2.796533e+00,,
+6.482400e+00,+2.827733e+00,,
+6.473600e+00,+2.801067e+00,,
+6.500000e+00,+2.823200e+00,,
+6.486667e+00,+2.796533e+00,,
+6.504533e+00,+2.832000e+00,,
+6.504533e+00,+2.809867e+00,,
+6.513333e+00,+2.836533e+00,,
+6.508800e+00,+2.814400e+00,,
+6.500000e+00,+2.854400e+00,,
+6.517600e+00,+2.823200e+00,,
+6.526667e+00,+2.832000e+00,,
+6.526667e+00,+2.841067e+00,,
+6.522133e+00,+2.867733e+00,,
+6.544267e+00,+2.854400e+00,,
+6.553067e+00,+2.854400e+00,,
+6.535467e+00,+2.858667e+00,,
+6.544267e+00,+2.867733e+00,,
+6.548533e+00,+2.863200e+00,,
+6.548533e+00,+2.885333e+00,,
+6.544267e+00,+2.867733e+00,,
+6.566400e+00,+2.881067e+00,,
+6.553067e+00,+2.876533e+00,,
+6.557600e+00,+2.898667e+00,,
+6.570667e+00,+2.885333e+00,,
+6.570667e+00,+2.921067e+00,,
+6.588533e+00,+2.903200e+00,,
+6.588533e+00,+2.921067e+00,,
+6.584000e+00,+2.898667e+00,,
+6.588533e+00,+2.921067e+00,,
+6.610667e+00,+2.889867e+00,,
+6.597333e+00,+2.938667e+00,,
+6.606133e+00,+2.898667e+00,,
+6.610667e+00,+2.947733e+00,,
+6.610667e+00,+2.912000e+00,,
+6.623734e+00,+2.938667e+00,,
+6.610667e+00,+2.934400e+00,,
+6.623734e+00,+2.938667e+00,,
+6.637067e+00,+2.934400e+00,,
+6.632534e+00,+2.952267e+00,,
+6.659200e+00,+2.943200e+00,,
+6.654667e+00,+2.974400e+00,,
+6.650400e+00,+2.965600e+00,,
+6.637067e+00,+2.983200e+00,,
+6.641600e+00,+2.956533e+00,,
+6.659200e+00,+2.983200e+00,,
+6.654667e+00,+2.938667e+00,,
+6.676800e+00,+2.974400e+00,,
+6.672534e+00,+2.965600e+00,,
+6.676800e+00,+2.996533e+00,,
+6.672534e+00,+2.978933e+00,,
+6.668000e+00,+3.001067e+00,,
+6.681334e+00,+2.978933e+00,,
+6.694667e+00,+3.014400e+00,,
+6.681334e+00,+2.987733e+00,,
+6.716533e+00,+3.027733e+00,,
+6.694667e+00,+3.001067e+00,,
+6.698934e+00,+3.027733e+00,,
+6.712267e+00,+2.996533e+00,,
+6.703467e+00,+3.027733e+00,,
+6.703467e+00,+3.018933e+00,,
+6.738667e+00,+3.036533e+00,,
+6.734400e+00,+3.023200e+00,,
+6.738667e+00,+3.036533e+00,,
+6.729867e+00,+3.027733e+00,,
+6.734400e+00,+3.063200e+00,,
+6.756534e+00,+3.018933e+00,,
+6.738667e+00,+3.067733e+00,,
+6.743200e+00,+3.041067e+00,,
+6.743200e+00,+3.058933e+00,,
+6.756534e+00,+3.041067e+00,,
+6.756534e+00,+3.089867e+00,,
+6.756534e+00,+3.067733e+00,,
+6.765333e+00,+3.094400e+00,,
+6.769600e+00,+3.045600e+00,,
+6.743200e+00,+3.107733e+00,,
+6.778667e+00,+3.058933e+00,,
+6.787467e+00,+3.103200e+00,,
+6.791733e+00,+3.085600e+00,,
+6.787467e+00,+3.089867e+00,,
+6.800533e+00,+3.103200e+00,,
+6.805067e+00,+3.121067e+00,,
+6.805067e+00,+3.085600e+00,,
+6.805067e+00,+3.134400e+00,,
+6.818400e+00,+3.107733e+00,,
+6.809600e+00,+3.125600e+00,,
+6.809600e+00,+3.103200e+00,,
+6.827200e+00,+3.116533e+00,,
+6.805067e+00,+3.125600e+00,,
+6.809600e+00,+3.156533e+00,,
+6.849333e+00,+3.125600e+00,,
+6.844800e+00,+3.161067e+00,,
+6.844800e+00,+3.147733e+00,,
+6.844800e+00,+3.169867e+00,,
+6.840533e+00,+3.129867e+00,,
+6.844800e+00,+3.161067e+00,,
+6.849333e+00,+3.169867e+00,,
+6.880267e+00,+3.183200e+00,,
+6.858133e+00,+3.152267e+00,,
+6.871467e+00,+3.187733e+00,,
+6.853600e+00,+3.169867e+00,,
+6.889067e+00,+3.178933e+00,,
+6.871467e+00,+3.174400e+00,,
+6.889067e+00,+3.183200e+00,,
+6.897867e+00,+3.169867e+00,,
+6.889067e+00,+3.205600e+00,,
+6.889067e+00,+3.165600e+00,,
+6.906667e+00,+3.205600e+00,,
+6.924533e+00,+3.174400e+00,,
+6.915467e+00,+3.223200e+00,,
+6.906667e+00,+3.196533e+00,,
+6.924533e+00,+3.241067e+00,,
+6.911200e+00,+3.201067e+00,,
+6.920000e+00,+3.245600e+00,,
+6.937600e+00,+3.218933e+00,,
+6.942133e+00,+3.250133e+00,,
+6.937600e+00,+3.214400e+00,,
+6.933333e+00,+3.236800e+00,,
+6.950933e+00,+3.241067e+00,,
+6.959733e+00,+3.254400e+00,,
+6.968534e+00,+3.236800e+00,,
+6.959733e+00,+3.267733e+00,,
+6.968534e+00,+3.250133e+00,,
