2N3904/RigolDS4.csv

CH1V,CH2V,t0 =-1.000000e-02, tInc = 2.000000e-06,
+4.479733e+00,+2.743200e+00,,
+4.506134e+00,+2.747733e+00,,
+4.484000e+00,+2.734400e+00,,
+4.510667e+00,+2.765333e+00,,
+4.515200e+00,+2.729867e+00,,
+4.515200e+00,+2.778667e+00,,
+4.501867e+00,+2.721067e+00,,
+4.537067e+00,+2.787733e+00,,
+4.524000e+00,+2.752000e+00,,
+4.515200e+00,+2.787733e+00,,
+4.497334e+00,+2.756533e+00,,
+4.532800e+00,+2.809867e+00,,
+4.559200e+00,+2.761067e+00,,
+4.550400e+00,+2.796533e+00,,
+4.550400e+00,+2.774400e+00,,
+4.563734e+00,+2.792000e+00,,
+4.532800e+00,+2.774400e+00,,
+4.581333e+00,+2.832000e+00,,
+4.568000e+00,+2.809867e+00,,
+4.559200e+00,+2.823200e+00,,
+4.559200e+00,+2.801067e+00,,
+4.577067e+00,+2.823200e+00,,
+4.563734e+00,+2.805333e+00,,
+4.585867e+00,+2.823200e+00,,
+4.603467e+00,+2.827733e+00,,
+4.598933e+00,+2.841067e+00,,
+4.594666e+00,+2.818667e+00,,
+4.621067e+00,+2.863200e+00,,
+4.603467e+00,+2.818667e+00,,
+4.603467e+00,+2.863200e+00,,
+4.598933e+00,+2.818667e+00,,
+4.590133e+00,+2.867733e+00,,
+4.621067e+00,+2.832000e+00,,
+4.625600e+00,+2.867733e+00,,
+4.621067e+00,+2.867733e+00,,
+4.634400e+00,+2.881067e+00,,
+4.625600e+00,+2.854400e+00,,
+4.638933e+00,+2.876533e+00,,
+4.630133e+00,+2.876533e+00,,
+4.638933e+00,+2.903200e+00,,
+4.638933e+00,+2.885333e+00,,
+4.647733e+00,+2.903200e+00,,
+4.652000e+00,+2.889867e+00,,
+4.652000e+00,+2.925333e+00,,
+4.638933e+00,+2.894400e+00,,
+4.669867e+00,+2.916533e+00,,
+4.669867e+00,+2.903200e+00,,
+4.687467e+00,+2.925333e+00,,
+4.669867e+00,+2.898667e+00,,
+4.700800e+00,+2.938667e+00,,
+4.692000e+00,+2.907733e+00,,
+4.709600e+00,+2.952267e+00,,
+4.709600e+00,+2.898667e+00,,
+4.700800e+00,+2.961067e+00,,
+4.705067e+00,+2.929867e+00,,
+4.718400e+00,+2.961067e+00,,
+4.718400e+00,+2.956533e+00,,
+4.736000e+00,+2.978933e+00,,
+4.727200e+00,+2.952267e+00,,
+4.731733e+00,+2.987733e+00,,
+4.736000e+00,+2.943200e+00,,
+4.740533e+00,+2.983200e+00,,
+4.736000e+00,+2.978933e+00,,
+4.745067e+00,+2.987733e+00,,
+4.736000e+00,+2.978933e+00,,
+4.745067e+00,+2.992267e+00,,
+4.745067e+00,+2.992267e+00,,
+4.780267e+00,+3.005600e+00,,
+4.753867e+00,+2.987733e+00,,
+4.776000e+00,+3.027733e+00,,
+4.784800e+00,+3.005600e+00,,
+4.780267e+00,+3.023200e+00,,
+4.776000e+00,+2.987733e+00,,
+4.776000e+00,+3.027733e+00,,
+4.784800e+00,+3.018933e+00,,
+4.798133e+00,+3.032267e+00,,
+4.798133e+00,+3.023200e+00,,
+4.802400e+00,+3.072267e+00,,
+4.806933e+00,+3.018933e+00,,
+4.806933e+00,+3.041067e+00,,
+4.815733e+00,+3.041067e+00,,
+4.820000e+00,+3.067733e+00,,
+4.820000e+00,+3.014400e+00,,
+4.811200e+00,+3.072267e+00,,
+4.815733e+00,+3.058933e+00,,
+4.811200e+00,+3.094400e+00,,
+4.829067e+00,+3.063200e+00,,
+4.855467e+00,+3.094400e+00,,
+4.829067e+00,+3.076533e+00,,
+4.842134e+00,+3.112267e+00,,
+4.837867e+00,+3.063200e+00,,
+4.855467e+00,+3.107733e+00,,
+4.860000e+00,+3.076533e+00,,
+4.860000e+00,+3.116533e+00,,
+4.890934e+00,+3.094400e+00,,
+4.868800e+00,+3.116533e+00,,
+4.860000e+00,+3.089867e+00,,
+4.881867e+00,+3.116533e+00,,
+4.860000e+00,+3.143200e+00,,
+4.904000e+00,+3.134400e+00,,
+4.904000e+00,+3.103200e+00,,
+4.886400e+00,+3.156533e+00,,
+4.899734e+00,+3.138933e+00,,
+4.881867e+00,+3.161067e+00,,
+4.895200e+00,+3.129867e+00,,
+4.917334e+00,+3.165600e+00,,
+4.926133e+00,+3.147733e+00,,
+4.930667e+00,+3.161067e+00,,
+4.913067e+00,+3.138933e+00,,
+4.926133e+00,+3.178933e+00,,
+4.930667e+00,+3.129867e+00,,
+4.930667e+00,+3.183200e+00,,
+4.939467e+00,+3.165600e+00,,
+4.934933e+00,+3.205600e+00,,
+4.934933e+00,+3.174400e+00,,
+4.952800e+00,+3.214400e+00,,
+4.961600e+00,+3.178933e+00,,
+4.952800e+00,+3.201067e+00,,
+4.952800e+00,+3.183200e+00,,
+4.970400e+00,+3.205600e+00,,
+4.961600e+00,+3.192267e+00,,
+4.961600e+00,+3.209867e+00,,
+4.974934e+00,+3.205600e+00,,
+4.992533e+00,+3.241067e+00,,
+4.974934e+00,+3.209867e+00,,
+4.997066e+00,+3.245600e+00,,
+4.997066e+00,+3.209867e+00,,
+5.005867e+00,+3.250133e+00,,
+5.005867e+00,+3.214400e+00,,
+5.014667e+00,+3.267733e+00,,
+5.028000e+00,+3.227733e+00,,
+5.028000e+00,+3.276800e+00,,
+5.001333e+00,+3.258933e+00,,
+5.028000e+00,+3.263467e+00,,
+5.036800e+00,+3.254400e+00,,
+5.036800e+00,+3.276800e+00,,
+5.028000e+00,+3.254400e+00,,
+5.036800e+00,+3.285600e+00,,
+5.036800e+00,+3.281067e+00,,
+5.028000e+00,+3.312267e+00,,
+5.058933e+00,+3.267733e+00,,
+5.067733e+00,+3.325600e+00,,
+5.049867e+00,+3.281067e+00,,
+5.054400e+00,+3.312267e+00,,
+5.067733e+00,+3.303467e+00,,
+5.076533e+00,+3.330133e+00,,
+5.072000e+00,+3.298933e+00,,
+5.085333e+00,+3.330133e+00,,
+5.081067e+00,+3.303467e+00,,
+5.081067e+00,+3.338933e+00,,
+5.098667e+00,+3.325600e+00,,
+5.098667e+00,+3.343467e+00,,
+5.112000e+00,+3.312267e+00,,
+5.116267e+00,+3.356800e+00,,
+5.112000e+00,+3.338933e+00,,
+5.112000e+00,+3.352267e+00,,
+5.107467e+00,+3.338933e+00,,
+5.120800e+00,+3.378933e+00,,
+5.125067e+00,+3.325600e+00,,
+5.125067e+00,+3.392267e+00,,
+5.138400e+00,+3.343467e+00,,
+5.142933e+00,+3.392267e+00,,
+5.138400e+00,+3.370133e+00,,
+5.151733e+00,+3.405600e+00,,
+5.156000e+00,+3.347733e+00,,
+5.169333e+00,+3.401067e+00,,
+5.156000e+00,+3.374400e+00,,
+5.156000e+00,+3.396800e+00,,
+5.151733e+00,+3.383467e+00,,
+5.169333e+00,+3.410133e+00,,
+5.169333e+00,+3.392267e+00,,
+5.178133e+00,+3.436800e+00,,
+5.178133e+00,+3.405600e+00,,
+5.182667e+00,+3.450133e+00,,
+5.182667e+00,+3.427733e+00,,
+5.196000e+00,+3.450133e+00,,
+5.196000e+00,+3.405600e+00,,
+5.204800e+00,+3.454400e+00,,
+5.213600e+00,+3.454400e+00,,
+5.209067e+00,+3.463467e+00,,
+5.213600e+00,+3.441067e+00,,
+5.231200e+00,+3.467733e+00,,
+5.209067e+00,+3.436800e+00,,
+5.226933e+00,+3.481067e+00,,
+5.244534e+00,+3.458933e+00,,
+5.253334e+00,+3.481067e+00,,
+5.235734e+00,+3.450133e+00,,
+5.253334e+00,+3.494400e+00,,
+5.235734e+00,+3.454400e+00,,
+5.248800e+00,+3.507733e+00,,
+5.244534e+00,+3.463467e+00,,
+5.257867e+00,+3.507733e+00,,
+5.244534e+00,+3.503467e+00,,
+5.270934e+00,+3.507733e+00,,
+5.266667e+00,+3.503467e+00,,
+5.257867e+00,+3.530133e+00,,
+5.284267e+00,+3.516800e+00,,
+5.280000e+00,+3.534667e+00,,
+5.284267e+00,+3.521333e+00,,
+5.301867e+00,+3.525600e+00,,
+5.301867e+00,+3.498933e+00,,
+5.306400e+00,+3.561333e+00,,
+5.310934e+00,+3.521333e+00,,
+5.297600e+00,+3.552267e+00,,
+5.328533e+00,+3.534667e+00,,
+5.315200e+00,+3.570133e+00,,
+5.297600e+00,+3.543467e+00,,
+5.319734e+00,+3.570133e+00,,
+5.319734e+00,+3.543467e+00,,
+5.319734e+00,+3.570133e+00,,
+5.346133e+00,+3.556800e+00,,
+5.337333e+00,+3.596800e+00,,
+5.346133e+00,+3.578933e+00,,
+5.346133e+00,+3.592267e+00,,
+5.332800e+00,+3.570133e+00,,
+5.341866e+00,+3.596800e+00,,
+5.341866e+00,+3.578933e+00,,
+5.354933e+00,+3.632267e+00,,
+5.372800e+00,+3.570133e+00,,
+5.377067e+00,+3.632267e+00,,
+5.372800e+00,+3.592267e+00,,
+5.364000e+00,+3.610133e+00,,
+5.377067e+00,+3.610133e+00,,
+5.394933e+00,+3.632267e+00,,
+5.372800e+00,+3.623467e+00,,
+5.403733e+00,+3.641333e+00,,
+5.403733e+00,+3.618933e+00,,
+5.421333e+00,+3.641333e+00,,
+5.412533e+00,+3.610133e+00,,
+5.421333e+00,+3.650133e+00,,
+5.399200e+00,+3.623467e+00,,
+5.430133e+00,+3.690133e+00,,
+5.412533e+00,+3.632267e+00,,
+5.443467e+00,+3.663467e+00,,
+5.434667e+00,+3.650133e+00,,
+5.434667e+00,+3.668000e+00,,
+5.461067e+00,+3.654667e+00,,
+5.447733e+00,+3.694667e+00,,
+5.434667e+00,+3.641333e+00,,
+5.461067e+00,+3.690133e+00,,
+5.461067e+00,+3.672267e+00,,
+5.469867e+00,+3.721333e+00,,
+5.469867e+00,+3.681333e+00,,
+5.478933e+00,+3.703467e+00,,
+5.474400e+00,+3.690133e+00,,
+5.478933e+00,+3.712267e+00,,
+5.474400e+00,+3.690133e+00,,
+5.487733e+00,+3.738933e+00,,
+5.487733e+00,+3.712267e+00,,
+5.514133e+00,+3.738933e+00,,
+5.509867e+00,+3.712267e+00,,
+5.500800e+00,+3.752267e+00,,
+5.487733e+00,+3.712267e+00,,
+5.531734e+00,+3.752267e+00,,
+5.509867e+00,+3.743467e+00,,
+5.514133e+00,+3.774667e+00,,
+5.531734e+00,+3.738933e+00,,
+5.522933e+00,+3.770133e+00,,
+5.518667e+00,+3.748000e+00,,
+5.527467e+00,+3.788000e+00,,
+5.549600e+00,+3.748000e+00,,
+5.531734e+00,+3.778933e+00,,
+5.549600e+00,+3.765600e+00,,
+5.553867e+00,+3.783467e+00,,
+5.553867e+00,+3.778933e+00,,
+5.531734e+00,+3.805867e+00,,
+5.553867e+00,+3.748000e+00,,
+5.567200e+00,+3.792267e+00,,
+5.558400e+00,+3.756800e+00,,
+5.562933e+00,+3.801333e+00,,
+5.576000e+00,+3.778933e+00,,
+5.584800e+00,+3.836800e+00,,
+5.593867e+00,+3.761333e+00,,
+5.580534e+00,+3.836800e+00,,
+5.576000e+00,+3.819200e+00,,
+5.593867e+00,+3.850133e+00,,
+5.584800e+00,+3.810133e+00,,
+5.598134e+00,+3.841333e+00,,
+5.615734e+00,+3.805867e+00,,
+5.606934e+00,+3.863467e+00,,
+5.615734e+00,+3.805867e+00,,
+5.629067e+00,+3.876800e+00,,
+5.629067e+00,+3.841333e+00,,
+5.637866e+00,+3.868000e+00,,
+5.620267e+00,+3.841333e+00,,
+5.637866e+00,+3.876800e+00,,
+5.633600e+00,+3.841333e+00,,
+5.651200e+00,+3.894667e+00,,
+5.637866e+00,+3.850133e+00,,
+5.642400e+00,+3.890133e+00,,
+5.655734e+00,+3.863467e+00,,
+5.664534e+00,+3.899200e+00,,
+5.660000e+00,+3.872533e+00,,
+5.695467e+00,+3.903467e+00,,
+5.682133e+00,+3.876800e+00,,
+5.673333e+00,+3.912533e+00,,
+5.682133e+00,+3.885867e+00,,
+5.695467e+00,+3.939200e+00,,
+5.699733e+00,+3.894667e+00,,
+5.690933e+00,+3.921333e+00,,
+5.686667e+00,+3.916800e+00,,
+5.704267e+00,+3.939200e+00,,
+5.726400e+00,+3.916800e+00,,
+5.708800e+00,+3.943467e+00,,
+5.708800e+00,+3.916800e+00,,
+5.726400e+00,+3.974667e+00,,
+5.726400e+00,+3.939200e+00,,
+5.713067e+00,+3.965867e+00,,
+5.735200e+00,+3.939200e+00,,
+5.739733e+00,+3.974667e+00,,
+5.721867e+00,+3.939200e+00,,
+5.748533e+00,+4.005867e+00,,
+5.744000e+00,+3.970133e+00,,
+5.726400e+00,+3.988000e+00,,
+5.748533e+00,+3.983467e+00,,
+5.766133e+00,+4.014667e+00,,
+5.757333e+00,+3.965867e+00,,
+5.766133e+00,+3.996800e+00,,
+5.770667e+00,+3.983467e+00,,
+5.783733e+00,+4.028000e+00,,
+5.792800e+00,+3.970133e+00,,
+5.770667e+00,+4.014667e+00,,
+5.805867e+00,+3.988000e+00,,
+5.801600e+00,+4.032533e+00,,
+5.797067e+00,+4.019200e+00,,
+5.819200e+00,+4.019200e+00,,
+5.797067e+00,+4.010133e+00,,
+5.797067e+00,+4.050133e+00,,
+5.801600e+00,+4.010133e+00,,
+5.810400e+00,+4.050133e+00,,
+5.828000e+00,+4.041333e+00,,
+5.797067e+00,+4.054667e+00,,
+5.823733e+00,+4.032533e+00,,
+5.836800e+00,+4.059200e+00,,
+5.814667e+00,+4.036800e+00,,
+5.836800e+00,+4.072534e+00,,
+5.828000e+00,+4.072534e+00,,
+5.832533e+00,+4.068000e+00,,
+5.836800e+00,+4.054667e+00,,
+5.854667e+00,+4.094666e+00,,
+5.854667e+00,+4.059200e+00,,
+5.854667e+00,+4.081333e+00,,
+5.872267e+00,+4.090400e+00,,
+5.858933e+00,+4.112534e+00,,
+5.872267e+00,+4.094666e+00,,
+5.876800e+00,+4.125867e+00,,
+5.894400e+00,+4.094666e+00,,
+5.889867e+00,+4.139200e+00,,
+5.881067e+00,+4.094666e+00,,
+5.907733e+00,+4.134667e+00,,
+5.907733e+00,+4.108000e+00,,
+5.903200e+00,+4.157067e+00,,
+5.916533e+00,+4.103734e+00,,
+5.898667e+00,+4.157067e+00,,
+5.912000e+00,+4.130400e+00,,
+5.920800e+00,+4.152534e+00,,
+5.925333e+00,+4.130400e+00,,
+5.929867e+00,+4.174667e+00,,
+5.934134e+00,+4.125867e+00,,
+5.934134e+00,+4.152534e+00,,
+5.938667e+00,+4.152534e+00,,
+5.947467e+00,+4.170400e+00,,
+5.938667e+00,+4.143734e+00,,
+5.951734e+00,+4.183733e+00,,
+5.960800e+00,+4.165867e+00,,
+5.969600e+00,+4.179200e+00,,
+5.973867e+00,+4.174667e+00,,
+5.973867e+00,+4.223733e+00,,
+5.987200e+00,+4.183733e+00,,
+5.991734e+00,+4.210400e+00,,
+5.978400e+00,+4.197067e+00,,
+5.991734e+00,+4.232533e+00,,
+5.991734e+00,+4.192533e+00,,
+5.987200e+00,+4.232533e+00,,
+6.000534e+00,+4.205867e+00,,
+5.991734e+00,+4.232533e+00,,
+6.009334e+00,+4.223733e+00,,
+6.018133e+00,+4.241333e+00,,
+6.009334e+00,+4.223733e+00,,
+6.013600e+00,+4.254667e+00,,
+6.013600e+00,+4.223733e+00,,
+6.040267e+00,+4.254667e+00,,
+6.035733e+00,+4.245867e+00,,
+6.031467e+00,+4.263733e+00,,
+6.035733e+00,+4.250400e+00,,
+6.040267e+00,+4.294667e+00,,
+6.040267e+00,+4.237067e+00,,
+6.049067e+00,+4.294667e+00,,
+6.040267e+00,+4.263733e+00,,
+6.071200e+00,+4.312533e+00,,
+6.057867e+00,+4.263733e+00,,
+6.075733e+00,+4.330400e+00,,
+6.080000e+00,+4.277067e+00,,
+6.075733e+00,+4.308000e+00,,
+6.088800e+00,+4.290400e+00,,
+6.062400e+00,+4.294667e+00,,
+6.080000e+00,+4.299200e+00,,
+6.084533e+00,+4.317067e+00,,
+6.093333e+00,+4.294667e+00,,
+6.088800e+00,+4.334667e+00,,
+6.110933e+00,+4.312533e+00,,
+6.124267e+00,+4.348000e+00,,
+6.088800e+00,+4.330400e+00,,
+6.102133e+00,+4.343733e+00,,
+6.102133e+00,+4.321333e+00,,
+6.115467e+00,+4.334667e+00,,
+6.124267e+00,+4.339200e+00,,
+6.128800e+00,+4.348000e+00,,
+6.133067e+00,+4.348000e+00,,
+6.141867e+00,+4.379200e+00,,
+6.133067e+00,+4.352533e+00,,
+6.133067e+00,+4.370400e+00,,
+6.155200e+00,+4.361333e+00,,
+6.146400e+00,+4.361333e+00,,
+6.146400e+00,+4.370400e+00,,
+6.146400e+00,+4.392533e+00,,
+6.177333e+00,+4.374933e+00,,
+6.164000e+00,+4.414933e+00,,
+6.181600e+00,+4.379200e+00,,
+6.172800e+00,+4.414933e+00,,
+6.186133e+00,+4.405867e+00,,
+6.194933e+00,+4.414933e+00,,
+6.186133e+00,+4.410400e+00,,
+6.199467e+00,+4.419200e+00,,
+6.199467e+00,+4.405867e+00,,
+6.190667e+00,+4.441600e+00,,
+6.217067e+00,+4.423733e+00,,
+6.203733e+00,+4.445867e+00,,
+6.190667e+00,+4.410400e+00,,
+6.212800e+00,+4.428267e+00,,
+6.225867e+00,+4.437067e+00,,
+6.225867e+00,+4.463733e+00,,
+6.248000e+00,+4.450400e+00,,
+6.225867e+00,+4.441600e+00,,
+6.256800e+00,+4.445867e+00,,
+6.234667e+00,+4.477067e+00,,
+6.248000e+00,+4.450400e+00,,
+6.243733e+00,+4.485867e+00,,
+6.256800e+00,+4.468266e+00,,
+6.239200e+00,+4.485867e+00,,
+6.248000e+00,+4.468266e+00,,
+6.265600e+00,+4.503733e+00,,
+6.301067e+00,+4.459200e+00,,
+6.265600e+00,+4.494934e+00,,
+6.274667e+00,+4.459200e+00,,
+6.274667e+00,+4.521600e+00,,
+6.292267e+00,+4.494934e+00,,
+6.278934e+00,+4.525867e+00,,
+6.296534e+00,+4.508267e+00,,
+6.309867e+00,+4.534934e+00,,
+6.318667e+00,+4.521600e+00,,
+6.305600e+00,+4.525867e+00,,
+6.309867e+00,+4.503733e+00,,
+6.327734e+00,+4.561600e+00,,
+6.301067e+00,+4.534934e+00,,
+6.323200e+00,+4.548267e+00,,
+6.336534e+00,+4.525867e+00,,
+6.345334e+00,+4.552533e+00,,
+6.340800e+00,+4.530400e+00,,
+6.340800e+00,+4.570400e+00,,
+6.345334e+00,+4.530400e+00,,
+6.349600e+00,+4.574934e+00,,
+6.354134e+00,+4.557067e+00,,
+6.349600e+00,+4.588267e+00,,
+6.349600e+00,+4.557067e+00,,
+6.367467e+00,+4.583734e+00,,
+6.362934e+00,+4.574934e+00,,
+6.385067e+00,+4.597067e+00,,
+6.371733e+00,+4.561600e+00,,
+6.389600e+00,+4.588267e+00,,
+6.385067e+00,+4.579200e+00,,
+6.393867e+00,+4.623734e+00,,
+6.402667e+00,+4.588267e+00,,
+6.402667e+00,+4.614933e+00,,
+6.398400e+00,+4.610400e+00,,
+6.420533e+00,+4.645867e+00,,
+6.402667e+00,+4.605867e+00,,
+6.407200e+00,+4.628267e+00,,
+6.411734e+00,+4.623734e+00,,
+6.424800e+00,+4.628267e+00,,
+6.433600e+00,+4.605867e+00,,
+6.446933e+00,+4.641600e+00,,
+6.429333e+00,+4.641600e+00,,
+6.429333e+00,+4.650400e+00,,
+6.446933e+00,+4.645867e+00,,
+6.438133e+00,+4.677067e+00,,
+6.455733e+00,+4.641600e+00,,
+6.460267e+00,+4.681600e+00,,
+6.455733e+00,+4.645867e+00,,
+6.460267e+00,+4.699467e+00,,
+6.455733e+00,+4.645867e+00,,
+6.460267e+00,+4.686133e+00,,
+6.473600e+00,+4.668267e+00,,
+6.477867e+00,+4.721600e+00,,
+6.482400e+00,+4.668267e+00,,
+6.491200e+00,+4.708267e+00,,
+6.495733e+00,+4.708267e+00,,
+6.504533e+00,+4.721600e+00,,
+6.477867e+00,+4.703733e+00,,
+6.513333e+00,+4.743733e+00,,
+6.504533e+00,+4.703733e+00,,
+6.504533e+00,+4.739467e+00,,
+6.504533e+00,+4.699467e+00,,
+6.504533e+00,+4.743733e+00,,
+6.500000e+00,+4.730400e+00,,
+6.517600e+00,+4.739467e+00,,
+6.526667e+00,+4.726133e+00,,
+6.522133e+00,+4.752800e+00,,
+6.544267e+00,+4.739467e+00,,
+6.530933e+00,+4.748267e+00,,
+6.535467e+00,+4.757067e+00,,
+6.548533e+00,+4.774933e+00,,
+6.530933e+00,+4.743733e+00,,
+6.548533e+00,+4.766133e+00,,
+6.561867e+00,+4.757067e+00,,
+6.557600e+00,+4.779467e+00,,
+6.575200e+00,+4.766133e+00,,
+6.544267e+00,+4.797067e+00,,
+6.566400e+00,+4.779467e+00,,
+6.584000e+00,+4.797067e+00,,
+6.584000e+00,+4.766133e+00,,
+6.601600e+00,+4.806133e+00,,
+6.588533e+00,+4.792800e+00,,
+6.614933e+00,+4.810400e+00,,
+6.619467e+00,+4.797067e+00,,
+6.610667e+00,+4.832800e+00,,
+6.619467e+00,+4.819467e+00,,
+6.606133e+00,+4.828267e+00,,
+6.610667e+00,+4.832800e+00,,
+6.623734e+00,+4.837067e+00,,
+6.632534e+00,+4.819467e+00,,
+6.628267e+00,+4.850400e+00,,
+6.623734e+00,+4.837067e+00,,
+6.654667e+00,+4.872800e+00,,
+6.650400e+00,+4.832800e+00,,
+6.641600e+00,+4.854933e+00,,
+6.645867e+00,+4.854933e+00,,
+6.650400e+00,+4.863733e+00,,
+6.654667e+00,+4.854933e+00,,
+6.654667e+00,+4.899467e+00,,
+6.668000e+00,+4.868267e+00,,
+6.654667e+00,+4.890400e+00,,
+6.668000e+00,+4.868267e+00,,
+6.690134e+00,+4.903733e+00,,
+6.672534e+00,+4.863733e+00,,
+6.690134e+00,+4.903733e+00,,
+6.690134e+00,+4.881600e+00,,
+6.712267e+00,+4.934933e+00,,
+6.698934e+00,+4.899467e+00,,
+6.707734e+00,+4.926133e+00,,
+6.712267e+00,+4.894933e+00,,
+6.707734e+00,+4.939467e+00,,
+6.712267e+00,+4.912800e+00,,
+6.698934e+00,+4.939467e+00,,
+6.716533e+00,+4.917067e+00,,
+6.721067e+00,+4.934933e+00,,
+6.734400e+00,+4.952800e+00,,
+6.721067e+00,+4.970667e+00,,
+6.752000e+00,+4.934933e+00,,
+6.752000e+00,+4.961600e+00,,
+6.752000e+00,+4.926133e+00,,
+6.765333e+00,+4.984000e+00,,
+6.747467e+00,+4.930400e+00,,
+6.769600e+00,+4.979467e+00,,
+6.760800e+00,+4.970667e+00,,
+6.774133e+00,+4.984000e+00,,
+6.760800e+00,+4.970667e+00,,
+6.774133e+00,+4.988267e+00,,
+6.782933e+00,+4.984000e+00,,
+6.805067e+00,+5.024000e+00,,
+6.787467e+00,+4.970667e+00,,
+6.774133e+00,+5.010667e+00,,
+6.791733e+00,+4.984000e+00,,
+6.809600e+00,+5.032800e+00,,
+6.800533e+00,+4.992800e+00,,
+6.791733e+00,+5.024000e+00,,
+6.818400e+00,+5.006134e+00,,
+6.809600e+00,+5.037333e+00,,
+6.813867e+00,+5.006134e+00,,
+6.818400e+00,+5.028267e+00,,
+6.831467e+00,+5.028267e+00,,
+6.827200e+00,+5.050667e+00,,
+6.840533e+00,+5.041600e+00,,
+6.831467e+00,+5.064000e+00,,
+6.827200e+00,+5.032800e+00,,
+6.862400e+00,+5.077333e+00,,
+6.840533e+00,+5.046134e+00,,
+6.858133e+00,+5.068267e+00,,
+6.849333e+00,+5.064000e+00,,
+6.858133e+00,+5.090667e+00,,
+6.849333e+00,+5.064000e+00,,
+6.858133e+00,+5.099467e+00,,
+6.866933e+00,+5.072800e+00,,
+6.889067e+00,+5.090667e+00,,
+6.893600e+00,+5.068267e+00,,
+6.889067e+00,+5.112800e+00,,
+6.889067e+00,+5.068267e+00,,
+6.893600e+00,+5.112800e+00,,
+6.880267e+00,+5.094934e+00,,
+6.911200e+00,+5.130667e+00,,
+6.880267e+00,+5.081600e+00,,
+6.915467e+00,+5.112800e+00,,
+6.889067e+00,+5.108267e+00,,
+6.915467e+00,+5.134933e+00,,
+6.911200e+00,+5.108267e+00,,
+6.915467e+00,+5.144000e+00,,
+6.924533e+00,+5.126133e+00,,
+6.933333e+00,+5.157333e+00,,
+6.937600e+00,+5.130667e+00,,
+6.933333e+00,+5.139467e+00,,
+6.946400e+00,+5.126133e+00,,
+6.959733e+00,+5.174933e+00,,
+6.955467e+00,+5.130667e+00,,
+6.959733e+00,+5.184000e+00,,
+6.981867e+00,+5.166133e+00,,
+6.955467e+00,+5.179467e+00,,
+6.968534e+00,+5.144000e+00,,
+6.973067e+00,+5.188267e+00,,
+6.999467e+00,+5.179467e+00,,
+6.986400e+00,+5.210667e+00,,
+6.990667e+00,+5.184000e+00,,
+6.999467e+00,+5.197333e+00,,
+6.990667e+00,+5.188267e+00,,
+7.012800e+00,+5.197333e+00,,
+6.995200e+00,+5.192800e+00,,
+7.004000e+00,+5.224000e+00,,
+6.995200e+00,+5.214933e+00,,
+7.021600e+00,+5.214933e+00,,
+7.008533e+00,+5.228533e+00,,
+7.017334e+00,+5.246133e+00,,
+7.008533e+00,+5.192800e+00,,
+7.030400e+00,+5.250667e+00,,
+7.043734e+00,+5.241867e+00,,
+7.043734e+00,+5.272800e+00,,
+7.043734e+00,+5.255200e+00,,
+7.048267e+00,+5.268533e+00,,
+7.048267e+00,+5.232800e+00,,
+7.057067e+00,+5.277333e+00,,
+7.065867e+00,+5.259467e+00,,
+7.061600e+00,+5.281867e+00,,
+7.065867e+00,+5.268533e+00,,
+7.061600e+00,+5.286133e+00,,
+7.079200e+00,+5.268533e+00,,
+7.105600e+00,+5.295200e+00,,
+7.083467e+00,+5.255200e+00,,
+7.079200e+00,+5.330667e+00,,
+7.088000e+00,+5.286133e+00,,
+7.083467e+00,+5.330667e+00,,
+7.101334e+00,+5.268533e+00,,
+7.096800e+00,+5.295200e+00,,
+7.114400e+00,+5.299467e+00,,
+7.110134e+00,+5.326133e+00,,
+7.110134e+00,+5.312800e+00,,
+7.110134e+00,+5.330667e+00,,
+7.132267e+00,+5.317333e+00,,
+7.127733e+00,+5.339467e+00,,
+7.123467e+00,+5.339467e+00,,
+7.136533e+00,+5.352800e+00,,
+7.127733e+00,+5.326133e+00,,
+7.127733e+00,+5.352800e+00,,
+7.141067e+00,+5.344000e+00,,
+7.154400e+00,+5.370667e+00,,
+7.136533e+00,+5.352800e+00,,
+7.163200e+00,+5.375200e+00,,
+7.158667e+00,+5.366133e+00,,
