2N3904/RigolDS5.csv

CH1V,CH2V,t0 =-1.000000e-02, tInc = 2.000000e-06,
+4.501867e+00,+2.218667e+00,,
+4.479733e+00,+2.254133e+00,,
+4.479733e+00,+2.214133e+00,,
+4.488533e+00,+2.245333e+00,,
+4.488533e+00,+2.227467e+00,,
+4.484000e+00,+2.249600e+00,,
+4.501867e+00,+2.240800e+00,,
+4.515200e+00,+2.249600e+00,,
+4.506134e+00,+2.227467e+00,,
+4.497334e+00,+2.280800e+00,,
+4.515200e+00,+2.240800e+00,,
+4.528267e+00,+2.280800e+00,,
+4.510667e+00,+2.262933e+00,,
+4.559200e+00,+2.276267e+00,,
+4.532800e+00,+2.262933e+00,,
+4.541600e+00,+2.294133e+00,,
+4.528267e+00,+2.276267e+00,,
+4.550400e+00,+2.316267e+00,,
+4.554934e+00,+2.254133e+00,,
+4.550400e+00,+2.325333e+00,,
+4.563734e+00,+2.272000e+00,,
+4.559200e+00,+2.334133e+00,,
+4.559200e+00,+2.307467e+00,,
+4.572534e+00,+2.334133e+00,,
+4.581333e+00,+2.329600e+00,,
+4.598933e+00,+2.347467e+00,,
+4.581333e+00,+2.316267e+00,,
+4.585867e+00,+2.356267e+00,,
+4.585867e+00,+2.325333e+00,,
+4.603467e+00,+2.347467e+00,,
+4.603467e+00,+2.320800e+00,,
+4.608000e+00,+2.369600e+00,,
+4.594666e+00,+2.342933e+00,,
+4.621067e+00,+2.396533e+00,,
+4.585867e+00,+2.360800e+00,,
+4.625600e+00,+2.374133e+00,,
+4.630133e+00,+2.369600e+00,,
+4.643200e+00,+2.396533e+00,,
+4.621067e+00,+2.365333e+00,,
+4.630133e+00,+2.400800e+00,,
+4.652000e+00,+2.356267e+00,,
+4.647733e+00,+2.423200e+00,,
+4.647733e+00,+2.405333e+00,,
+4.652000e+00,+2.409867e+00,,
+4.638933e+00,+2.392000e+00,,
+4.661067e+00,+2.423200e+00,,
+4.656533e+00,+2.409867e+00,,
+4.661067e+00,+2.418667e+00,,
+4.674133e+00,+2.423200e+00,,
+4.674133e+00,+2.432000e+00,,
+4.687467e+00,+2.418667e+00,,
+4.692000e+00,+2.445333e+00,,
+4.687467e+00,+2.405333e+00,,
+4.696267e+00,+2.458667e+00,,
+4.705067e+00,+2.427467e+00,,
+4.714133e+00,+2.472000e+00,,
+4.709600e+00,+2.427467e+00,,
+4.714133e+00,+2.463200e+00,,
+4.718400e+00,+2.445333e+00,,
+4.731733e+00,+2.498667e+00,,
+4.722933e+00,+2.454133e+00,,
+4.722933e+00,+2.489867e+00,,
+4.727200e+00,+2.467467e+00,,
+4.736000e+00,+2.503200e+00,,
+4.718400e+00,+2.472000e+00,,
+4.749333e+00,+2.503200e+00,,
+4.736000e+00,+2.454133e+00,,
+4.753867e+00,+2.485333e+00,,
+4.753867e+00,+2.480800e+00,,
+4.745067e+00,+2.498667e+00,,
+4.762667e+00,+2.480800e+00,,
+4.766933e+00,+2.498667e+00,,
+4.762667e+00,+2.503200e+00,,
+4.776000e+00,+2.543200e+00,,
+4.780267e+00,+2.489867e+00,,
+4.793600e+00,+2.529867e+00,,
+4.771467e+00,+2.520800e+00,,
+4.784800e+00,+2.534133e+00,,
+4.789067e+00,+2.520800e+00,,
+4.802400e+00,+2.547467e+00,,
+4.793600e+00,+2.547467e+00,,
+4.802400e+00,+2.547467e+00,,
+4.806933e+00,+2.556533e+00,,
+4.811200e+00,+2.560800e+00,,
+4.802400e+00,+2.538667e+00,,
+4.824533e+00,+2.565333e+00,,
+4.815733e+00,+2.547467e+00,,
+4.842134e+00,+2.569867e+00,,
+4.829067e+00,+2.565333e+00,,
+4.855467e+00,+2.587467e+00,,
+4.824533e+00,+2.560800e+00,,
+4.855467e+00,+2.609867e+00,,
+4.850934e+00,+2.578667e+00,,
+4.860000e+00,+2.614133e+00,,
+4.855467e+00,+2.614133e+00,,
+4.864267e+00,+2.609867e+00,,
+4.881867e+00,+2.592000e+00,,
+4.864267e+00,+2.618667e+00,,
+4.873067e+00,+2.618667e+00,,
+4.877600e+00,+2.636533e+00,,
+4.868800e+00,+2.618667e+00,,
+4.881867e+00,+2.640800e+00,,
+4.868800e+00,+2.636533e+00,,
+4.899734e+00,+2.649867e+00,,
+4.886400e+00,+2.645333e+00,,
+4.895200e+00,+2.636533e+00,,
+4.908534e+00,+2.640800e+00,,
+4.908534e+00,+2.663200e+00,,
+4.904000e+00,+2.640800e+00,,
+4.939467e+00,+2.681067e+00,,
+4.904000e+00,+2.632000e+00,,
+4.930667e+00,+2.672000e+00,,
+4.926133e+00,+2.658667e+00,,
+4.939467e+00,+2.689867e+00,,
+4.944000e+00,+2.667733e+00,,
+4.926133e+00,+2.712000e+00,,
+4.944000e+00,+2.676533e+00,,
+4.944000e+00,+2.685333e+00,,
+4.957067e+00,+2.689867e+00,,
+4.957067e+00,+2.698667e+00,,
+4.961600e+00,+2.689867e+00,,
+4.979200e+00,+2.734400e+00,,
+4.970400e+00,+2.689867e+00,,
+4.961600e+00,+2.729867e+00,,
+4.979200e+00,+2.725333e+00,,
+4.983733e+00,+2.747733e+00,,
+4.983733e+00,+2.712000e+00,,
+4.983733e+00,+2.734400e+00,,
+4.992533e+00,+2.721067e+00,,
+4.992533e+00,+2.747733e+00,,
+4.992533e+00,+2.721067e+00,,
+5.005867e+00,+2.752000e+00,,
+5.001333e+00,+2.721067e+00,,
+5.018933e+00,+2.769867e+00,,
+5.041067e+00,+2.729867e+00,,
+5.028000e+00,+2.765333e+00,,
+5.028000e+00,+2.765333e+00,,
+5.028000e+00,+2.778667e+00,,
+5.028000e+00,+2.752000e+00,,
+5.032267e+00,+2.787733e+00,,
+5.054400e+00,+2.761067e+00,,
+5.049867e+00,+2.787733e+00,,
+5.045600e+00,+2.787733e+00,,
+5.041067e+00,+2.809867e+00,,
+5.067733e+00,+2.769867e+00,,
+5.058933e+00,+2.809867e+00,,
+5.054400e+00,+2.792000e+00,,
+5.081067e+00,+2.827733e+00,,
+5.072000e+00,+2.796533e+00,,
+5.089867e+00,+2.832000e+00,,
+5.089867e+00,+2.796533e+00,,
+5.112000e+00,+2.845333e+00,,
+5.085333e+00,+2.809867e+00,,
+5.094133e+00,+2.841067e+00,,
+5.085333e+00,+2.814400e+00,,
+5.085333e+00,+2.849867e+00,,
+5.102933e+00,+2.814400e+00,,
+5.116267e+00,+2.867733e+00,,
+5.112000e+00,+2.867733e+00,,
+5.116267e+00,+2.867733e+00,,
+5.112000e+00,+2.849867e+00,,
+5.120800e+00,+2.876533e+00,,
+5.129600e+00,+2.836533e+00,,
+5.142933e+00,+2.881067e+00,,
+5.138400e+00,+2.863200e+00,,
+5.147200e+00,+2.889867e+00,,
+5.160533e+00,+2.872000e+00,,
+5.173867e+00,+2.903200e+00,,
+5.147200e+00,+2.867733e+00,,
+5.156000e+00,+2.898667e+00,,
+5.173867e+00,+2.894400e+00,,
+5.160533e+00,+2.929867e+00,,
+5.173867e+00,+2.889867e+00,,
+5.182667e+00,+2.929867e+00,,
+5.182667e+00,+2.876533e+00,,
+5.178133e+00,+2.916533e+00,,
+5.186934e+00,+2.912000e+00,,
+5.200267e+00,+2.938667e+00,,
+5.191467e+00,+2.912000e+00,,
+5.200267e+00,+2.952267e+00,,
+5.200267e+00,+2.929867e+00,,
+5.226933e+00,+2.938667e+00,,
+5.209067e+00,+2.903200e+00,,
+5.213600e+00,+2.961067e+00,,
+5.213600e+00,+2.929867e+00,,
+5.231200e+00,+2.978933e+00,,
+5.217867e+00,+2.938667e+00,,
+5.240000e+00,+2.983200e+00,,
+5.240000e+00,+2.956533e+00,,
+5.226933e+00,+2.974400e+00,,
+5.257867e+00,+2.956533e+00,,
+5.253334e+00,+2.978933e+00,,
+5.262134e+00,+2.965600e+00,,
+5.231200e+00,+2.996533e+00,,
+5.262134e+00,+2.974400e+00,,
+5.235734e+00,+3.027733e+00,,
+5.262134e+00,+2.992267e+00,,
+5.288800e+00,+3.018933e+00,,
+5.266667e+00,+2.992267e+00,,
+5.284267e+00,+3.027733e+00,,
+5.288800e+00,+3.001067e+00,,
+5.284267e+00,+3.014400e+00,,
+5.266667e+00,+3.005600e+00,,
+5.297600e+00,+3.041067e+00,,
+5.310934e+00,+3.009867e+00,,
+5.297600e+00,+3.041067e+00,,
+5.293067e+00,+3.032267e+00,,
+5.288800e+00,+3.041067e+00,,
+5.310934e+00,+3.041067e+00,,
+5.337333e+00,+3.063200e+00,,
+5.319734e+00,+3.032267e+00,,
+5.324000e+00,+3.063200e+00,,
+5.346133e+00,+3.041067e+00,,
+5.332800e+00,+3.089867e+00,,
+5.341866e+00,+3.063200e+00,,
+5.341866e+00,+3.094400e+00,,
+5.350667e+00,+3.072267e+00,,
+5.337333e+00,+3.112267e+00,,
+5.359467e+00,+3.081067e+00,,
+5.341866e+00,+3.107733e+00,,
+5.350667e+00,+3.103200e+00,,
+5.364000e+00,+3.112267e+00,,
+5.359467e+00,+3.103200e+00,,
+5.394933e+00,+3.112267e+00,,
+5.385867e+00,+3.089867e+00,,
+5.421333e+00,+3.107733e+00,,
+5.390400e+00,+3.103200e+00,,
+5.385867e+00,+3.147733e+00,,
+5.399200e+00,+3.125600e+00,,
+5.403733e+00,+3.143200e+00,,
+5.403733e+00,+3.116533e+00,,
+5.425867e+00,+3.169867e+00,,
+5.403733e+00,+3.129867e+00,,
+5.421333e+00,+3.138933e+00,,
+5.416800e+00,+3.129867e+00,,
+5.430133e+00,+3.152267e+00,,
+5.425867e+00,+3.125600e+00,,
+5.447733e+00,+3.174400e+00,,
+5.430133e+00,+3.161067e+00,,
+5.447733e+00,+3.183200e+00,,
+5.447733e+00,+3.147733e+00,,
+5.438933e+00,+3.169867e+00,,
+5.461067e+00,+3.169867e+00,,
+5.447733e+00,+3.169867e+00,,
+5.443467e+00,+3.178933e+00,,
+5.474400e+00,+3.183200e+00,,
+5.465600e+00,+3.205600e+00,,
+5.465600e+00,+3.214400e+00,,
+5.474400e+00,+3.178933e+00,,
+5.478933e+00,+3.214400e+00,,
+5.483200e+00,+3.196533e+00,,
+5.483200e+00,+3.236800e+00,,
+5.483200e+00,+3.205600e+00,,
+5.509867e+00,+3.223200e+00,,
+5.514133e+00,+3.196533e+00,,
+5.509867e+00,+3.245600e+00,,
+5.496533e+00,+3.201067e+00,,
+5.522933e+00,+3.258933e+00,,
+5.531734e+00,+3.214400e+00,,
+5.545067e+00,+3.281067e+00,,
+5.518667e+00,+3.241067e+00,,
+5.531734e+00,+3.281067e+00,,
+5.540800e+00,+3.250133e+00,,
+5.527467e+00,+3.290133e+00,,
+5.549600e+00,+3.245600e+00,,
+5.536267e+00,+3.285600e+00,,
+5.549600e+00,+3.276800e+00,,
+5.553867e+00,+3.303467e+00,,
+5.540800e+00,+3.254400e+00,,
+5.576000e+00,+3.307733e+00,,
+5.562933e+00,+3.294400e+00,,
+5.567200e+00,+3.298933e+00,,
+5.562933e+00,+3.285600e+00,,
+5.576000e+00,+3.321067e+00,,
+5.593867e+00,+3.285600e+00,,
+5.602667e+00,+3.307733e+00,,
+5.584800e+00,+3.303467e+00,,
+5.593867e+00,+3.334400e+00,,
+5.589334e+00,+3.312267e+00,,
+5.606934e+00,+3.330133e+00,,
+5.606934e+00,+3.330133e+00,,
+5.615734e+00,+3.352267e+00,,
+5.624800e+00,+3.330133e+00,,
+5.624800e+00,+3.365600e+00,,
+5.624800e+00,+3.338933e+00,,
+5.629067e+00,+3.370133e+00,,
+5.637866e+00,+3.334400e+00,,
+5.642400e+00,+3.352267e+00,,
+5.646934e+00,+3.347733e+00,,
+5.642400e+00,+3.365600e+00,,
+5.646934e+00,+3.356800e+00,,
+5.642400e+00,+3.401067e+00,,
+5.651200e+00,+3.352267e+00,,
+5.664534e+00,+3.396800e+00,,
+5.664534e+00,+3.365600e+00,,
+5.660000e+00,+3.378933e+00,,
+5.690933e+00,+3.383467e+00,,
+5.682133e+00,+3.414400e+00,,
+5.660000e+00,+3.387733e+00,,
+5.695467e+00,+3.423467e+00,,
+5.677867e+00,+3.392267e+00,,
+5.690933e+00,+3.418933e+00,,
+5.708800e+00,+3.423467e+00,,
+5.673333e+00,+3.436800e+00,,
+5.704267e+00,+3.414400e+00,,
+5.726400e+00,+3.441067e+00,,
+5.721867e+00,+3.418933e+00,,
+5.717600e+00,+3.436800e+00,,
+5.713067e+00,+3.441067e+00,,
+5.744000e+00,+3.450133e+00,,
+5.748533e+00,+3.436800e+00,,
+5.730667e+00,+3.463467e+00,,
+5.717600e+00,+3.432267e+00,,
+5.752800e+00,+3.481067e+00,,
+5.757333e+00,+3.454400e+00,,
+5.761867e+00,+3.485600e+00,,
+5.752800e+00,+3.463467e+00,,
+5.748533e+00,+3.498933e+00,,
+5.748533e+00,+3.467733e+00,,
+5.779467e+00,+3.498933e+00,,
+5.761867e+00,+3.476800e+00,,
+5.766133e+00,+3.494400e+00,,
+5.779467e+00,+3.498933e+00,,
+5.779467e+00,+3.516800e+00,,
+5.774933e+00,+3.498933e+00,,
+5.788267e+00,+3.507733e+00,,
+5.792800e+00,+3.503467e+00,,
+5.774933e+00,+3.521333e+00,,
+5.779467e+00,+3.490133e+00,,
+5.823733e+00,+3.548000e+00,,
+5.805867e+00,+3.521333e+00,,
+5.814667e+00,+3.534667e+00,,
+5.805867e+00,+3.512267e+00,,
+5.810400e+00,+3.561333e+00,,
+5.819200e+00,+3.534667e+00,,
+5.810400e+00,+3.538933e+00,,
+5.836800e+00,+3.516800e+00,,
+5.819200e+00,+3.556800e+00,,
+5.832533e+00,+3.556800e+00,,
+5.832533e+00,+3.561333e+00,,
+5.845867e+00,+3.565600e+00,,
+5.854667e+00,+3.578933e+00,,
+5.850133e+00,+3.552267e+00,,
+5.863467e+00,+3.596800e+00,,
+5.858933e+00,+3.565600e+00,,
+5.863467e+00,+3.596800e+00,,
+5.867733e+00,+3.583467e+00,,
+5.876800e+00,+3.610133e+00,,
+5.881067e+00,+3.588000e+00,,
+5.889867e+00,+3.610133e+00,,
+5.903200e+00,+3.592267e+00,,
+5.898667e+00,+3.610133e+00,,
+5.876800e+00,+3.592267e+00,,
+5.903200e+00,+3.636800e+00,,
+5.894400e+00,+3.614667e+00,,
+5.898667e+00,+3.636800e+00,,
+5.903200e+00,+3.628000e+00,,
+5.912000e+00,+3.641333e+00,,
+5.907733e+00,+3.610133e+00,,
+5.912000e+00,+3.658933e+00,,
+5.929867e+00,+3.632267e+00,,
+5.938667e+00,+3.645600e+00,,
+5.942934e+00,+3.650133e+00,,
+5.947467e+00,+3.668000e+00,,
+5.956267e+00,+3.636800e+00,,
+5.920800e+00,+3.668000e+00,,
+5.965067e+00,+3.668000e+00,,
+5.978400e+00,+3.681333e+00,,
+5.956267e+00,+3.676800e+00,,
+5.965067e+00,+3.676800e+00,,
+5.965067e+00,+3.654667e+00,,
+5.982667e+00,+3.690133e+00,,
+5.973867e+00,+3.690133e+00,,
+6.009334e+00,+3.698933e+00,,
+5.978400e+00,+3.685600e+00,,
+6.000534e+00,+3.716800e+00,,
+6.000534e+00,+3.694667e+00,,
+5.996000e+00,+3.725600e+00,,
+6.004800e+00,+3.703467e+00,,
+6.013600e+00,+3.721333e+00,,
+6.009334e+00,+3.708000e+00,,
+6.000534e+00,+3.743467e+00,,
+6.022667e+00,+3.716800e+00,,
+6.004800e+00,+3.734667e+00,,
+6.026933e+00,+3.725600e+00,,
+6.013600e+00,+3.770133e+00,,
+6.031467e+00,+3.725600e+00,,
+6.057867e+00,+3.761333e+00,,
+6.035733e+00,+3.748000e+00,,
+6.057867e+00,+3.765600e+00,,
+6.035733e+00,+3.748000e+00,,
+6.062400e+00,+3.774667e+00,,
+6.062400e+00,+3.761333e+00,,
+6.071200e+00,+3.774667e+00,,
+6.053600e+00,+3.774667e+00,,
+6.057867e+00,+3.796800e+00,,
+6.080000e+00,+3.774667e+00,,
+6.080000e+00,+3.810133e+00,,
+6.084533e+00,+3.788000e+00,,
+6.080000e+00,+3.810133e+00,,
+6.102133e+00,+3.792267e+00,,
+6.093333e+00,+3.828000e+00,,
+6.084533e+00,+3.792267e+00,,
+6.097600e+00,+3.828000e+00,,
+6.102133e+00,+3.792267e+00,,
+6.115467e+00,+3.828000e+00,,
+6.102133e+00,+3.814667e+00,,
+6.110933e+00,+3.836800e+00,,
+6.119733e+00,+3.832533e+00,,
+6.115467e+00,+3.863467e+00,,
+6.124267e+00,+3.828000e+00,,
+6.133067e+00,+3.841333e+00,,
+6.128800e+00,+3.823467e+00,,
+6.133067e+00,+3.854667e+00,,
+6.146400e+00,+3.823467e+00,,
+6.146400e+00,+3.876800e+00,,
+6.159733e+00,+3.845867e+00,,
+6.133067e+00,+3.876800e+00,,
+6.155200e+00,+3.859200e+00,,
+6.168533e+00,+3.885867e+00,,
+6.150667e+00,+3.863467e+00,,
+6.168533e+00,+3.868000e+00,,
+6.186133e+00,+3.863467e+00,,
+6.190667e+00,+3.899200e+00,,
+6.190667e+00,+3.885867e+00,,
+6.177333e+00,+3.921333e+00,,
+6.203733e+00,+3.868000e+00,,
+6.177333e+00,+3.916800e+00,,
+6.212800e+00,+3.894667e+00,,
+6.212800e+00,+3.916800e+00,,
+6.208267e+00,+3.890133e+00,,
+6.221600e+00,+3.921333e+00,,
+6.230400e+00,+3.908000e+00,,
+6.208267e+00,+3.930133e+00,,
+6.208267e+00,+3.921333e+00,,
+6.225867e+00,+3.939200e+00,,
+6.234667e+00,+3.916800e+00,,
+6.221600e+00,+3.939200e+00,,
+6.230400e+00,+3.948000e+00,,
+6.243733e+00,+3.952533e+00,,
+6.248000e+00,+3.939200e+00,,
+6.265600e+00,+3.961333e+00,,
+6.252533e+00,+3.961333e+00,,
+6.270133e+00,+3.988000e+00,,
+6.256800e+00,+3.961333e+00,,
+6.256800e+00,+3.961333e+00,,
+6.252533e+00,+3.952533e+00,,
+6.278934e+00,+4.014667e+00,,
+6.287734e+00,+3.974667e+00,,
+6.278934e+00,+3.992533e+00,,
+6.265600e+00,+3.983467e+00,,
+6.270133e+00,+4.010133e+00,,
+6.309867e+00,+3.988000e+00,,
+6.309867e+00,+4.023467e+00,,
+6.301067e+00,+3.983467e+00,,
+6.305600e+00,+4.032533e+00,,
+6.314400e+00,+4.005867e+00,,
+6.323200e+00,+4.050133e+00,,
+6.323200e+00,+4.019200e+00,,
+6.332000e+00,+4.028000e+00,,
+6.327734e+00,+4.032533e+00,,
+6.332000e+00,+4.068000e+00,,
+6.345334e+00,+4.041333e+00,,
+6.340800e+00,+4.059200e+00,,
+6.332000e+00,+4.036800e+00,,
+6.349600e+00,+4.072534e+00,,
+6.367467e+00,+4.054667e+00,,
+6.349600e+00,+4.072534e+00,,
+6.362934e+00,+4.054667e+00,,
+6.385067e+00,+4.094666e+00,,
+6.362934e+00,+4.072534e+00,,
+6.385067e+00,+4.085867e+00,,
+6.389600e+00,+4.063467e+00,,
+6.398400e+00,+4.090400e+00,,
+6.393867e+00,+4.076800e+00,,
+6.389600e+00,+4.103734e+00,,
+6.411734e+00,+4.090400e+00,,
+6.402667e+00,+4.117067e+00,,
+6.389600e+00,+4.090400e+00,,
+6.416000e+00,+4.112534e+00,,
+6.416000e+00,+4.112534e+00,,
+6.407200e+00,+4.130400e+00,,
+6.420533e+00,+4.117067e+00,,
+6.438133e+00,+4.157067e+00,,
+6.416000e+00,+4.099200e+00,,
+6.424800e+00,+4.152534e+00,,
+6.433600e+00,+4.130400e+00,,
+6.442667e+00,+4.161334e+00,,
+6.429333e+00,+4.130400e+00,,
+6.455733e+00,+4.165867e+00,,
+6.455733e+00,+4.148000e+00,,
+6.429333e+00,+4.170400e+00,,
+6.442667e+00,+4.134667e+00,,
+6.460267e+00,+4.183733e+00,,
+6.455733e+00,+4.148000e+00,,
+6.460267e+00,+4.170400e+00,,
+6.455733e+00,+4.139200e+00,,
+6.464533e+00,+4.161334e+00,,
+6.473600e+00,+4.188000e+00,,
+6.477867e+00,+4.197067e+00,,
+6.473600e+00,+4.201334e+00,,
+6.495733e+00,+4.210400e+00,,
+6.500000e+00,+4.161334e+00,,
+6.504533e+00,+4.197067e+00,,
+6.508800e+00,+4.197067e+00,,
+6.526667e+00,+4.232533e+00,,
+6.508800e+00,+4.210400e+00,,
+6.522133e+00,+4.210400e+00,,
+6.522133e+00,+4.237067e+00,,
+6.535467e+00,+4.232533e+00,,
+6.539733e+00,+4.228000e+00,,
+6.530933e+00,+4.254667e+00,,
+6.522133e+00,+4.228000e+00,,
+6.522133e+00,+4.263733e+00,,
+6.548533e+00,+4.223733e+00,,
+6.561867e+00,+4.263733e+00,,
+6.557600e+00,+4.228000e+00,,
+6.553067e+00,+4.272533e+00,,
+6.561867e+00,+4.263733e+00,,
+6.584000e+00,+4.299200e+00,,
+6.570667e+00,+4.254667e+00,,
+6.570667e+00,+4.277067e+00,,
+6.584000e+00,+4.281333e+00,,
+6.588533e+00,+4.285867e+00,,
+6.588533e+00,+4.285867e+00,,
+6.588533e+00,+4.299200e+00,,
+6.601600e+00,+4.272533e+00,,
+6.579467e+00,+4.303733e+00,,
+6.606133e+00,+4.294667e+00,,
+6.614933e+00,+4.330400e+00,,
+6.619467e+00,+4.312533e+00,,
+6.623734e+00,+4.330400e+00,,
+6.619467e+00,+4.312533e+00,,
+6.592800e+00,+4.294667e+00,,
+6.645867e+00,+4.303733e+00,,
+6.614933e+00,+4.357067e+00,,
+6.619467e+00,+4.325867e+00,,
+6.641600e+00,+4.361333e+00,,
+6.619467e+00,+4.317067e+00,,
+6.641600e+00,+4.357067e+00,,
+6.641600e+00,+4.330400e+00,,
+6.645867e+00,+4.343733e+00,,
+6.672534e+00,+4.357067e+00,,
+6.637067e+00,+4.348000e+00,,
+6.672534e+00,+4.361333e+00,,
+6.685600e+00,+4.365867e+00,,
+6.672534e+00,+4.348000e+00,,
+6.685600e+00,+4.392533e+00,,
+6.676800e+00,+4.361333e+00,,
+6.676800e+00,+4.405867e+00,,
+6.707734e+00,+4.379200e+00,,
+6.694667e+00,+4.397067e+00,,
+6.694667e+00,+4.379200e+00,,
+6.703467e+00,+4.414933e+00,,
+6.712267e+00,+4.374933e+00,,
+6.716533e+00,+4.401600e+00,,
+6.712267e+00,+4.401600e+00,,
+6.729867e+00,+4.432533e+00,,
+6.712267e+00,+4.405867e+00,,
+6.738667e+00,+4.414933e+00,,
+6.738667e+00,+4.423733e+00,,
+6.721067e+00,+4.450400e+00,,
+6.734400e+00,+4.423733e+00,,
+6.747467e+00,+4.463733e+00,,
+6.756534e+00,+4.437067e+00,,
+6.760800e+00,+4.477067e+00,,
+6.760800e+00,+4.445867e+00,,
+6.760800e+00,+4.468266e+00,,
+6.765333e+00,+4.450400e+00,,
+6.774133e+00,+4.490400e+00,,
+6.765333e+00,+4.441600e+00,,
+6.782933e+00,+4.481600e+00,,
+6.769600e+00,+4.459200e+00,,
+6.782933e+00,+4.508267e+00,,
+6.796267e+00,+4.481600e+00,,
+6.787467e+00,+4.490400e+00,,
+6.805067e+00,+4.472533e+00,,
+6.769600e+00,+4.494934e+00,,
+6.791733e+00,+4.512533e+00,,
+6.805067e+00,+4.530400e+00,,
+6.813867e+00,+4.481600e+00,,
+6.805067e+00,+4.530400e+00,,
+6.805067e+00,+4.494934e+00,,
+6.813867e+00,+4.530400e+00,,
+6.813867e+00,+4.521600e+00,,
+6.831467e+00,+4.530400e+00,,
+6.844800e+00,+4.503733e+00,,
+6.836000e+00,+4.539200e+00,,
+6.866933e+00,+4.525867e+00,,
+6.836000e+00,+4.557067e+00,,
+6.862400e+00,+4.503733e+00,,
+6.844800e+00,+4.557067e+00,,
+6.853600e+00,+4.543734e+00,,
+6.858133e+00,+4.552533e+00,,
+6.849333e+00,+4.548267e+00,,
+6.871467e+00,+4.592534e+00,,
+6.880267e+00,+4.543734e+00,,
+6.853600e+00,+4.588267e+00,,
+6.866933e+00,+4.565867e+00,,
+6.889067e+00,+4.579200e+00,,
+6.893600e+00,+4.583734e+00,,
+6.902400e+00,+4.605867e+00,,
+6.893600e+00,+4.579200e+00,,
+6.915467e+00,+4.610400e+00,,
+6.933333e+00,+4.592534e+00,,
+6.906667e+00,+4.605867e+00,,
+6.915467e+00,+4.570400e+00,,
+6.937600e+00,+4.610400e+00,,
+6.924533e+00,+4.619200e+00,,
+6.915467e+00,+4.623734e+00,,
+6.915467e+00,+4.610400e+00,,
+6.933333e+00,+4.632534e+00,,
+6.946400e+00,+4.628267e+00,,
+6.955467e+00,+4.668267e+00,,
+6.955467e+00,+4.614933e+00,,
+6.937600e+00,+4.654933e+00,,
+6.946400e+00,+4.637067e+00,,
+6.946400e+00,+4.668267e+00,,
+6.959733e+00,+4.641600e+00,,
+6.973067e+00,+4.681600e+00,,
+6.959733e+00,+4.645867e+00,,
+6.981867e+00,+4.681600e+00,,
+6.981867e+00,+4.659467e+00,,
+6.990667e+00,+4.668267e+00,,
+6.968534e+00,+4.645867e+00,,
+7.004000e+00,+4.699467e+00,,
+7.008533e+00,+4.690400e+00,,
+7.012800e+00,+4.699467e+00,,
+6.990667e+00,+4.681600e+00,,
+7.017334e+00,+4.734933e+00,,
+7.012800e+00,+4.686133e+00,,
+7.017334e+00,+4.730400e+00,,
+7.030400e+00,+4.699467e+00,,
+7.026134e+00,+4.748267e+00,,
+7.039467e+00,+4.690400e+00,,
+7.021600e+00,+4.730400e+00,,
+7.039467e+00,+4.717067e+00,,
+7.043734e+00,+4.748267e+00,,
+7.030400e+00,+4.721600e+00,,
+7.065867e+00,+4.734933e+00,,
+7.026134e+00,+4.734933e+00,,
+7.061600e+00,+4.761600e+00,,
+7.061600e+00,+4.734933e+00,,
+7.052534e+00,+4.761600e+00,,
+7.057067e+00,+4.748267e+00,,
+7.070400e+00,+4.766133e+00,,
+7.088000e+00,+4.748267e+00,,
+7.083467e+00,+4.774933e+00,,
+7.092534e+00,+4.766133e+00,,
+7.088000e+00,+4.766133e+00,,
+7.079200e+00,+4.788267e+00,,
+7.065867e+00,+4.814933e+00,,
+7.096800e+00,+4.779467e+00,,
+7.096800e+00,+4.788267e+00,,
+7.101334e+00,+4.774933e+00,,
+7.105600e+00,+4.828267e+00,,
+7.105600e+00,+4.774933e+00,,
+7.123467e+00,+4.810400e+00,,
+7.123467e+00,+4.783733e+00,,
+7.136533e+00,+4.819467e+00,,
+7.114400e+00,+4.797067e+00,,
+7.110134e+00,+4.841600e+00,,
+7.132267e+00,+4.801600e+00,,
+7.158667e+00,+4.841600e+00,,
+7.141067e+00,+4.819467e+00,,
