2N3904/RigolDS3.csv

CH1V,CH2V,t0 =-1.000000e-02, tInc = 2.000000e-06,
+4.493067e+00,+3.392267e+00,,
+4.479733e+00,+3.427733e+00,,
+4.493067e+00,+3.410133e+00,,
+4.479733e+00,+3.441067e+00,,
+4.488533e+00,+3.432267e+00,,
+4.519467e+00,+3.463467e+00,,
+4.519467e+00,+3.436800e+00,,
+4.501867e+00,+3.454400e+00,,
+4.524000e+00,+3.427733e+00,,
+4.515200e+00,+3.467733e+00,,
+4.524000e+00,+3.458933e+00,,
+4.515200e+00,+3.481067e+00,,
+4.515200e+00,+3.432267e+00,,
+4.528267e+00,+3.463467e+00,,
+4.541600e+00,+3.467733e+00,,
+4.528267e+00,+3.485600e+00,,
+4.537067e+00,+3.463467e+00,,
+4.550400e+00,+3.467733e+00,,
+4.550400e+00,+3.472267e+00,,
+4.550400e+00,+3.494400e+00,,
+4.537067e+00,+3.481067e+00,,
+4.577067e+00,+3.503467e+00,,
+4.559200e+00,+3.503467e+00,,
+4.554934e+00,+3.516800e+00,,
+4.577067e+00,+3.490133e+00,,
+4.572534e+00,+3.503467e+00,,
+4.581333e+00,+3.512267e+00,,
+4.563734e+00,+3.538933e+00,,
+4.585867e+00,+3.521333e+00,,
+4.585867e+00,+3.552267e+00,,
+4.608000e+00,+3.521333e+00,,
+4.621067e+00,+3.556800e+00,,
+4.608000e+00,+3.538933e+00,,
+4.616800e+00,+3.570133e+00,,
+4.603467e+00,+3.543467e+00,,
+4.621067e+00,+3.574667e+00,,
+4.621067e+00,+3.552267e+00,,
+4.608000e+00,+3.583467e+00,,
+4.630133e+00,+3.561333e+00,,
+4.647733e+00,+3.583467e+00,,
+4.634400e+00,+3.578933e+00,,
+4.647733e+00,+3.592267e+00,,
+4.638933e+00,+3.561333e+00,,
+4.652000e+00,+3.601333e+00,,
+4.643200e+00,+3.574667e+00,,
+4.661067e+00,+3.605600e+00,,
+4.647733e+00,+3.610133e+00,,
+4.669867e+00,+3.605600e+00,,
+4.674133e+00,+3.601333e+00,,
+4.661067e+00,+3.605600e+00,,
+4.682933e+00,+3.601333e+00,,
+4.700800e+00,+3.628000e+00,,
+4.696267e+00,+3.610133e+00,,
+4.700800e+00,+3.641333e+00,,
+4.692000e+00,+3.614667e+00,,
+4.714133e+00,+3.645600e+00,,
+4.696267e+00,+3.632267e+00,,
+4.705067e+00,+3.641333e+00,,
+4.727200e+00,+3.645600e+00,,
+4.722933e+00,+3.658933e+00,,
+4.722933e+00,+3.632267e+00,,
+4.740533e+00,+3.658933e+00,,
+4.745067e+00,+3.636800e+00,,
+4.745067e+00,+3.663467e+00,,
+4.718400e+00,+3.645600e+00,,
+4.731733e+00,+3.672267e+00,,
+4.740533e+00,+3.681333e+00,,
+4.731733e+00,+3.708000e+00,,
+4.749333e+00,+3.681333e+00,,
+4.776000e+00,+3.721333e+00,,
+4.753867e+00,+3.681333e+00,,
+4.771467e+00,+3.725600e+00,,
+4.766933e+00,+3.698933e+00,,
+4.780267e+00,+3.725600e+00,,
+4.784800e+00,+3.712267e+00,,
+4.798133e+00,+3.743467e+00,,
+4.784800e+00,+3.703467e+00,,
+4.811200e+00,+3.748000e+00,,
+4.784800e+00,+3.712267e+00,,
+4.798133e+00,+3.748000e+00,,
+4.802400e+00,+3.712267e+00,,
+4.811200e+00,+3.761333e+00,,
+4.824533e+00,+3.730133e+00,,
+4.820000e+00,+3.770133e+00,,
+4.815733e+00,+3.743467e+00,,
+4.815733e+00,+3.765600e+00,,
+4.824533e+00,+3.770133e+00,,
+4.829067e+00,+3.774667e+00,,
+4.829067e+00,+3.765600e+00,,
+4.820000e+00,+3.778933e+00,,
+4.842134e+00,+3.743467e+00,,
+4.842134e+00,+3.801333e+00,,
+4.850934e+00,+3.765600e+00,,
+4.837867e+00,+3.796800e+00,,
+4.860000e+00,+3.792267e+00,,
+4.873067e+00,+3.805867e+00,,
+4.855467e+00,+3.792267e+00,,
+4.881867e+00,+3.819200e+00,,
+4.850934e+00,+3.796800e+00,,
+4.881867e+00,+3.828000e+00,,
+4.877600e+00,+3.792267e+00,,
+4.886400e+00,+3.836800e+00,,
+4.881867e+00,+3.819200e+00,,
+4.886400e+00,+3.836800e+00,,
+4.886400e+00,+3.819200e+00,,
+4.890934e+00,+3.850133e+00,,
+4.899734e+00,+3.828000e+00,,
+4.917334e+00,+3.859200e+00,,
+4.913067e+00,+3.854667e+00,,
+4.939467e+00,+3.850133e+00,,
+4.913067e+00,+3.841333e+00,,
+4.926133e+00,+3.876800e+00,,
+4.921867e+00,+3.850133e+00,,
+4.944000e+00,+3.894667e+00,,
+4.934933e+00,+3.868000e+00,,
+4.948267e+00,+3.890133e+00,,
+4.934933e+00,+3.876800e+00,,
+4.944000e+00,+3.899200e+00,,
+4.957067e+00,+3.863467e+00,,
+4.944000e+00,+3.903467e+00,,
+4.957067e+00,+3.894667e+00,,
+4.961600e+00,+3.903467e+00,,
+4.983733e+00,+3.903467e+00,,
+4.970400e+00,+3.921333e+00,,
+4.988000e+00,+3.894667e+00,,
+4.974934e+00,+3.925867e+00,,
+5.001333e+00,+3.908000e+00,,
+4.974934e+00,+3.974667e+00,,
+4.992533e+00,+3.939200e+00,,
+5.005867e+00,+3.925867e+00,,
+4.992533e+00,+3.925867e+00,,
+4.997066e+00,+3.930133e+00,,
+5.028000e+00,+3.930133e+00,,
+5.018933e+00,+3.965867e+00,,
+5.018933e+00,+3.948000e+00,,
+5.036800e+00,+3.988000e+00,,
+5.018933e+00,+3.961333e+00,,
+5.045600e+00,+3.988000e+00,,
+5.041067e+00,+3.961333e+00,,
+5.028000e+00,+3.965867e+00,,
+5.045600e+00,+3.988000e+00,,
+5.054400e+00,+3.992533e+00,,
+5.036800e+00,+3.979200e+00,,
+5.054400e+00,+4.014667e+00,,
+5.072000e+00,+3.970133e+00,,
+5.076533e+00,+4.005867e+00,,
+5.058933e+00,+3.983467e+00,,
+5.081067e+00,+4.005867e+00,,
+5.081067e+00,+3.988000e+00,,
+5.076533e+00,+4.028000e+00,,
+5.072000e+00,+4.010133e+00,,
+5.081067e+00,+4.036800e+00,,
+5.098667e+00,+4.014667e+00,,
+5.102933e+00,+4.050133e+00,,
+5.116267e+00,+4.028000e+00,,
+5.102933e+00,+4.059200e+00,,
+5.107467e+00,+4.019200e+00,,
+5.125067e+00,+4.059200e+00,,
+5.112000e+00,+4.041333e+00,,
+5.107467e+00,+4.072534e+00,,
+5.125067e+00,+4.041333e+00,,
+5.125067e+00,+4.081333e+00,,
+5.133867e+00,+4.063467e+00,,
+5.138400e+00,+4.081333e+00,,
+5.133867e+00,+4.068000e+00,,
+5.133867e+00,+4.094666e+00,,
+5.147200e+00,+4.050133e+00,,
+5.147200e+00,+4.103734e+00,,
+5.138400e+00,+4.085867e+00,,
+5.160533e+00,+4.112534e+00,,
+5.173867e+00,+4.072534e+00,,
+5.164800e+00,+4.134667e+00,,
+5.178133e+00,+4.076800e+00,,
+5.173867e+00,+4.125867e+00,,
+5.169333e+00,+4.094666e+00,,
+5.186934e+00,+4.134667e+00,,
+5.191467e+00,+4.117067e+00,,
+5.200267e+00,+4.139200e+00,,
+5.191467e+00,+4.130400e+00,,
+5.196000e+00,+4.157067e+00,,
+5.191467e+00,+4.134667e+00,,
+5.200267e+00,+4.134667e+00,,
+5.213600e+00,+4.130400e+00,,
+5.235734e+00,+4.174667e+00,,
+5.204800e+00,+4.148000e+00,,
+5.213600e+00,+4.157067e+00,,
+5.222400e+00,+4.170400e+00,,
+5.226933e+00,+4.174667e+00,,
+5.244534e+00,+4.152534e+00,,
+5.248800e+00,+4.188000e+00,,
+5.248800e+00,+4.183733e+00,,
+5.270934e+00,+4.183733e+00,,
+5.262134e+00,+4.170400e+00,,
+5.253334e+00,+4.197067e+00,,
+5.257867e+00,+4.170400e+00,,
+5.275467e+00,+4.205867e+00,,
+5.288800e+00,+4.201334e+00,,
+5.288800e+00,+4.241333e+00,,
+5.284267e+00,+4.201334e+00,,
+5.275467e+00,+4.237067e+00,,
+5.301867e+00,+4.214667e+00,,
+5.288800e+00,+4.228000e+00,,
+5.306400e+00,+4.223733e+00,,
+5.315200e+00,+4.245867e+00,,
+5.306400e+00,+4.223733e+00,,
+5.315200e+00,+4.254667e+00,,
+5.315200e+00,+4.219200e+00,,
+5.328533e+00,+4.277067e+00,,
+5.315200e+00,+4.241333e+00,,
+5.328533e+00,+4.268000e+00,,
+5.332800e+00,+4.272533e+00,,
+5.332800e+00,+4.259200e+00,,
+5.324000e+00,+4.245867e+00,,
+5.346133e+00,+4.290400e+00,,
+5.341866e+00,+4.272533e+00,,
+5.368267e+00,+4.285867e+00,,
+5.346133e+00,+4.277067e+00,,
+5.350667e+00,+4.312533e+00,,
+5.364000e+00,+4.281333e+00,,
+5.377067e+00,+4.317067e+00,,
+5.354933e+00,+4.294667e+00,,
+5.381600e+00,+4.325867e+00,,
+5.364000e+00,+4.294667e+00,,
+5.381600e+00,+4.312533e+00,,
+5.377067e+00,+4.312533e+00,,
+5.394933e+00,+4.321333e+00,,
+5.385867e+00,+4.325867e+00,,
+5.394933e+00,+4.348000e+00,,
+5.385867e+00,+4.325867e+00,,
+5.399200e+00,+4.339200e+00,,
+5.408000e+00,+4.317067e+00,,
+5.416800e+00,+4.370400e+00,,
+5.399200e+00,+4.348000e+00,,
+5.438933e+00,+4.370400e+00,,
+5.438933e+00,+4.339200e+00,,
+5.443467e+00,+4.361333e+00,,
+5.421333e+00,+4.357067e+00,,
+5.438933e+00,+4.361333e+00,,
+5.443467e+00,+4.370400e+00,,
+5.456800e+00,+4.374933e+00,,
+5.461067e+00,+4.361333e+00,,
+5.461067e+00,+4.405867e+00,,
+5.456800e+00,+4.383733e+00,,
+5.452267e+00,+4.414933e+00,,
+5.456800e+00,+4.405867e+00,,
+5.469867e+00,+4.410400e+00,,
+5.478933e+00,+4.392533e+00,,
+5.478933e+00,+4.414933e+00,,
+5.474400e+00,+4.392533e+00,,
+5.500800e+00,+4.441600e+00,,
+5.483200e+00,+4.405867e+00,,
+5.478933e+00,+4.450400e+00,,
+5.505333e+00,+4.428267e+00,,
+5.496533e+00,+4.437067e+00,,
+5.496533e+00,+4.437067e+00,,
+5.518667e+00,+4.459200e+00,,
+5.518667e+00,+4.437067e+00,,
+5.505333e+00,+4.450400e+00,,
+5.514133e+00,+4.445867e+00,,
+5.536267e+00,+4.472533e+00,,
+5.518667e+00,+4.450400e+00,,
+5.522933e+00,+4.468266e+00,,
+5.527467e+00,+4.454933e+00,,
+5.540800e+00,+4.494934e+00,,
+5.531734e+00,+4.459200e+00,,
+5.549600e+00,+4.503733e+00,,
+5.553867e+00,+4.472533e+00,,
+5.567200e+00,+4.508267e+00,,
+5.571733e+00,+4.481600e+00,,
+5.584800e+00,+4.503733e+00,,
+5.584800e+00,+4.494934e+00,,
+5.571733e+00,+4.521600e+00,,
+5.567200e+00,+4.503733e+00,,
+5.584800e+00,+4.521600e+00,,
+5.576000e+00,+4.490400e+00,,
+5.580534e+00,+4.521600e+00,,
+5.598134e+00,+4.521600e+00,,
+5.598134e+00,+4.539200e+00,,
+5.593867e+00,+4.512533e+00,,
+5.593867e+00,+4.565867e+00,,
+5.620267e+00,+4.508267e+00,,
+5.615734e+00,+4.557067e+00,,
+5.620267e+00,+4.548267e+00,,
+5.629067e+00,+4.552533e+00,,
+5.637866e+00,+4.543734e+00,,
+5.642400e+00,+4.570400e+00,,
+5.629067e+00,+4.579200e+00,,
+5.651200e+00,+4.574934e+00,,
+5.637866e+00,+4.574934e+00,,
+5.664534e+00,+4.588267e+00,,
+5.651200e+00,+4.588267e+00,,
+5.677867e+00,+4.592534e+00,,
+5.677867e+00,+4.579200e+00,,
+5.673333e+00,+4.614933e+00,,
+5.668800e+00,+4.574934e+00,,
+5.686667e+00,+4.619200e+00,,
+5.682133e+00,+4.588267e+00,,
+5.686667e+00,+4.614933e+00,,
+5.690933e+00,+4.623734e+00,,
+5.699733e+00,+4.632534e+00,,
+5.690933e+00,+4.614933e+00,,
+5.704267e+00,+4.637067e+00,,
+5.704267e+00,+4.601600e+00,,
+5.682133e+00,+4.645867e+00,,
+5.699733e+00,+4.619200e+00,,
+5.721867e+00,+4.668267e+00,,
+5.730667e+00,+4.637067e+00,,
+5.721867e+00,+4.645867e+00,,
+5.717600e+00,+4.641600e+00,,
+5.726400e+00,+4.677067e+00,,
+5.721867e+00,+4.659467e+00,,
+5.735200e+00,+4.686133e+00,,
+5.726400e+00,+4.663733e+00,,
+5.744000e+00,+4.686133e+00,,
+5.735200e+00,+4.663733e+00,,
+5.752800e+00,+4.686133e+00,,
+5.766133e+00,+4.663733e+00,,
+5.766133e+00,+4.690400e+00,,
+5.752800e+00,+4.668267e+00,,
+5.761867e+00,+4.699467e+00,,
+5.774933e+00,+4.690400e+00,,
+5.761867e+00,+4.708267e+00,,
+5.774933e+00,+4.703733e+00,,
+5.805867e+00,+4.730400e+00,,
+5.792800e+00,+4.712800e+00,,
+5.788267e+00,+4.739467e+00,,
+5.788267e+00,+4.694933e+00,,
+5.797067e+00,+4.743733e+00,,
+5.805867e+00,+4.712800e+00,,
+5.810400e+00,+4.752800e+00,,
+5.814667e+00,+4.730400e+00,,
+5.814667e+00,+4.766133e+00,,
+5.792800e+00,+4.748267e+00,,
+5.819200e+00,+4.761600e+00,,
+5.814667e+00,+4.757067e+00,,
+5.845867e+00,+4.779467e+00,,
+5.823733e+00,+4.730400e+00,,
+5.845867e+00,+4.783733e+00,,
+5.845867e+00,+4.766133e+00,,
+5.823733e+00,+4.806133e+00,,
+5.841333e+00,+4.774933e+00,,
+5.854667e+00,+4.788267e+00,,
+5.841333e+00,+4.766133e+00,,
+5.867733e+00,+4.806133e+00,,
+5.872267e+00,+4.779467e+00,,
+5.872267e+00,+4.806133e+00,,
+5.858933e+00,+4.801600e+00,,
+5.872267e+00,+4.810400e+00,,
+5.872267e+00,+4.806133e+00,,
+5.881067e+00,+4.832800e+00,,
+5.907733e+00,+4.819467e+00,,
+5.903200e+00,+4.846133e+00,,
+5.903200e+00,+4.819467e+00,,
+5.903200e+00,+4.854933e+00,,
+5.907733e+00,+4.832800e+00,,
+5.925333e+00,+4.854933e+00,,
+5.916533e+00,+4.841600e+00,,
+5.934134e+00,+4.886133e+00,,
+5.942934e+00,+4.854933e+00,,
+5.938667e+00,+4.886133e+00,,
+5.925333e+00,+4.854933e+00,,
+5.942934e+00,+4.908267e+00,,
+5.925333e+00,+4.877067e+00,,
+5.938667e+00,+4.881600e+00,,
+5.956267e+00,+4.854933e+00,,
+5.965067e+00,+4.894933e+00,,
+5.965067e+00,+4.881600e+00,,
+5.965067e+00,+4.908267e+00,,
+5.960800e+00,+4.894933e+00,,
+5.982667e+00,+4.908267e+00,,
+5.965067e+00,+4.886133e+00,,
+5.991734e+00,+4.926133e+00,,
+5.973867e+00,+4.877067e+00,,
+5.973867e+00,+4.944000e+00,,
+5.982667e+00,+4.903733e+00,,
+6.004800e+00,+4.934933e+00,,
+6.000534e+00,+4.926133e+00,,
+6.000534e+00,+4.934933e+00,,
+6.000534e+00,+4.939467e+00,,
+6.018133e+00,+4.961600e+00,,
+6.000534e+00,+4.939467e+00,,
+6.026933e+00,+4.966134e+00,,
+6.022667e+00,+4.939467e+00,,
+6.009334e+00,+4.974934e+00,,
+6.031467e+00,+4.944000e+00,,
+6.040267e+00,+4.984000e+00,,
+6.053600e+00,+4.961600e+00,,
+6.053600e+00,+4.988267e+00,,
+6.053600e+00,+4.970667e+00,,
+6.053600e+00,+4.979467e+00,,
+6.057867e+00,+4.974934e+00,,
+6.062400e+00,+5.014934e+00,,
+6.075733e+00,+4.992800e+00,,
+6.062400e+00,+5.001600e+00,,
+6.075733e+00,+4.984000e+00,,
+6.062400e+00,+5.014934e+00,,
+6.066667e+00,+4.997334e+00,,
+6.062400e+00,+5.006134e+00,,
+6.097600e+00,+5.006134e+00,,
+6.097600e+00,+5.037333e+00,,
+6.097600e+00,+5.019467e+00,,
+6.097600e+00,+5.032800e+00,,
+6.119733e+00,+5.010667e+00,,
+6.097600e+00,+5.041600e+00,,
+6.106667e+00,+5.024000e+00,,
+6.119733e+00,+5.046134e+00,,
+6.106667e+00,+5.028267e+00,,
+6.128800e+00,+5.046134e+00,,
+6.119733e+00,+5.037333e+00,,
+6.124267e+00,+5.077333e+00,,
+6.128800e+00,+5.041600e+00,,
+6.119733e+00,+5.077333e+00,,
+6.141867e+00,+5.050667e+00,,
+6.150667e+00,+5.090667e+00,,
+6.141867e+00,+5.068267e+00,,
+6.146400e+00,+5.090667e+00,,
+6.168533e+00,+5.090667e+00,,
+6.164000e+00,+5.112800e+00,,
+6.186133e+00,+5.086133e+00,,
+6.177333e+00,+5.112800e+00,,
+6.190667e+00,+5.099467e+00,,
+6.186133e+00,+5.112800e+00,,
+6.199467e+00,+5.099467e+00,,
+6.190667e+00,+5.144000e+00,,
+6.194933e+00,+5.099467e+00,,
+6.186133e+00,+5.126133e+00,,
+6.221600e+00,+5.117333e+00,,
+6.177333e+00,+5.144000e+00,,
+6.203733e+00,+5.121600e+00,,
+6.208267e+00,+5.139467e+00,,
+6.199467e+00,+5.144000e+00,,
+6.221600e+00,+5.157333e+00,,
+6.199467e+00,+5.126133e+00,,
+6.243733e+00,+5.166133e+00,,
+6.243733e+00,+5.161600e+00,,
+6.225867e+00,+5.206133e+00,,
+6.234667e+00,+5.139467e+00,,
+6.243733e+00,+5.170667e+00,,
+6.252533e+00,+5.148267e+00,,
+6.248000e+00,+5.201600e+00,,
+6.274667e+00,+5.170667e+00,,
+6.265600e+00,+5.192800e+00,,
+6.283467e+00,+5.179467e+00,,
+6.256800e+00,+5.219467e+00,,
+6.292267e+00,+5.197333e+00,,
+6.296534e+00,+5.201600e+00,,
+6.278934e+00,+5.192800e+00,,
+6.314400e+00,+5.210667e+00,,
+6.296534e+00,+5.197333e+00,,
+6.292267e+00,+5.228533e+00,,
+6.309867e+00,+5.210667e+00,,
+6.309867e+00,+5.228533e+00,,
+6.296534e+00,+5.219467e+00,,
+6.309867e+00,+5.259467e+00,,
+6.314400e+00,+5.214933e+00,,
+6.327734e+00,+5.264000e+00,,
+6.318667e+00,+5.224000e+00,,
+6.327734e+00,+5.272800e+00,,
+6.340800e+00,+5.232800e+00,,
+6.332000e+00,+5.264000e+00,,
+6.332000e+00,+5.264000e+00,,
+6.340800e+00,+5.272800e+00,,
+6.336534e+00,+5.277333e+00,,
+6.362934e+00,+5.277333e+00,,
+6.367467e+00,+5.268533e+00,,
+6.358667e+00,+5.286133e+00,,
+6.362934e+00,+5.277333e+00,,
+6.362934e+00,+5.326133e+00,,
+6.380533e+00,+5.304000e+00,,
+6.362934e+00,+5.312800e+00,,
+6.385067e+00,+5.304000e+00,,
+6.389600e+00,+5.335200e+00,,
+6.389600e+00,+5.299467e+00,,
+6.385067e+00,+5.330667e+00,,
+6.389600e+00,+5.326133e+00,,
+6.402667e+00,+5.339467e+00,,
+6.402667e+00,+5.335200e+00,,
+6.416000e+00,+5.348534e+00,,
+6.429333e+00,+5.339467e+00,,
+6.420533e+00,+5.352800e+00,,
+6.429333e+00,+5.326133e+00,,
+6.438133e+00,+5.352800e+00,,
+6.416000e+00,+5.344000e+00,,
+6.442667e+00,+5.366133e+00,,
+6.420533e+00,+5.370667e+00,,
+6.442667e+00,+5.384000e+00,,
+6.424800e+00,+5.366133e+00,,
+6.442667e+00,+5.384000e+00,,
+6.451467e+00,+5.357333e+00,,
+6.451467e+00,+5.397334e+00,,
+6.460267e+00,+5.366133e+00,,
+6.464533e+00,+5.392800e+00,,
+6.464533e+00,+5.379467e+00,,
+6.482400e+00,+5.437334e+00,,
+6.477867e+00,+5.379467e+00,,
+6.482400e+00,+5.424000e+00,,
+6.486667e+00,+5.392800e+00,,
+6.491200e+00,+5.424000e+00,,
+6.500000e+00,+5.410667e+00,,
+6.517600e+00,+5.432800e+00,,
+6.500000e+00,+5.392800e+00,,
+6.504533e+00,+5.450667e+00,,
+6.517600e+00,+5.415200e+00,,
+6.526667e+00,+5.450667e+00,,
+6.517600e+00,+5.424000e+00,,
+6.526667e+00,+5.459467e+00,,
+6.530933e+00,+5.432800e+00,,
+6.522133e+00,+5.459467e+00,,
+6.535467e+00,+5.459467e+00,,
+6.548533e+00,+5.468534e+00,,
+6.530933e+00,+5.450667e+00,,
+6.548533e+00,+5.477334e+00,,
+6.548533e+00,+5.472800e+00,,
+6.566400e+00,+5.504000e+00,,
+6.553067e+00,+5.481867e+00,,
+6.566400e+00,+5.481867e+00,,
+6.570667e+00,+5.490667e+00,,
+6.579467e+00,+5.513067e+00,,
+6.566400e+00,+5.499467e+00,,
+6.588533e+00,+5.513067e+00,,
+6.579467e+00,+5.490667e+00,,
+6.588533e+00,+5.521867e+00,,
+6.592800e+00,+5.508533e+00,,
+6.592800e+00,+5.526400e+00,,
+6.614933e+00,+5.513067e+00,,
+6.601600e+00,+5.535200e+00,,
+6.592800e+00,+5.526400e+00,,
+6.614933e+00,+5.548533e+00,,
+6.610667e+00,+5.530667e+00,,
+6.623734e+00,+5.553067e+00,,
+6.619467e+00,+5.526400e+00,,
+6.637067e+00,+5.570667e+00,,
+6.632534e+00,+5.526400e+00,,
+6.637067e+00,+5.566400e+00,,
+6.637067e+00,+5.553067e+00,,
+6.637067e+00,+5.570667e+00,,
+6.659200e+00,+5.584000e+00,,
+6.641600e+00,+5.579733e+00,,
+6.645867e+00,+5.566400e+00,,
+6.668000e+00,+5.610667e+00,,
+6.668000e+00,+5.570667e+00,,
+6.659200e+00,+5.610667e+00,,
+6.672534e+00,+5.579733e+00,,
+6.681334e+00,+5.615200e+00,,
+6.668000e+00,+5.593067e+00,,
+6.685600e+00,+5.619733e+00,,
+6.698934e+00,+5.597333e+00,,
+6.690134e+00,+5.624000e+00,,
+6.703467e+00,+5.628533e+00,,
+6.690134e+00,+5.619733e+00,,
+6.707734e+00,+5.610667e+00,,
+6.712267e+00,+5.633067e+00,,
+6.712267e+00,+5.610667e+00,,
+6.725600e+00,+5.668533e+00,,
+6.712267e+00,+5.646400e+00,,
+6.738667e+00,+5.655200e+00,,
+6.729867e+00,+5.633067e+00,,
+6.743200e+00,+5.655200e+00,,
+6.716533e+00,+5.641867e+00,,
+6.738667e+00,+5.668533e+00,,
+6.752000e+00,+5.650667e+00,,
+6.729867e+00,+5.690667e+00,,
+6.747467e+00,+5.664000e+00,,
+6.765333e+00,+5.690667e+00,,
+6.756534e+00,+5.659733e+00,,
+6.774133e+00,+5.699733e+00,,
+6.782933e+00,+5.695200e+00,,
+6.782933e+00,+5.708533e+00,,
+6.760800e+00,+5.673067e+00,,
+6.774133e+00,+5.704000e+00,,
+6.778667e+00,+5.686400e+00,,
+6.800533e+00,+5.717333e+00,,
+6.791733e+00,+5.708533e+00,,
+6.787467e+00,+5.730667e+00,,
+6.805067e+00,+5.708533e+00,,
+6.796267e+00,+5.748533e+00,,
+6.809600e+00,+5.708533e+00,,
+6.822667e+00,+5.739733e+00,,
+6.836000e+00,+5.730667e+00,,
+6.827200e+00,+5.766400e+00,,
+6.805067e+00,+5.739733e+00,,
+6.827200e+00,+5.753067e+00,,
+6.827200e+00,+5.757333e+00,,
+6.836000e+00,+5.784000e+00,,
+6.844800e+00,+5.757333e+00,,
+6.844800e+00,+5.806400e+00,,
+6.858133e+00,+5.757333e+00,,
+6.827200e+00,+5.784000e+00,,
+6.853600e+00,+5.766400e+00,,
+6.866933e+00,+5.801867e+00,,
+6.866933e+00,+5.784000e+00,,
+6.880267e+00,+5.793067e+00,,
+6.875733e+00,+5.775200e+00,,
+6.880267e+00,+5.801867e+00,,
+6.871467e+00,+5.806400e+00,,
+6.893600e+00,+5.815200e+00,,
+6.884533e+00,+5.806400e+00,,
+6.893600e+00,+5.828533e+00,,
+6.902400e+00,+5.810934e+00,,
+6.915467e+00,+5.837600e+00,,
+6.897867e+00,+5.810934e+00,,
+6.924533e+00,+5.841866e+00,,
+6.928800e+00,+5.828533e+00,,
+6.928800e+00,+5.850934e+00,,
+6.915467e+00,+5.828533e+00,,
+6.933333e+00,+5.881867e+00,,
+6.920000e+00,+5.850934e+00,,
+6.924533e+00,+5.868534e+00,,
+6.955467e+00,+5.846400e+00,,
+6.955467e+00,+5.890934e+00,,
+6.950933e+00,+5.846400e+00,,
+6.950933e+00,+5.881867e+00,,
+6.964267e+00,+5.864267e+00,,
+6.955467e+00,+5.886400e+00,,
+6.981867e+00,+5.890934e+00,,
+6.959733e+00,+5.904267e+00,,
+6.955467e+00,+5.886400e+00,,
+6.977600e+00,+5.917600e+00,,
+6.981867e+00,+5.881867e+00,,
+6.981867e+00,+5.913067e+00,,
+6.968534e+00,+5.886400e+00,,
+6.981867e+00,+5.935200e+00,,
+7.004000e+00,+5.908534e+00,,
+6.999467e+00,+5.935200e+00,,
+7.004000e+00,+5.930933e+00,,
+6.990667e+00,+5.944267e+00,,
+6.999467e+00,+5.930933e+00,,
+7.008533e+00,+5.957600e+00,,
+6.995200e+00,+5.926400e+00,,
+7.030400e+00,+5.957600e+00,,
+7.034934e+00,+5.921867e+00,,
+7.021600e+00,+5.966400e+00,,
+7.021600e+00,+5.939734e+00,,
+7.030400e+00,+5.957600e+00,,
+7.026134e+00,+5.948534e+00,,
+7.039467e+00,+5.970933e+00,,
+7.043734e+00,+5.966400e+00,,
+7.052534e+00,+6.006400e+00,,
+7.048267e+00,+5.979733e+00,,
+7.061600e+00,+5.984267e+00,,
+7.065867e+00,+5.988533e+00,,
+7.065867e+00,+6.001867e+00,,
+7.083467e+00,+5.966400e+00,,
+7.092534e+00,+6.010933e+00,,
+7.074667e+00,+6.001867e+00,,
+7.079200e+00,+6.010933e+00,,
+7.092534e+00,+6.006400e+00,,
+7.096800e+00,+6.028533e+00,,
+7.110134e+00,+6.019733e+00,,
+7.110134e+00,+6.024267e+00,,
+7.101334e+00,+6.028533e+00,,
+7.105600e+00,+6.033067e+00,,
+7.101334e+00,+6.010933e+00,,
+7.127733e+00,+6.041867e+00,,
+7.123467e+00,+6.024267e+00,,
+7.127733e+00,+6.050933e+00,,
+7.158667e+00,+6.041867e+00,,
+7.132267e+00,+6.068533e+00,,
+7.123467e+00,+6.064267e+00,,
+7.158667e+00,+6.086400e+00,,
+7.145333e+00,+6.055200e+00,,
+7.141067e+00,+6.090933e+00,,
+7.158667e+00,+6.059733e+00,,
+7.167467e+00,+6.090933e+00,,
+7.167467e+00,+6.073067e+00,,
