2N3904/RigolDS6.csv

CH1V,CH2V,t0 =-1.000000e-02, tInc = 2.000000e-06,
+4.479733e+00,+1.738400e+00,,
+4.497334e+00,+1.791733e+00,,
+4.484000e+00,+1.756267e+00,,
+4.510667e+00,+1.805067e+00,,
+4.528267e+00,+1.765067e+00,,
+4.488533e+00,+1.805067e+00,,
+4.506134e+00,+1.765067e+00,,
+4.515200e+00,+1.796267e+00,,
+4.501867e+00,+1.778400e+00,,
+4.515200e+00,+1.827467e+00,,
+4.519467e+00,+1.787200e+00,,
+4.541600e+00,+1.827467e+00,,
+4.519467e+00,+1.800533e+00,,
+4.550400e+00,+1.845067e+00,,
+4.528267e+00,+1.787200e+00,,
+4.541600e+00,+1.854133e+00,,
+4.559200e+00,+1.809600e+00,,
+4.559200e+00,+1.836267e+00,,
+4.554934e+00,+1.831733e+00,,
+4.568000e+00,+1.854133e+00,,
+4.568000e+00,+1.831733e+00,,
+4.568000e+00,+1.858400e+00,,
+4.581333e+00,+1.831733e+00,,
+4.594666e+00,+1.885067e+00,,
+4.594666e+00,+1.840800e+00,,
+4.585867e+00,+1.889600e+00,,
+4.590133e+00,+1.858400e+00,,
+4.616800e+00,+1.902933e+00,,
+4.585867e+00,+1.854133e+00,,
+4.603467e+00,+1.902933e+00,,
+4.603467e+00,+1.898400e+00,,
+4.616800e+00,+1.902933e+00,,
+4.612267e+00,+1.885067e+00,,
+4.621067e+00,+1.894133e+00,,
+4.630133e+00,+1.880800e+00,,
+4.630133e+00,+1.911733e+00,,
+4.643200e+00,+1.894133e+00,,
+4.647733e+00,+1.934133e+00,,
+4.638933e+00,+1.889600e+00,,
+4.638933e+00,+1.929600e+00,,
+4.678667e+00,+1.911733e+00,,
+4.661067e+00,+1.934133e+00,,
+4.665333e+00,+1.898400e+00,,
+4.674133e+00,+1.934133e+00,,
+4.674133e+00,+1.925067e+00,,
+4.682933e+00,+1.956267e+00,,
+4.682933e+00,+1.934133e+00,,
+4.665333e+00,+1.974133e+00,,
+4.682933e+00,+1.947467e+00,,
+4.709600e+00,+1.987467e+00,,
+4.692000e+00,+1.956267e+00,,
+4.700800e+00,+1.969600e+00,,
+4.692000e+00,+1.956267e+00,,
+4.709600e+00,+1.987467e+00,,
+4.687467e+00,+1.947467e+00,,
+4.722933e+00,+1.987467e+00,,
+4.705067e+00,+1.978400e+00,,
+4.714133e+00,+1.996267e+00,,
+4.714133e+00,+1.974133e+00,,
+4.736000e+00,+2.027467e+00,,
+4.731733e+00,+1.982933e+00,,
+4.731733e+00,+2.014133e+00,,
+4.749333e+00,+1.987467e+00,,
+4.740533e+00,+2.009600e+00,,
+4.753867e+00,+2.000800e+00,,
+4.758133e+00,+2.040800e+00,,
+4.762667e+00,+2.000800e+00,,
+4.766933e+00,+2.040800e+00,,
+4.762667e+00,+2.027467e+00,,
+4.780267e+00,+2.054133e+00,,
+4.789067e+00,+2.027467e+00,,
+4.766933e+00,+2.045067e+00,,
+4.776000e+00,+2.049600e+00,,
+4.789067e+00,+2.062933e+00,,
+4.776000e+00,+2.054133e+00,,
+4.806933e+00,+2.062933e+00,,
+4.789067e+00,+2.045067e+00,,
+4.798133e+00,+2.076267e+00,,
+4.802400e+00,+2.062933e+00,,
+4.811200e+00,+2.102933e+00,,
+4.815733e+00,+2.058400e+00,,
+4.811200e+00,+2.094133e+00,,
+4.820000e+00,+2.071733e+00,,
+4.802400e+00,+2.076267e+00,,
+4.829067e+00,+2.071733e+00,,
+4.833333e+00,+2.107467e+00,,
+4.824533e+00,+2.089600e+00,,
+4.842134e+00,+2.116267e+00,,
+4.837867e+00,+2.094133e+00,,
+4.850934e+00,+2.138667e+00,,
+4.846667e+00,+2.080800e+00,,
+4.855467e+00,+2.138667e+00,,
+4.860000e+00,+2.107467e+00,,
+4.864267e+00,+2.129600e+00,,
+4.868800e+00,+2.085067e+00,,
+4.873067e+00,+2.138667e+00,,
+4.873067e+00,+2.129600e+00,,
+4.886400e+00,+2.134133e+00,,
+4.877600e+00,+2.120800e+00,,
+4.873067e+00,+2.152000e+00,,
+4.886400e+00,+2.142933e+00,,
+4.886400e+00,+2.169600e+00,,
+4.881867e+00,+2.152000e+00,,
+4.899734e+00,+2.174133e+00,,
+4.895200e+00,+2.138667e+00,,
+4.904000e+00,+2.182933e+00,,
+4.895200e+00,+2.142933e+00,,
+4.921867e+00,+2.200800e+00,,
+4.917334e+00,+2.182933e+00,,
+4.926133e+00,+2.205333e+00,,
+4.913067e+00,+2.192000e+00,,
+4.930667e+00,+2.200800e+00,,
+4.948267e+00,+2.196267e+00,,
+4.930667e+00,+2.209600e+00,,
+4.939467e+00,+2.205333e+00,,
+4.957067e+00,+2.218667e+00,,
+4.944000e+00,+2.200800e+00,,
+4.952800e+00,+2.232000e+00,,
+4.948267e+00,+2.192000e+00,,
+4.952800e+00,+2.262933e+00,,
+4.970400e+00,+2.218667e+00,,
+4.961600e+00,+2.249600e+00,,
+4.979200e+00,+2.209600e+00,,
+4.974934e+00,+2.245333e+00,,
+4.970400e+00,+2.232000e+00,,
+4.970400e+00,+2.249600e+00,,
+4.983733e+00,+2.240800e+00,,
+5.005867e+00,+2.245333e+00,,
+5.014667e+00,+2.245333e+00,,
+5.005867e+00,+2.267467e+00,,
+5.005867e+00,+2.254133e+00,,
+5.018933e+00,+2.272000e+00,,
+5.001333e+00,+2.280800e+00,,
+5.036800e+00,+2.294133e+00,,
+5.028000e+00,+2.267467e+00,,
+5.028000e+00,+2.267467e+00,,
+5.028000e+00,+2.272000e+00,,
+5.041067e+00,+2.302933e+00,,
+5.045600e+00,+2.280800e+00,,
+5.054400e+00,+2.320800e+00,,
+5.045600e+00,+2.302933e+00,,
+5.054400e+00,+2.312000e+00,,
+5.058933e+00,+2.302933e+00,,
+5.081067e+00,+2.325333e+00,,
+5.058933e+00,+2.307467e+00,,
+5.067733e+00,+2.325333e+00,,
+5.058933e+00,+2.298667e+00,,
+5.085333e+00,+2.347467e+00,,
+5.072000e+00,+2.316267e+00,,
+5.085333e+00,+2.352000e+00,,
+5.072000e+00,+2.329600e+00,,
+5.098667e+00,+2.356267e+00,,
+5.107467e+00,+2.329600e+00,,
+5.085333e+00,+2.378667e+00,,
+5.089867e+00,+2.352000e+00,,
+5.112000e+00,+2.369600e+00,,
+5.112000e+00,+2.342933e+00,,
+5.125067e+00,+2.392000e+00,,
+5.120800e+00,+2.360800e+00,,
+5.120800e+00,+2.396533e+00,,
+5.125067e+00,+2.360800e+00,,
+5.125067e+00,+2.400800e+00,,
+5.147200e+00,+2.378667e+00,,
+5.151733e+00,+2.400800e+00,,
+5.147200e+00,+2.383200e+00,,
+5.142933e+00,+2.409867e+00,,
+5.142933e+00,+2.383200e+00,,
+5.147200e+00,+2.427467e+00,,
+5.156000e+00,+2.396533e+00,,
+5.156000e+00,+2.427467e+00,,
+5.156000e+00,+2.423200e+00,,
+5.169333e+00,+2.418667e+00,,
+5.151733e+00,+2.405333e+00,,
+5.186934e+00,+2.445333e+00,,
+5.147200e+00,+2.423200e+00,,
+5.178133e+00,+2.445333e+00,,
+5.204800e+00,+2.427467e+00,,
+5.209067e+00,+2.485333e+00,,
+5.191467e+00,+2.458667e+00,,
+5.231200e+00,+2.472000e+00,,
+5.204800e+00,+2.445333e+00,,
+5.217867e+00,+2.454133e+00,,
+5.196000e+00,+2.440800e+00,,
+5.231200e+00,+2.512000e+00,,
+5.226933e+00,+2.449867e+00,,
+5.213600e+00,+2.472000e+00,,
+5.217867e+00,+2.480800e+00,,
+5.253334e+00,+2.498667e+00,,
+5.248800e+00,+2.480800e+00,,
+5.244534e+00,+2.512000e+00,,
+5.262134e+00,+2.480800e+00,,
+5.262134e+00,+2.503200e+00,,
+5.240000e+00,+2.503200e+00,,
+5.253334e+00,+2.512000e+00,,
+5.253334e+00,+2.512000e+00,,
+5.257867e+00,+2.529867e+00,,
+5.266667e+00,+2.494133e+00,,
+5.266667e+00,+2.520800e+00,,
+5.262134e+00,+2.512000e+00,,
+5.310934e+00,+2.547467e+00,,
+5.275467e+00,+2.520800e+00,,
+5.293067e+00,+2.538667e+00,,
+5.284267e+00,+2.534133e+00,,
+5.328533e+00,+2.552000e+00,,
+5.288800e+00,+2.552000e+00,,
+5.319734e+00,+2.560800e+00,,
+5.328533e+00,+2.556533e+00,,
+5.310934e+00,+2.574133e+00,,
+5.328533e+00,+2.560800e+00,,
+5.337333e+00,+2.587467e+00,,
+5.319734e+00,+2.569867e+00,,
+5.337333e+00,+2.605333e+00,,
+5.346133e+00,+2.574133e+00,,
+5.354933e+00,+2.618667e+00,,
+5.350667e+00,+2.596533e+00,,
+5.346133e+00,+2.596533e+00,,
+5.350667e+00,+2.583200e+00,,
+5.354933e+00,+2.614133e+00,,
+5.350667e+00,+2.605333e+00,,
+5.364000e+00,+2.614133e+00,,
+5.364000e+00,+2.605333e+00,,
+5.381600e+00,+2.618667e+00,,
+5.364000e+00,+2.592000e+00,,
+5.385867e+00,+2.636533e+00,,
+5.385867e+00,+2.614133e+00,,
+5.385867e+00,+2.640800e+00,,
+5.394933e+00,+2.596533e+00,,
+5.403733e+00,+2.667733e+00,,
+5.408000e+00,+2.632000e+00,,
+5.403733e+00,+2.640800e+00,,
+5.416800e+00,+2.623200e+00,,
+5.412533e+00,+2.676533e+00,,
+5.416800e+00,+2.636533e+00,,
+5.421333e+00,+2.672000e+00,,
+5.421333e+00,+2.632000e+00,,
+5.425867e+00,+2.681067e+00,,
+5.430133e+00,+2.672000e+00,,
+5.438933e+00,+2.707733e+00,,
+5.438933e+00,+2.654133e+00,,
+5.438933e+00,+2.703200e+00,,
+5.452267e+00,+2.658667e+00,,
+5.452267e+00,+2.716533e+00,,
+5.465600e+00,+2.672000e+00,,
+5.443467e+00,+2.716533e+00,,
+5.452267e+00,+2.703200e+00,,
+5.456800e+00,+2.734400e+00,,
+5.474400e+00,+2.707733e+00,,
+5.483200e+00,+2.747733e+00,,
+5.483200e+00,+2.689867e+00,,
+5.469867e+00,+2.743200e+00,,
+5.496533e+00,+2.716533e+00,,
+5.500800e+00,+2.765333e+00,,
+5.483200e+00,+2.738667e+00,,
+5.492000e+00,+2.743200e+00,,
+5.496533e+00,+2.725333e+00,,
+5.509867e+00,+2.774400e+00,,
+5.500800e+00,+2.752000e+00,,
+5.509867e+00,+2.783200e+00,,
+5.527467e+00,+2.756533e+00,,
+5.536267e+00,+2.769867e+00,,
+5.527467e+00,+2.743200e+00,,
+5.531734e+00,+2.787733e+00,,
+5.527467e+00,+2.769867e+00,,
+5.553867e+00,+2.801067e+00,,
+5.553867e+00,+2.765333e+00,,
+5.558400e+00,+2.823200e+00,,
+5.553867e+00,+2.774400e+00,,
+5.553867e+00,+2.809867e+00,,
+5.558400e+00,+2.769867e+00,,
+5.558400e+00,+2.809867e+00,,
+5.562933e+00,+2.818667e+00,,
+5.567200e+00,+2.827733e+00,,
+5.562933e+00,+2.796533e+00,,
+5.576000e+00,+2.805333e+00,,
+5.580534e+00,+2.801067e+00,,
+5.584800e+00,+2.827733e+00,,
+5.576000e+00,+2.841067e+00,,
+5.593867e+00,+2.827733e+00,,
+5.606934e+00,+2.827733e+00,,
+5.602667e+00,+2.836533e+00,,
+5.598134e+00,+2.818667e+00,,
+5.615734e+00,+2.858667e+00,,
+5.633600e+00,+2.832000e+00,,
+5.606934e+00,+2.881067e+00,,
+5.611467e+00,+2.827733e+00,,
+5.629067e+00,+2.876533e+00,,
+5.637866e+00,+2.845333e+00,,
+5.642400e+00,+2.881067e+00,,
+5.629067e+00,+2.854400e+00,,
+5.651200e+00,+2.894400e+00,,
+5.637866e+00,+2.863200e+00,,
+5.633600e+00,+2.916533e+00,,
+5.642400e+00,+2.863200e+00,,
+5.664534e+00,+2.903200e+00,,
+5.673333e+00,+2.889867e+00,,
+5.668800e+00,+2.938667e+00,,
+5.677867e+00,+2.889867e+00,,
+5.664534e+00,+2.898667e+00,,
+5.673333e+00,+2.898667e+00,,
+5.682133e+00,+2.916533e+00,,
+5.682133e+00,+2.907733e+00,,
+5.682133e+00,+2.943200e+00,,
+5.704267e+00,+2.925333e+00,,
+5.695467e+00,+2.934400e+00,,
+5.695467e+00,+2.934400e+00,,
+5.708800e+00,+2.938667e+00,,
+5.699733e+00,+2.912000e+00,,
+5.713067e+00,+2.956533e+00,,
+5.721867e+00,+2.934400e+00,,
+5.730667e+00,+2.956533e+00,,
+5.721867e+00,+2.952267e+00,,
+5.739733e+00,+2.983200e+00,,
+5.726400e+00,+2.947733e+00,,
+5.739733e+00,+2.952267e+00,,
+5.744000e+00,+2.956533e+00,,
+5.735200e+00,+2.983200e+00,,
+5.761867e+00,+2.961067e+00,,
+5.770667e+00,+2.983200e+00,,
+5.761867e+00,+2.961067e+00,,
+5.748533e+00,+3.027733e+00,,
+5.761867e+00,+2.992267e+00,,
+5.752800e+00,+3.009867e+00,,
+5.770667e+00,+2.987733e+00,,
+5.783733e+00,+3.027733e+00,,
+5.792800e+00,+3.009867e+00,,
+5.788267e+00,+3.036533e+00,,
+5.797067e+00,+3.014400e+00,,
+5.801600e+00,+3.023200e+00,,
+5.801600e+00,+3.005600e+00,,
+5.805867e+00,+3.054400e+00,,
+5.783733e+00,+3.027733e+00,,
+5.828000e+00,+3.054400e+00,,
+5.805867e+00,+3.027733e+00,,
+5.814667e+00,+3.067733e+00,,
+5.805867e+00,+3.036533e+00,,
+5.823733e+00,+3.063200e+00,,
+5.814667e+00,+3.041067e+00,,
+5.836800e+00,+3.076533e+00,,
+5.828000e+00,+3.049867e+00,,
+5.850133e+00,+3.076533e+00,,
+5.841333e+00,+3.076533e+00,,
+5.858933e+00,+3.089867e+00,,
+5.832533e+00,+3.054400e+00,,
+5.854667e+00,+3.112267e+00,,
+5.858933e+00,+3.063200e+00,,
+5.858933e+00,+3.116533e+00,,
+5.863467e+00,+3.076533e+00,,
+5.854667e+00,+3.094400e+00,,
+5.863467e+00,+3.103200e+00,,
+5.881067e+00,+3.116533e+00,,
+5.863467e+00,+3.076533e+00,,
+5.876800e+00,+3.125600e+00,,
+5.894400e+00,+3.094400e+00,,
+5.903200e+00,+3.134400e+00,,
+5.903200e+00,+3.116533e+00,,
+5.903200e+00,+3.125600e+00,,
+5.916533e+00,+3.129867e+00,,
+5.916533e+00,+3.147733e+00,,
+5.934134e+00,+3.125600e+00,,
+5.925333e+00,+3.147733e+00,,
+5.938667e+00,+3.121067e+00,,
+5.925333e+00,+3.161067e+00,,
+5.934134e+00,+3.138933e+00,,
+5.942934e+00,+3.161067e+00,,
+5.947467e+00,+3.134400e+00,,
+5.938667e+00,+3.205600e+00,,
+5.947467e+00,+3.156533e+00,,
+5.960800e+00,+3.192267e+00,,
+5.947467e+00,+3.156533e+00,,
+5.960800e+00,+3.201067e+00,,
+5.965067e+00,+3.174400e+00,,
+5.973867e+00,+3.205600e+00,,
+5.965067e+00,+3.178933e+00,,
+5.965067e+00,+3.201067e+00,,
+5.978400e+00,+3.214400e+00,,
+5.987200e+00,+3.227733e+00,,
+5.991734e+00,+3.205600e+00,,
+5.991734e+00,+3.227733e+00,,
+6.013600e+00,+3.205600e+00,,
+6.009334e+00,+3.227733e+00,,
+6.013600e+00,+3.227733e+00,,
+6.040267e+00,+3.254400e+00,,
+6.035733e+00,+3.232267e+00,,
+6.026933e+00,+3.250133e+00,,
+6.040267e+00,+3.232267e+00,,
+6.031467e+00,+3.267733e+00,,
+6.053600e+00,+3.245600e+00,,
+6.018133e+00,+3.267733e+00,,
+6.053600e+00,+3.258933e+00,,
+6.040267e+00,+3.307733e+00,,
+6.053600e+00,+3.254400e+00,,
+6.053600e+00,+3.272267e+00,,
+6.031467e+00,+3.281067e+00,,
+6.062400e+00,+3.285600e+00,,
+6.075733e+00,+3.281067e+00,,
+6.075733e+00,+3.294400e+00,,
+6.066667e+00,+3.290133e+00,,
+6.088800e+00,+3.330133e+00,,
+6.093333e+00,+3.290133e+00,,
+6.075733e+00,+3.316800e+00,,
+6.088800e+00,+3.294400e+00,,
+6.088800e+00,+3.312267e+00,,
+6.088800e+00,+3.316800e+00,,
+6.097600e+00,+3.347733e+00,,
+6.097600e+00,+3.325600e+00,,
+6.097600e+00,+3.334400e+00,,
+6.110933e+00,+3.316800e+00,,
+6.124267e+00,+3.356800e+00,,
+6.115467e+00,+3.312267e+00,,
+6.124267e+00,+3.356800e+00,,
+6.133067e+00,+3.338933e+00,,
+6.133067e+00,+3.356800e+00,,
+6.128800e+00,+3.356800e+00,,
+6.133067e+00,+3.352267e+00,,
+6.146400e+00,+3.361067e+00,,
+6.137600e+00,+3.392267e+00,,
+6.141867e+00,+3.347733e+00,,
+6.146400e+00,+3.378933e+00,,
+6.159733e+00,+3.383467e+00,,
+6.155200e+00,+3.387733e+00,,
+6.172800e+00,+3.374400e+00,,
+6.177333e+00,+3.396800e+00,,
+6.168533e+00,+3.383467e+00,,
+6.172800e+00,+3.392267e+00,,
+6.199467e+00,+3.374400e+00,,
+6.181600e+00,+3.418933e+00,,
+6.190667e+00,+3.383467e+00,,
+6.199467e+00,+3.418933e+00,,
+6.203733e+00,+3.383467e+00,,
+6.203733e+00,+3.436800e+00,,
+6.208267e+00,+3.396800e+00,,
+6.221600e+00,+3.445600e+00,,
+6.221600e+00,+3.441067e+00,,
+6.212800e+00,+3.458933e+00,,
+6.212800e+00,+3.436800e+00,,
+6.243733e+00,+3.472267e+00,,
+6.248000e+00,+3.418933e+00,,
+6.239200e+00,+3.463467e+00,,
+6.234667e+00,+3.445600e+00,,
+6.239200e+00,+3.472267e+00,,
+6.243733e+00,+3.463467e+00,,
+6.234667e+00,+3.458933e+00,,
+6.252533e+00,+3.450133e+00,,
+6.261333e+00,+3.476800e+00,,
+6.274667e+00,+3.467733e+00,,
+6.270133e+00,+3.494400e+00,,
+6.265600e+00,+3.472267e+00,,
+6.265600e+00,+3.512267e+00,,
+6.274667e+00,+3.476800e+00,,
+6.283467e+00,+3.507733e+00,,
+6.292267e+00,+3.490133e+00,,
+6.270133e+00,+3.516800e+00,,
+6.301067e+00,+3.494400e+00,,
+6.309867e+00,+3.538933e+00,,
+6.305600e+00,+3.503467e+00,,
+6.318667e+00,+3.530133e+00,,
+6.309867e+00,+3.512267e+00,,
+6.323200e+00,+3.538933e+00,,
+6.318667e+00,+3.525600e+00,,
+6.336534e+00,+3.538933e+00,,
+6.309867e+00,+3.543467e+00,,
+6.327734e+00,+3.556800e+00,,
+6.349600e+00,+3.530133e+00,,
+6.332000e+00,+3.565600e+00,,
+6.345334e+00,+3.538933e+00,,
+6.362934e+00,+3.570133e+00,,
+6.354134e+00,+3.548000e+00,,
+6.362934e+00,+3.592267e+00,,
+6.349600e+00,+3.570133e+00,,
+6.362934e+00,+3.592267e+00,,
+6.371733e+00,+3.548000e+00,,
+6.358667e+00,+3.578933e+00,,
+6.385067e+00,+3.574667e+00,,
+6.376267e+00,+3.601333e+00,,
+6.411734e+00,+3.592267e+00,,
+6.393867e+00,+3.632267e+00,,
+6.385067e+00,+3.583467e+00,,
+6.407200e+00,+3.618933e+00,,
+6.407200e+00,+3.614667e+00,,
+6.398400e+00,+3.618933e+00,,
+6.416000e+00,+3.614667e+00,,
+6.416000e+00,+3.645600e+00,,
+6.407200e+00,+3.632267e+00,,
+6.424800e+00,+3.632267e+00,,
+6.433600e+00,+3.614667e+00,,
+6.438133e+00,+3.650133e+00,,
+6.442667e+00,+3.636800e+00,,
+6.442667e+00,+3.658933e+00,,
+6.442667e+00,+3.628000e+00,,
+6.451467e+00,+3.668000e+00,,
+6.442667e+00,+3.645600e+00,,
+6.446933e+00,+3.676800e+00,,
+6.442667e+00,+3.645600e+00,,
+6.455733e+00,+3.676800e+00,,
+6.473600e+00,+3.641333e+00,,
+6.460267e+00,+3.690133e+00,,
+6.460267e+00,+3.658933e+00,,
+6.477867e+00,+3.681333e+00,,
+6.469067e+00,+3.681333e+00,,
+6.473600e+00,+3.703467e+00,,
+6.477867e+00,+3.690133e+00,,
+6.500000e+00,+3.708000e+00,,
+6.500000e+00,+3.694667e+00,,
+6.482400e+00,+3.712267e+00,,
+6.504533e+00,+3.721333e+00,,
+6.500000e+00,+3.743467e+00,,
+6.500000e+00,+3.703467e+00,,
+6.513333e+00,+3.725600e+00,,
+6.526667e+00,+3.698933e+00,,
+6.513333e+00,+3.725600e+00,,
+6.522133e+00,+3.712267e+00,,
+6.522133e+00,+3.752267e+00,,
+6.539733e+00,+3.730133e+00,,
+6.535467e+00,+3.770133e+00,,
+6.530933e+00,+3.725600e+00,,
+6.553067e+00,+3.774667e+00,,
+6.557600e+00,+3.748000e+00,,
+6.544267e+00,+3.770133e+00,,
+6.561867e+00,+3.734667e+00,,
+6.570667e+00,+3.765600e+00,,
+6.553067e+00,+3.765600e+00,,
+6.566400e+00,+3.792267e+00,,
+6.579467e+00,+3.761333e+00,,
+6.575200e+00,+3.778933e+00,,
+6.575200e+00,+3.770133e+00,,
+6.601600e+00,+3.810133e+00,,
+6.588533e+00,+3.774667e+00,,
+6.588533e+00,+3.810133e+00,,
+6.597333e+00,+3.788000e+00,,
+6.614933e+00,+3.832533e+00,,
+6.606133e+00,+3.778933e+00,,
+6.601600e+00,+3.845867e+00,,
+6.628267e+00,+3.810133e+00,,
+6.614933e+00,+3.845867e+00,,
+6.628267e+00,+3.805867e+00,,
+6.637067e+00,+3.854667e+00,,
+6.628267e+00,+3.810133e+00,,
+6.650400e+00,+3.850133e+00,,
+6.628267e+00,+3.832533e+00,,
+6.637067e+00,+3.863467e+00,,
+6.632534e+00,+3.832533e+00,,
+6.663467e+00,+3.863467e+00,,
+6.654667e+00,+3.850133e+00,,
+6.672534e+00,+3.876800e+00,,
+6.645867e+00,+3.850133e+00,,
+6.663467e+00,+3.881333e+00,,
+6.668000e+00,+3.876800e+00,,
+6.663467e+00,+3.894667e+00,,
+6.672534e+00,+3.859200e+00,,
+6.676800e+00,+3.912533e+00,,
+6.672534e+00,+3.899200e+00,,
+6.698934e+00,+3.912533e+00,,
+6.676800e+00,+3.899200e+00,,
+6.716533e+00,+3.908000e+00,,
+6.703467e+00,+3.899200e+00,,
+6.707734e+00,+3.916800e+00,,
+6.716533e+00,+3.890133e+00,,
+6.707734e+00,+3.943467e+00,,
+6.729867e+00,+3.908000e+00,,
+6.703467e+00,+3.952533e+00,,
+6.725600e+00,+3.908000e+00,,
+6.725600e+00,+3.952533e+00,,
+6.734400e+00,+3.921333e+00,,
+6.734400e+00,+3.939200e+00,,
+6.747467e+00,+3.961333e+00,,
+6.747467e+00,+3.970133e+00,,
+6.743200e+00,+3.948000e+00,,
+6.760800e+00,+3.979200e+00,,
+6.769600e+00,+3.970133e+00,,
+6.752000e+00,+3.988000e+00,,
+6.787467e+00,+3.974667e+00,,
+6.774133e+00,+3.974667e+00,,
+6.778667e+00,+3.965867e+00,,
+6.791733e+00,+3.992533e+00,,
+6.782933e+00,+3.988000e+00,,
+6.782933e+00,+4.005867e+00,,
+6.774133e+00,+3.988000e+00,,
+6.805067e+00,+3.992533e+00,,
+6.796267e+00,+3.996800e+00,,
+6.796267e+00,+4.005867e+00,,
+6.809600e+00,+3.992533e+00,,
+6.796267e+00,+4.014667e+00,,
+6.805067e+00,+4.005867e+00,,
+6.818400e+00,+4.028000e+00,,
+6.836000e+00,+4.010133e+00,,
+6.809600e+00,+4.041333e+00,,
+6.822667e+00,+4.028000e+00,,
+6.853600e+00,+4.063467e+00,,
+6.827200e+00,+4.032533e+00,,
+6.849333e+00,+4.028000e+00,,
+6.827200e+00,+4.050133e+00,,
+6.836000e+00,+4.076800e+00,,
+6.858133e+00,+4.054667e+00,,
+6.866933e+00,+4.076800e+00,,
+6.858133e+00,+4.041333e+00,,
+6.871467e+00,+4.090400e+00,,
+6.880267e+00,+4.054667e+00,,
+6.897867e+00,+4.090400e+00,,
+6.880267e+00,+4.068000e+00,,
+6.871467e+00,+4.094666e+00,,
+6.889067e+00,+4.054667e+00,,
+6.897867e+00,+4.094666e+00,,
+6.915467e+00,+4.063467e+00,,
+6.889067e+00,+4.099200e+00,,
+6.889067e+00,+4.094666e+00,,
+6.920000e+00,+4.121334e+00,,
+6.915467e+00,+4.090400e+00,,
+6.915467e+00,+4.125867e+00,,
+6.924533e+00,+4.117067e+00,,
+6.911200e+00,+4.152534e+00,,
+6.920000e+00,+4.108000e+00,,
+6.937600e+00,+4.139200e+00,,
+6.928800e+00,+4.121334e+00,,
+6.946400e+00,+4.143734e+00,,
+6.937600e+00,+4.117067e+00,,
+6.933333e+00,+4.148000e+00,,
+6.955467e+00,+4.139200e+00,,
+6.946400e+00,+4.157067e+00,,
+6.950933e+00,+4.152534e+00,,
+6.959733e+00,+4.148000e+00,,
+6.977600e+00,+4.143734e+00,,
+6.959733e+00,+4.197067e+00,,
+6.977600e+00,+4.157067e+00,,
+6.968534e+00,+4.174667e+00,,
+6.999467e+00,+4.161334e+00,,
+6.990667e+00,+4.201334e+00,,
+6.995200e+00,+4.170400e+00,,
+7.008533e+00,+4.201334e+00,,
+6.990667e+00,+4.170400e+00,,
+6.995200e+00,+4.201334e+00,,
+6.999467e+00,+4.165867e+00,,
+7.008533e+00,+4.237067e+00,,
+7.012800e+00,+4.192533e+00,,
+7.017334e+00,+4.219200e+00,,
+7.021600e+00,+4.205867e+00,,
+7.026134e+00,+4.228000e+00,,
+7.039467e+00,+4.214667e+00,,
+7.030400e+00,+4.241333e+00,,
+7.039467e+00,+4.228000e+00,,
+7.030400e+00,+4.245867e+00,,
+7.048267e+00,+4.223733e+00,,
+7.043734e+00,+4.254667e+00,,
+7.039467e+00,+4.241333e+00,,
+7.061600e+00,+4.259200e+00,,
+7.057067e+00,+4.241333e+00,,
+7.065867e+00,+4.272533e+00,,
+7.065867e+00,+4.254667e+00,,
+7.079200e+00,+4.272533e+00,,
+7.083467e+00,+4.268000e+00,,
+7.083467e+00,+4.281333e+00,,
+7.092534e+00,+4.272533e+00,,
+7.083467e+00,+4.299200e+00,,
+7.088000e+00,+4.285867e+00,,
+7.118933e+00,+4.308000e+00,,
+7.110134e+00,+4.294667e+00,,
+7.092534e+00,+4.299200e+00,,
+7.101334e+00,+4.290400e+00,,
+7.118933e+00,+4.325867e+00,,
+7.110134e+00,+4.317067e+00,,
+7.123467e+00,+4.334667e+00,,
+7.132267e+00,+4.334667e+00,,
+7.127733e+00,+4.339200e+00,,
+7.096800e+00,+4.308000e+00,,
+7.141067e+00,+4.348000e+00,,
+7.136533e+00,+4.321333e+00,,
