2N3904/RigolDS0.csv

CH1V,CH2V,t0 =-1.000000e-02, tInc = 2.000000e-06,
+4.466400e+00,+4.468266e+00,,
+4.479733e+00,+4.494934e+00,,
+4.488533e+00,+4.472533e+00,,
+4.488533e+00,+4.499200e+00,,
+4.488533e+00,+4.481600e+00,,
+4.515200e+00,+4.503733e+00,,
+4.497334e+00,+4.490400e+00,,
+4.515200e+00,+4.485867e+00,,
+4.501867e+00,+4.503733e+00,,
+4.546134e+00,+4.494934e+00,,
+4.515200e+00,+4.503733e+00,,
+4.528267e+00,+4.539200e+00,,
+4.532800e+00,+4.512533e+00,,
+4.550400e+00,+4.521600e+00,,
+4.537067e+00,+4.494934e+00,,
+4.550400e+00,+4.548267e+00,,
+4.519467e+00,+4.494934e+00,,
+4.554934e+00,+4.570400e+00,,
+4.563734e+00,+4.512533e+00,,
+4.559200e+00,+4.557067e+00,,
+4.550400e+00,+4.557067e+00,,
+4.563734e+00,+4.539200e+00,,
+4.563734e+00,+4.525867e+00,,
+4.568000e+00,+4.557067e+00,,
+4.572534e+00,+4.530400e+00,,
+4.572534e+00,+4.579200e+00,,
+4.585867e+00,+4.574934e+00,,
+4.590133e+00,+4.592534e+00,,
+4.585867e+00,+4.561600e+00,,
+4.603467e+00,+4.601600e+00,,
+4.608000e+00,+4.588267e+00,,
+4.603467e+00,+4.601600e+00,,
+4.608000e+00,+4.601600e+00,,
+4.634400e+00,+4.641600e+00,,
+4.630133e+00,+4.597067e+00,,
+4.625600e+00,+4.637067e+00,,
+4.630133e+00,+4.610400e+00,,
+4.647733e+00,+4.632534e+00,,
+4.647733e+00,+4.619200e+00,,
+4.661067e+00,+4.637067e+00,,
+4.652000e+00,+4.619200e+00,,
+4.643200e+00,+4.650400e+00,,
+4.661067e+00,+4.628267e+00,,
+4.661067e+00,+4.654933e+00,,
+4.661067e+00,+4.632534e+00,,
+4.678667e+00,+4.645867e+00,,
+4.669867e+00,+4.637067e+00,,
+4.661067e+00,+4.681600e+00,,
+4.669867e+00,+4.637067e+00,,
+4.656533e+00,+4.663733e+00,,
+4.674133e+00,+4.672800e+00,,
+4.705067e+00,+4.677067e+00,,
+4.682933e+00,+4.663733e+00,,
+4.700800e+00,+4.694933e+00,,
+4.687467e+00,+4.677067e+00,,
+4.714133e+00,+4.703733e+00,,
+4.709600e+00,+4.677067e+00,,
+4.714133e+00,+4.708267e+00,,
+4.718400e+00,+4.681600e+00,,
+4.718400e+00,+4.712800e+00,,
+4.709600e+00,+4.708267e+00,,
+4.727200e+00,+4.730400e+00,,
+4.722933e+00,+4.699467e+00,,
+4.718400e+00,+4.739467e+00,,
+4.736000e+00,+4.703733e+00,,
+4.731733e+00,+4.730400e+00,,
+4.740533e+00,+4.708267e+00,,
+4.740533e+00,+4.752800e+00,,
+4.758133e+00,+4.721600e+00,,
+4.776000e+00,+4.770400e+00,,
+4.758133e+00,+4.743733e+00,,
+4.753867e+00,+4.743733e+00,,
+4.776000e+00,+4.712800e+00,,
+4.780267e+00,+4.766133e+00,,
+4.784800e+00,+4.766133e+00,,
+4.798133e+00,+4.788267e+00,,
+4.784800e+00,+4.770400e+00,,
+4.802400e+00,+4.792800e+00,,
+4.802400e+00,+4.761600e+00,,
+4.798133e+00,+4.779467e+00,,
+4.798133e+00,+4.766133e+00,,
+4.820000e+00,+4.783733e+00,,
+4.806933e+00,+4.783733e+00,,
+4.815733e+00,+4.806133e+00,,
+4.833333e+00,+4.806133e+00,,
+4.806933e+00,+4.832800e+00,,
+4.824533e+00,+4.797067e+00,,
+4.842134e+00,+4.810400e+00,,
+4.842134e+00,+4.783733e+00,,
+4.842134e+00,+4.832800e+00,,
+4.850934e+00,+4.810400e+00,,
+4.855467e+00,+4.846133e+00,,
+4.855467e+00,+4.841600e+00,,
+4.855467e+00,+4.846133e+00,,
+4.860000e+00,+4.819467e+00,,
+4.860000e+00,+4.854933e+00,,
+4.873067e+00,+4.854933e+00,,
+4.886400e+00,+4.863733e+00,,
+4.864267e+00,+4.823733e+00,,
+4.877600e+00,+4.881600e+00,,
+4.881867e+00,+4.868267e+00,,
+4.904000e+00,+4.890400e+00,,
+4.886400e+00,+4.868267e+00,,
+4.899734e+00,+4.890400e+00,,
+4.904000e+00,+4.881600e+00,,
+4.917334e+00,+4.899467e+00,,
+4.904000e+00,+4.881600e+00,,
+4.899734e+00,+4.917067e+00,,
+4.917334e+00,+4.894933e+00,,
+4.948267e+00,+4.934933e+00,,
+4.926133e+00,+4.926133e+00,,
+4.913067e+00,+4.939467e+00,,
+4.930667e+00,+4.908267e+00,,
+4.939467e+00,+4.939467e+00,,
+4.944000e+00,+4.908267e+00,,
+4.926133e+00,+4.934933e+00,,
+4.961600e+00,+4.917067e+00,,
+4.961600e+00,+4.948267e+00,,
+4.957067e+00,+4.934933e+00,,
+4.952800e+00,+4.952800e+00,,
+4.957067e+00,+4.934933e+00,,
+4.974934e+00,+4.970667e+00,,
+4.970400e+00,+4.948267e+00,,
+4.979200e+00,+4.974934e+00,,
+4.979200e+00,+4.952800e+00,,
+5.005867e+00,+4.988267e+00,,
+4.983733e+00,+4.948267e+00,,
+5.014667e+00,+5.001600e+00,,
+4.983733e+00,+4.970667e+00,,
+5.018933e+00,+5.001600e+00,,
+5.005867e+00,+4.974934e+00,,
+5.014667e+00,+4.988267e+00,,
+5.023467e+00,+4.979467e+00,,
+5.032267e+00,+4.997334e+00,,
+5.010133e+00,+4.984000e+00,,
+5.028000e+00,+5.024000e+00,,
+5.023467e+00,+5.001600e+00,,
+5.028000e+00,+5.028267e+00,,
+5.032267e+00,+5.014934e+00,,
+5.032267e+00,+5.028267e+00,,
+5.045600e+00,+5.019467e+00,,
+5.058933e+00,+5.046134e+00,,
+5.049867e+00,+5.037333e+00,,
+5.063200e+00,+5.037333e+00,,
+5.054400e+00,+5.046134e+00,,
+5.058933e+00,+5.064000e+00,,
+5.081067e+00,+5.037333e+00,,
+5.067733e+00,+5.072800e+00,,
+5.072000e+00,+5.077333e+00,,
+5.098667e+00,+5.077333e+00,,
+5.081067e+00,+5.046134e+00,,
+5.098667e+00,+5.104000e+00,,
+5.094133e+00,+5.046134e+00,,
+5.076533e+00,+5.099467e+00,,
+5.102933e+00,+5.072800e+00,,
+5.125067e+00,+5.108267e+00,,
+5.107467e+00,+5.081600e+00,,
+5.116267e+00,+5.094934e+00,,
+5.107467e+00,+5.081600e+00,,
+5.112000e+00,+5.121600e+00,,
+5.116267e+00,+5.121600e+00,,
+5.142933e+00,+5.130667e+00,,
+5.133867e+00,+5.086133e+00,,
+5.125067e+00,+5.108267e+00,,
+5.133867e+00,+5.130667e+00,,
+5.142933e+00,+5.144000e+00,,
+5.142933e+00,+5.108267e+00,,
+5.142933e+00,+5.148267e+00,,
+5.142933e+00,+5.148267e+00,,
+5.169333e+00,+5.139467e+00,,
+5.160533e+00,+5.148267e+00,,
+5.178133e+00,+5.179467e+00,,
+5.182667e+00,+5.144000e+00,,
+5.182667e+00,+5.188267e+00,,
+5.178133e+00,+5.161600e+00,,
+5.191467e+00,+5.174933e+00,,
+5.186934e+00,+5.157333e+00,,
+5.200267e+00,+5.197333e+00,,
+5.191467e+00,+5.161600e+00,,
+5.196000e+00,+5.184000e+00,,
+5.204800e+00,+5.144000e+00,,
+5.213600e+00,+5.201600e+00,,
+5.204800e+00,+5.184000e+00,,
+5.222400e+00,+5.206133e+00,,
+5.217867e+00,+5.197333e+00,,
+5.213600e+00,+5.214933e+00,,
+5.244534e+00,+5.219467e+00,,
+5.231200e+00,+5.210667e+00,,
+5.244534e+00,+5.219467e+00,,
+5.244534e+00,+5.219467e+00,,
+5.240000e+00,+5.219467e+00,,
+5.253334e+00,+5.250667e+00,,
+5.253334e+00,+5.241867e+00,,
+5.253334e+00,+5.264000e+00,,
+5.280000e+00,+5.246133e+00,,
+5.284267e+00,+5.255200e+00,,
+5.270934e+00,+5.246133e+00,,
+5.293067e+00,+5.295200e+00,,
+5.284267e+00,+5.277333e+00,,
+5.297600e+00,+5.290667e+00,,
+5.284267e+00,+5.268533e+00,,
+5.284267e+00,+5.281867e+00,,
+5.293067e+00,+5.281867e+00,,
+5.306400e+00,+5.277333e+00,,
+5.310934e+00,+5.264000e+00,,
+5.297600e+00,+5.326133e+00,,
+5.306400e+00,+5.277333e+00,,
+5.306400e+00,+5.330667e+00,,
+5.319734e+00,+5.317333e+00,,
+5.337333e+00,+5.304000e+00,,
+5.319734e+00,+5.286133e+00,,
+5.310934e+00,+5.330667e+00,,
+5.328533e+00,+5.308533e+00,,
+5.337333e+00,+5.339467e+00,,
+5.350667e+00,+5.326133e+00,,
+5.350667e+00,+5.348534e+00,,
+5.364000e+00,+5.344000e+00,,
+5.364000e+00,+5.361867e+00,,
+5.364000e+00,+5.339467e+00,,
+5.359467e+00,+5.348534e+00,,
+5.368267e+00,+5.339467e+00,,
+5.364000e+00,+5.370667e+00,,
+5.381600e+00,+5.335200e+00,,
+5.381600e+00,+5.379467e+00,,
+5.381600e+00,+5.370667e+00,,
+5.390400e+00,+5.397334e+00,,
+5.394933e+00,+5.388534e+00,,
+5.385867e+00,+5.406133e+00,,
+5.381600e+00,+5.375200e+00,,
+5.416800e+00,+5.410667e+00,,
+5.408000e+00,+5.370667e+00,,
+5.421333e+00,+5.401867e+00,,
+5.416800e+00,+5.401867e+00,,
+5.421333e+00,+5.424000e+00,,
+5.438933e+00,+5.410667e+00,,
+5.421333e+00,+5.437334e+00,,
+5.434667e+00,+5.424000e+00,,
+5.461067e+00,+5.437334e+00,,
+5.430133e+00,+5.424000e+00,,
+5.447733e+00,+5.446134e+00,,
+5.452267e+00,+5.428534e+00,,
+5.461067e+00,+5.459467e+00,,
+5.461067e+00,+5.424000e+00,,
+5.478933e+00,+5.450667e+00,,
+5.465600e+00,+5.446134e+00,,
+5.447733e+00,+5.437334e+00,,
+5.469867e+00,+5.441867e+00,,
+5.487733e+00,+5.490667e+00,,
+5.474400e+00,+5.446134e+00,,
+5.478933e+00,+5.477334e+00,,
+5.487733e+00,+5.459467e+00,,
+5.487733e+00,+5.517334e+00,,
+5.505333e+00,+5.490667e+00,,
+5.505333e+00,+5.508533e+00,,
+5.509867e+00,+5.490667e+00,,
+5.522933e+00,+5.513067e+00,,
+5.518667e+00,+5.481867e+00,,
+5.527467e+00,+5.544000e+00,,
+5.505333e+00,+5.486134e+00,,
+5.531734e+00,+5.521867e+00,,
+5.518667e+00,+5.495200e+00,,
+5.545067e+00,+5.521867e+00,,
+5.545067e+00,+5.517334e+00,,
+5.527467e+00,+5.526400e+00,,
+5.545067e+00,+5.517334e+00,,
+5.553867e+00,+5.535200e+00,,
+5.562933e+00,+5.526400e+00,,
+5.567200e+00,+5.566400e+00,,
+5.549600e+00,+5.526400e+00,,
+5.562933e+00,+5.575200e+00,,
+5.576000e+00,+5.539733e+00,,
+5.589334e+00,+5.561867e+00,,
+5.584800e+00,+5.557333e+00,,
+5.606934e+00,+5.593067e+00,,
+5.576000e+00,+5.570667e+00,,
+5.606934e+00,+5.579733e+00,,
+5.598134e+00,+5.579733e+00,,
+5.593867e+00,+5.588533e+00,,
+5.615734e+00,+5.597333e+00,,
+5.615734e+00,+5.601867e+00,,
+5.615734e+00,+5.601867e+00,,
+5.646934e+00,+5.606400e+00,,
+5.629067e+00,+5.615200e+00,,
+5.615734e+00,+5.641867e+00,,
+5.620267e+00,+5.588533e+00,,
+5.633600e+00,+5.646400e+00,,
+5.646934e+00,+5.619733e+00,,
+5.655734e+00,+5.650667e+00,,
+5.651200e+00,+5.633067e+00,,
+5.655734e+00,+5.655200e+00,,
+5.642400e+00,+5.637333e+00,,
+5.673333e+00,+5.664000e+00,,
+5.664534e+00,+5.633067e+00,,
+5.660000e+00,+5.659733e+00,,
+5.673333e+00,+5.650667e+00,,
+5.673333e+00,+5.664000e+00,,
+5.668800e+00,+5.673067e+00,,
+5.682133e+00,+5.673067e+00,,
+5.673333e+00,+5.641867e+00,,
+5.695467e+00,+5.690667e+00,,
+5.686667e+00,+5.668533e+00,,
+5.695467e+00,+5.690667e+00,,
+5.699733e+00,+5.673067e+00,,
+5.713067e+00,+5.695200e+00,,
+5.699733e+00,+5.690667e+00,,
+5.708800e+00,+5.699733e+00,,
+5.713067e+00,+5.695200e+00,,
+5.730667e+00,+5.713067e+00,,
+5.735200e+00,+5.699733e+00,,
+5.748533e+00,+5.721867e+00,,
+5.726400e+00,+5.717333e+00,,
+5.730667e+00,+5.744000e+00,,
+5.739733e+00,+5.744000e+00,,
+5.744000e+00,+5.730667e+00,,
+5.761867e+00,+5.721867e+00,,
+5.752800e+00,+5.739733e+00,,
+5.766133e+00,+5.744000e+00,,
+5.779467e+00,+5.766400e+00,,
+5.770667e+00,+5.721867e+00,,
+5.779467e+00,+5.753067e+00,,
+5.774933e+00,+5.744000e+00,,
+5.779467e+00,+5.779733e+00,,
+5.783733e+00,+5.766400e+00,,
+5.805867e+00,+5.810934e+00,,
+5.797067e+00,+5.784000e+00,,
+5.810400e+00,+5.801867e+00,,
+5.797067e+00,+5.784000e+00,,
+5.810400e+00,+5.819734e+00,,
+5.797067e+00,+5.766400e+00,,
+5.832533e+00,+5.824267e+00,,
+5.832533e+00,+5.784000e+00,,
+5.832533e+00,+5.815200e+00,,
+5.828000e+00,+5.788533e+00,,
+5.823733e+00,+5.810934e+00,,
+5.828000e+00,+5.784000e+00,,
+5.836800e+00,+5.837600e+00,,
+5.823733e+00,+5.810934e+00,,
+5.845867e+00,+5.859734e+00,,
+5.850133e+00,+5.841866e+00,,
+5.841333e+00,+5.855200e+00,,
+5.854667e+00,+5.819734e+00,,
+5.863467e+00,+5.855200e+00,,
+5.863467e+00,+5.841866e+00,,
+5.876800e+00,+5.864267e+00,,
+5.854667e+00,+5.833067e+00,,
+5.867733e+00,+5.850934e+00,,
+5.872267e+00,+5.841866e+00,,
+5.876800e+00,+5.886400e+00,,
+5.881067e+00,+5.864267e+00,,
+5.889867e+00,+5.904267e+00,,
+5.894400e+00,+5.873067e+00,,
+5.912000e+00,+5.895200e+00,,
+5.903200e+00,+5.899734e+00,,
+5.912000e+00,+5.908534e+00,,
+5.907733e+00,+5.881867e+00,,
+5.889867e+00,+5.913067e+00,,
+5.925333e+00,+5.895200e+00,,
+5.925333e+00,+5.926400e+00,,
+5.938667e+00,+5.908534e+00,,
+5.934134e+00,+5.917600e+00,,
+5.934134e+00,+5.908534e+00,,
+5.938667e+00,+5.921867e+00,,
+5.934134e+00,+5.917600e+00,,
+5.960800e+00,+5.935200e+00,,
+5.951734e+00,+5.921867e+00,,
+5.938667e+00,+5.948534e+00,,
+5.978400e+00,+5.930933e+00,,
+5.982667e+00,+5.970933e+00,,
+5.960800e+00,+5.957600e+00,,
+5.960800e+00,+5.984267e+00,,
+5.978400e+00,+5.939734e+00,,
+5.982667e+00,+5.975200e+00,,
+5.991734e+00,+5.970933e+00,,
+5.987200e+00,+5.988533e+00,,
+6.013600e+00,+5.957600e+00,,
+5.982667e+00,+6.010933e+00,,
+6.022667e+00,+5.979733e+00,,
+6.004800e+00,+6.001867e+00,,
+5.996000e+00,+5.979733e+00,,
+6.026933e+00,+6.006400e+00,,
+6.040267e+00,+5.993067e+00,,
+6.044800e+00,+6.019733e+00,,
+6.044800e+00,+6.001867e+00,,
+6.035733e+00,+6.015200e+00,,
+6.049067e+00,+6.019733e+00,,
+6.022667e+00,+6.041867e+00,,
+6.035733e+00,+6.024267e+00,,
+6.031467e+00,+6.037600e+00,,
+6.035733e+00,+6.024267e+00,,
+6.040267e+00,+6.046400e+00,,
+6.057867e+00,+6.015200e+00,,
+6.071200e+00,+6.050933e+00,,
+6.080000e+00,+6.037600e+00,,
+6.049067e+00,+6.073067e+00,,
+6.066667e+00,+6.055200e+00,,
+6.075733e+00,+6.086400e+00,,
+6.075733e+00,+6.059733e+00,,
+6.084533e+00,+6.064267e+00,,
+6.088800e+00,+6.046400e+00,,
+6.102133e+00,+6.073067e+00,,
+6.088800e+00,+6.059733e+00,,
+6.115467e+00,+6.090933e+00,,
+6.110933e+00,+6.082133e+00,,
+6.102133e+00,+6.099733e+00,,
+6.097600e+00,+6.082133e+00,,
+6.110933e+00,+6.108800e+00,,
+6.133067e+00,+6.108800e+00,,
+6.133067e+00,+6.099733e+00,,
+6.137600e+00,+6.095467e+00,,
+6.155200e+00,+6.113067e+00,,
+6.133067e+00,+6.117600e+00,,
+6.133067e+00,+6.148800e+00,,
+6.141867e+00,+6.126400e+00,,
+6.146400e+00,+6.139733e+00,,
+6.168533e+00,+6.122133e+00,,
+6.137600e+00,+6.126400e+00,,
+6.164000e+00,+6.135467e+00,,
+6.164000e+00,+6.175467e+00,,
+6.177333e+00,+6.135467e+00,,
+6.168533e+00,+6.170933e+00,,
+6.177333e+00,+6.170933e+00,,
+6.212800e+00,+6.175467e+00,,
+6.186133e+00,+6.139733e+00,,
+6.199467e+00,+6.184267e+00,,
+6.208267e+00,+6.170933e+00,,
+6.212800e+00,+6.197600e+00,,
+6.190667e+00,+6.179733e+00,,
+6.225867e+00,+6.197600e+00,,
+6.230400e+00,+6.179733e+00,,
+6.225867e+00,+6.219733e+00,,
+6.230400e+00,+6.210933e+00,,
+6.252533e+00,+6.228800e+00,,
+6.221600e+00,+6.184267e+00,,
+6.256800e+00,+6.233067e+00,,
+6.234667e+00,+6.206400e+00,,
+6.252533e+00,+6.233067e+00,,
+6.234667e+00,+6.224267e+00,,
+6.248000e+00,+6.228800e+00,,
+6.265600e+00,+6.228800e+00,,
+6.278934e+00,+6.237600e+00,,
+6.248000e+00,+6.246400e+00,,
+6.274667e+00,+6.273067e+00,,
+6.270133e+00,+6.259733e+00,,
+6.296534e+00,+6.282134e+00,,
+6.301067e+00,+6.255467e+00,,
+6.296534e+00,+6.273067e+00,,
+6.274667e+00,+6.259733e+00,,
+6.287734e+00,+6.259733e+00,,
+6.301067e+00,+6.273067e+00,,
+6.309867e+00,+6.282134e+00,,
+6.305600e+00,+6.268800e+00,,
+6.305600e+00,+6.304267e+00,,
+6.296534e+00,+6.268800e+00,,
+6.309867e+00,+6.304267e+00,,
+6.318667e+00,+6.313067e+00,,
+6.314400e+00,+6.326400e+00,,
+6.332000e+00,+6.299734e+00,,
+6.327734e+00,+6.322134e+00,,
+6.340800e+00,+6.308800e+00,,
+6.340800e+00,+6.326400e+00,,
+6.340800e+00,+6.335467e+00,,
+6.354134e+00,+6.353067e+00,,
+6.362934e+00,+6.344267e+00,,
+6.376267e+00,+6.344267e+00,,
+6.362934e+00,+6.339734e+00,,
+6.362934e+00,+6.362134e+00,,
+6.354134e+00,+6.335467e+00,,
+6.371733e+00,+6.384267e+00,,
+6.376267e+00,+6.335467e+00,,
+6.376267e+00,+6.370934e+00,,
+6.376267e+00,+6.348800e+00,,
+6.398400e+00,+6.410933e+00,,
+6.402667e+00,+6.366667e+00,,
+6.398400e+00,+6.380000e+00,,
+6.407200e+00,+6.397600e+00,,
+6.393867e+00,+6.393333e+00,,
+6.420533e+00,+6.384267e+00,,
+6.433600e+00,+6.424267e+00,,
+6.420533e+00,+6.370934e+00,,
+6.433600e+00,+6.410933e+00,,
+6.429333e+00,+6.397600e+00,,
+6.420533e+00,+6.428800e+00,,
+6.433600e+00,+6.415467e+00,,
+6.438133e+00,+6.433333e+00,,
+6.451467e+00,+6.424267e+00,,
+6.455733e+00,+6.437600e+00,,
+6.442667e+00,+6.424267e+00,,
+6.455733e+00,+6.450933e+00,,
+6.442667e+00,+6.433333e+00,,
+6.446933e+00,+6.455467e+00,,
+6.442667e+00,+6.450933e+00,,
+6.460267e+00,+6.455467e+00,,
+6.482400e+00,+6.460000e+00,,
+6.482400e+00,+6.468800e+00,,
+6.477867e+00,+6.464267e+00,,
+6.491200e+00,+6.486667e+00,,
+6.486667e+00,+6.473333e+00,,
+6.477867e+00,+6.504267e+00,,
+6.500000e+00,+6.473333e+00,,
+6.513333e+00,+6.486667e+00,,
+6.495733e+00,+6.486667e+00,,
+6.500000e+00,+6.513333e+00,,
+6.500000e+00,+6.477600e+00,,
+6.517600e+00,+6.495467e+00,,
+6.530933e+00,+6.490933e+00,,
+6.526667e+00,+6.504267e+00,,
+6.526667e+00,+6.486667e+00,,
+6.504533e+00,+6.517600e+00,,
+6.530933e+00,+6.517600e+00,,
+6.544267e+00,+6.544267e+00,,
+6.553067e+00,+6.513333e+00,,
+6.548533e+00,+6.548800e+00,,
+6.566400e+00,+6.522133e+00,,
+6.566400e+00,+6.548800e+00,,
+6.561867e+00,+6.513333e+00,,
+6.575200e+00,+6.570933e+00,,
+6.566400e+00,+6.544267e+00,,
+6.575200e+00,+6.562133e+00,,
+6.588533e+00,+6.544267e+00,,
+6.579467e+00,+6.584267e+00,,
+6.584000e+00,+6.553333e+00,,
+6.588533e+00,+6.570933e+00,,
+6.606133e+00,+6.580000e+00,,
+6.601600e+00,+6.597600e+00,,
+6.606133e+00,+6.557600e+00,,
+6.619467e+00,+6.615467e+00,,
+6.610667e+00,+6.588800e+00,,
+6.623734e+00,+6.620000e+00,,
+6.610667e+00,+6.602133e+00,,
+6.619467e+00,+6.628800e+00,,
+6.619467e+00,+6.606667e+00,,
+6.637067e+00,+6.642133e+00,,
+6.650400e+00,+6.620000e+00,,
+6.641600e+00,+6.642133e+00,,
+6.645867e+00,+6.633333e+00,,
+6.645867e+00,+6.637600e+00,,
+6.645867e+00,+6.628800e+00,,
+6.654667e+00,+6.642133e+00,,
+6.645867e+00,+6.660000e+00,,
+6.668000e+00,+6.642133e+00,,
+6.672534e+00,+6.633333e+00,,
+6.668000e+00,+6.660000e+00,,
+6.676800e+00,+6.646667e+00,,
+6.668000e+00,+6.677867e+00,,
+6.690134e+00,+6.642133e+00,,
+6.690134e+00,+6.691200e+00,,
+6.676800e+00,+6.664534e+00,,
+6.698934e+00,+6.686667e+00,,
+6.703467e+00,+6.655467e+00,,
+6.694667e+00,+6.704534e+00,,
+6.716533e+00,+6.673334e+00,,
+6.707734e+00,+6.700000e+00,,
+6.721067e+00,+6.686667e+00,,
+6.716533e+00,+6.731200e+00,,
+6.721067e+00,+6.700000e+00,,
+6.721067e+00,+6.717867e+00,,
+6.747467e+00,+6.686667e+00,,
+6.738667e+00,+6.731200e+00,,
+6.743200e+00,+6.717867e+00,,
+6.738667e+00,+6.731200e+00,,
+6.752000e+00,+6.722134e+00,,
+6.765333e+00,+6.748800e+00,,
+6.747467e+00,+6.731200e+00,,
+6.760800e+00,+6.757867e+00,,
+6.756534e+00,+6.740000e+00,,
+6.778667e+00,+6.775467e+00,,
+6.756534e+00,+6.740000e+00,,
+6.782933e+00,+6.780000e+00,,
+6.778667e+00,+6.753334e+00,,
+6.782933e+00,+6.775467e+00,,
+6.769600e+00,+6.753334e+00,,
+6.787467e+00,+6.788800e+00,,
+6.800533e+00,+6.784534e+00,,
+6.791733e+00,+6.780000e+00,,
+6.800533e+00,+6.762134e+00,,
+6.805067e+00,+6.806667e+00,,
+6.813867e+00,+6.780000e+00,,
+6.827200e+00,+6.815467e+00,,
+6.813867e+00,+6.797867e+00,,
+6.836000e+00,+6.828800e+00,,
+6.827200e+00,+6.806667e+00,,
+6.849333e+00,+6.828800e+00,,
+6.836000e+00,+6.828800e+00,,
+6.840533e+00,+6.833333e+00,,
+6.849333e+00,+6.846667e+00,,
+6.844800e+00,+6.837867e+00,,
+6.862400e+00,+6.842134e+00,,
+6.875733e+00,+6.868800e+00,,
+6.866933e+00,+6.842134e+00,,
+6.871467e+00,+6.868800e+00,,
+6.889067e+00,+6.842134e+00,,
+6.875733e+00,+6.873333e+00,,
+6.880267e+00,+6.837867e+00,,
+6.893600e+00,+6.873333e+00,,
+6.889067e+00,+6.860000e+00,,
+6.893600e+00,+6.891200e+00,,
+6.880267e+00,+6.873333e+00,,
+6.902400e+00,+6.877867e+00,,
+6.902400e+00,+6.864533e+00,,
+6.889067e+00,+6.908800e+00,,
+6.911200e+00,+6.882133e+00,,
+6.906667e+00,+6.908800e+00,,
+6.915467e+00,+6.895467e+00,,
+6.924533e+00,+6.913333e+00,,
+6.928800e+00,+6.904533e+00,,
+6.933333e+00,+6.931200e+00,,
+6.937600e+00,+6.926667e+00,,
+6.933333e+00,+6.935733e+00,,
+6.942133e+00,+6.900000e+00,,
+6.955467e+00,+6.944533e+00,,
+6.950933e+00,+6.917867e+00,,
+6.959733e+00,+6.944533e+00,,
+6.977600e+00,+6.917867e+00,,
+6.955467e+00,+6.962400e+00,,
+6.973067e+00,+6.944533e+00,,
+6.968534e+00,+6.966667e+00,,
+6.981867e+00,+6.944533e+00,,
+6.977600e+00,+6.957867e+00,,
+6.981867e+00,+6.953333e+00,,
+6.977600e+00,+6.971200e+00,,
+6.977600e+00,+6.984533e+00,,
+6.990667e+00,+6.980000e+00,,
+6.999467e+00,+6.993333e+00,,
+7.004000e+00,+7.002400e+00,,
+7.012800e+00,+6.966667e+00,,
+7.008533e+00,+7.020000e+00,,
+7.030400e+00,+6.984533e+00,,
+7.017334e+00,+7.002400e+00,,
+7.017334e+00,+6.971200e+00,,
+7.021600e+00,+7.037867e+00,,
+7.043734e+00,+7.006667e+00,,
+7.039467e+00,+7.037867e+00,,
+7.043734e+00,+7.020000e+00,,
+7.043734e+00,+7.024533e+00,,
+7.057067e+00,+7.029067e+00,,
+7.061600e+00,+7.051200e+00,,
+7.065867e+00,+6.989067e+00,,
+7.061600e+00,+7.077867e+00,,
+7.070400e+00,+7.024533e+00,,
+7.083467e+00,+7.042400e+00,,
+7.079200e+00,+7.055733e+00,,
+7.074667e+00,+7.064533e+00,,
+7.088000e+00,+7.037867e+00,,
+7.079200e+00,+7.086667e+00,,
+7.088000e+00,+7.055733e+00,,
+7.092534e+00,+7.073333e+00,,
+7.092534e+00,+7.082400e+00,,
+7.118933e+00,+7.095734e+00,,
+7.101334e+00,+7.055733e+00,,
+7.114400e+00,+7.100000e+00,,
+7.092534e+00,+7.077867e+00,,
+7.123467e+00,+7.109067e+00,,
+7.123467e+00,+7.082400e+00,,
+7.132267e+00,+7.149067e+00,,
+7.141067e+00,+7.100000e+00,,
+7.141067e+00,+7.149067e+00,,
+7.145333e+00,+7.091200e+00,,
+7.141067e+00,+7.122400e+00,,
+7.141067e+00,+7.122400e+00,,
+7.145333e+00,+7.131200e+00,,
+7.176533e+00,+7.126667e+00,,
+7.158667e+00,+7.149067e+00,,
+7.158667e+00,+7.126667e+00,,
+7.172000e+00,+7.153333e+00,,
+7.154400e+00,+7.149067e+00,,
