2N3904/RigolDS7.csv

CH1V,CH2V,t0 =-1.000000e-02, tInc = 2.000000e-06,
+4.479733e+00,+1.396000e+00,,
+4.506134e+00,+1.427200e+00,,
+4.479733e+00,+1.391733e+00,,
+4.510667e+00,+1.445067e+00,,
+4.497334e+00,+1.422667e+00,,
+4.488533e+00,+1.427200e+00,,
+4.497334e+00,+1.413867e+00,,
+4.519467e+00,+1.440533e+00,,
+4.501867e+00,+1.427200e+00,,
+4.524000e+00,+1.422667e+00,,
+4.519467e+00,+1.427200e+00,,
+4.515200e+00,+1.453867e+00,,
+4.541600e+00,+1.436000e+00,,
+4.541600e+00,+1.436000e+00,,
+4.524000e+00,+1.422667e+00,,
+4.541600e+00,+1.449333e+00,,
+4.532800e+00,+1.440533e+00,,
+4.537067e+00,+1.458400e+00,,
+4.554934e+00,+1.445067e+00,,
+4.554934e+00,+1.467200e+00,,
+4.572534e+00,+1.445067e+00,,
+4.559200e+00,+1.485067e+00,,
+4.559200e+00,+1.458400e+00,,
+4.585867e+00,+1.502667e+00,,
+4.563734e+00,+1.471733e+00,,
+4.572534e+00,+1.471733e+00,,
+4.590133e+00,+1.458400e+00,,
+4.594666e+00,+1.489333e+00,,
+4.594666e+00,+1.485067e+00,,
+4.594666e+00,+1.493867e+00,,
+4.608000e+00,+1.489333e+00,,
+4.598933e+00,+1.507200e+00,,
+4.598933e+00,+1.480533e+00,,
+4.603467e+00,+1.516000e+00,,
+4.612267e+00,+1.480533e+00,,
+4.630133e+00,+1.520533e+00,,
+4.603467e+00,+1.498400e+00,,
+4.594666e+00,+1.498400e+00,,
+4.616800e+00,+1.502667e+00,,
+4.625600e+00,+1.507200e+00,,
+4.630133e+00,+1.511733e+00,,
+4.638933e+00,+1.538400e+00,,
+4.638933e+00,+1.507200e+00,,
+4.634400e+00,+1.533867e+00,,
+4.638933e+00,+1.493867e+00,,
+4.656533e+00,+1.538400e+00,,
+4.652000e+00,+1.493867e+00,,
+4.652000e+00,+1.538400e+00,,
+4.652000e+00,+1.538400e+00,,
+4.678667e+00,+1.542933e+00,,
+4.669867e+00,+1.542933e+00,,
+4.687467e+00,+1.565067e+00,,
+4.678667e+00,+1.529600e+00,,
+4.674133e+00,+1.556267e+00,,
+4.687467e+00,+1.525067e+00,,
+4.678667e+00,+1.565067e+00,,
+4.709600e+00,+1.573867e+00,,
+4.714133e+00,+1.565067e+00,,
+4.682933e+00,+1.556267e+00,,
+4.705067e+00,+1.569600e+00,,
+4.696267e+00,+1.560533e+00,,
+4.709600e+00,+1.600533e+00,,
+4.722933e+00,+1.565067e+00,,
+4.731733e+00,+1.591733e+00,,
+4.718400e+00,+1.560533e+00,,
+4.740533e+00,+1.596267e+00,,
+4.714133e+00,+1.578400e+00,,
+4.745067e+00,+1.618400e+00,,
+4.740533e+00,+1.569600e+00,,
+4.731733e+00,+1.618400e+00,,
+4.758133e+00,+1.591733e+00,,
+4.745067e+00,+1.618400e+00,,
+4.745067e+00,+1.596267e+00,,
+4.758133e+00,+1.627200e+00,,
+4.753867e+00,+1.613867e+00,,
+4.749333e+00,+1.631733e+00,,
+4.758133e+00,+1.622933e+00,,
+4.776000e+00,+1.622933e+00,,
+4.776000e+00,+1.618400e+00,,
+4.780267e+00,+1.640533e+00,,
+4.784800e+00,+1.627200e+00,,
+4.784800e+00,+1.658400e+00,,
+4.789067e+00,+1.649600e+00,,
+4.798133e+00,+1.676267e+00,,
+4.802400e+00,+1.627200e+00,,
+4.793600e+00,+1.658400e+00,,
+4.802400e+00,+1.636267e+00,,
+4.802400e+00,+1.671733e+00,,
+4.802400e+00,+1.653867e+00,,
+4.802400e+00,+1.671733e+00,,
+4.815733e+00,+1.649600e+00,,
+4.820000e+00,+1.676267e+00,,
+4.824533e+00,+1.649600e+00,,
+4.837867e+00,+1.680533e+00,,
+4.842134e+00,+1.649600e+00,,
+4.837867e+00,+1.685067e+00,,
+4.850934e+00,+1.662933e+00,,
+4.824533e+00,+1.693867e+00,,
+4.837867e+00,+1.658400e+00,,
+4.833333e+00,+1.702933e+00,,
+4.824533e+00,+1.680533e+00,,
+4.846667e+00,+1.702933e+00,,
+4.868800e+00,+1.702933e+00,,
+4.868800e+00,+1.738400e+00,,
+4.868800e+00,+1.689600e+00,,
+4.873067e+00,+1.738400e+00,,
+4.864267e+00,+1.707200e+00,,
+4.890934e+00,+1.738400e+00,,
+4.881867e+00,+1.702933e+00,,
+4.904000e+00,+1.738400e+00,,
+4.895200e+00,+1.711733e+00,,
+4.904000e+00,+1.747200e+00,,
+4.899734e+00,+1.725067e+00,,
+4.908534e+00,+1.760533e+00,,
+4.917334e+00,+1.733867e+00,,
+4.921867e+00,+1.747200e+00,,
+4.895200e+00,+1.747200e+00,,
+4.917334e+00,+1.760533e+00,,
+4.934933e+00,+1.756267e+00,,
+4.926133e+00,+1.765067e+00,,
+4.934933e+00,+1.747200e+00,,
+4.952800e+00,+1.769600e+00,,
+4.930667e+00,+1.765067e+00,,
+4.939467e+00,+1.778400e+00,,
+4.944000e+00,+1.787200e+00,,
+4.961600e+00,+1.778400e+00,,
+4.961600e+00,+1.751733e+00,,
+4.965867e+00,+1.818400e+00,,
+4.970400e+00,+1.765067e+00,,
+4.970400e+00,+1.791733e+00,,
+4.970400e+00,+1.796267e+00,,
+4.970400e+00,+1.818400e+00,,
+5.001333e+00,+1.796267e+00,,
+4.970400e+00,+1.809600e+00,,
+4.992533e+00,+1.796267e+00,,
+4.983733e+00,+1.822933e+00,,
+4.997066e+00,+1.800533e+00,,
+4.997066e+00,+1.805067e+00,,
+4.988000e+00,+1.809600e+00,,
+5.005867e+00,+1.827467e+00,,
+4.992533e+00,+1.805067e+00,,
+5.010133e+00,+1.845067e+00,,
+5.028000e+00,+1.831733e+00,,
+5.010133e+00,+1.867467e+00,,
+5.018933e+00,+1.836267e+00,,
+5.018933e+00,+1.854133e+00,,
+5.023467e+00,+1.831733e+00,,
+5.036800e+00,+1.880800e+00,,
+5.032267e+00,+1.831733e+00,,
+5.028000e+00,+1.880800e+00,,
+5.041067e+00,+1.867467e+00,,
+5.054400e+00,+1.885067e+00,,
+5.049867e+00,+1.858400e+00,,
+5.067733e+00,+1.885067e+00,,
+5.049867e+00,+1.880800e+00,,
+5.072000e+00,+1.907467e+00,,
+5.067733e+00,+1.880800e+00,,
+5.076533e+00,+1.898400e+00,,
+5.081067e+00,+1.889600e+00,,
+5.098667e+00,+1.898400e+00,,
+5.089867e+00,+1.916267e+00,,
+5.102933e+00,+1.925067e+00,,
+5.094133e+00,+1.876267e+00,,
+5.094133e+00,+1.925067e+00,,
+5.098667e+00,+1.902933e+00,,
+5.116267e+00,+1.929600e+00,,
+5.112000e+00,+1.916267e+00,,
+5.098667e+00,+1.951733e+00,,
+5.102933e+00,+1.920800e+00,,
+5.125067e+00,+1.951733e+00,,
+5.120800e+00,+1.925067e+00,,
+5.129600e+00,+1.987467e+00,,
+5.125067e+00,+1.925067e+00,,
+5.129600e+00,+1.956267e+00,,
+5.138400e+00,+1.934133e+00,,
+5.138400e+00,+1.969600e+00,,
+5.142933e+00,+1.947467e+00,,
+5.151733e+00,+1.987467e+00,,
+5.151733e+00,+1.951733e+00,,
+5.156000e+00,+1.991733e+00,,
+5.169333e+00,+1.942933e+00,,
+5.151733e+00,+1.982933e+00,,
+5.160533e+00,+1.965067e+00,,
+5.169333e+00,+1.991733e+00,,
+5.182667e+00,+1.991733e+00,,
+5.200267e+00,+2.005067e+00,,
+5.191467e+00,+1.987467e+00,,
+5.191467e+00,+2.009600e+00,,
+5.196000e+00,+1.987467e+00,,
+5.196000e+00,+2.005067e+00,,
+5.191467e+00,+1.991733e+00,,
+5.204800e+00,+2.000800e+00,,
+5.213600e+00,+2.000800e+00,,
+5.209067e+00,+2.031733e+00,,
+5.231200e+00,+2.018400e+00,,
+5.209067e+00,+2.040800e+00,,
+5.240000e+00,+2.014133e+00,,
+5.226933e+00,+2.054133e+00,,
+5.226933e+00,+1.996267e+00,,
+5.253334e+00,+2.058400e+00,,
+5.244534e+00,+2.014133e+00,,
+5.240000e+00,+2.076267e+00,,
+5.244534e+00,+2.058400e+00,,
+5.262134e+00,+2.054133e+00,,
+5.262134e+00,+2.040800e+00,,
+5.270934e+00,+2.067467e+00,,
+5.257867e+00,+2.031733e+00,,
+5.270934e+00,+2.080800e+00,,
+5.288800e+00,+2.062933e+00,,
+5.293067e+00,+2.080800e+00,,
+5.275467e+00,+2.054133e+00,,
+5.301867e+00,+2.094133e+00,,
+5.293067e+00,+2.085067e+00,,
+5.301867e+00,+2.107467e+00,,
+5.288800e+00,+2.085067e+00,,
+5.293067e+00,+2.116267e+00,,
+5.310934e+00,+2.089600e+00,,
+5.297600e+00,+2.116267e+00,,
+5.293067e+00,+2.085067e+00,,
+5.315200e+00,+2.129600e+00,,
+5.315200e+00,+2.107467e+00,,
+5.319734e+00,+2.116267e+00,,
+5.341866e+00,+2.107467e+00,,
+5.328533e+00,+2.134133e+00,,
+5.332800e+00,+2.116267e+00,,
+5.341866e+00,+2.152000e+00,,
+5.350667e+00,+2.129600e+00,,
+5.350667e+00,+2.160800e+00,,
+5.354933e+00,+2.125333e+00,,
+5.354933e+00,+2.169600e+00,,
+5.372800e+00,+2.152000e+00,,
+5.377067e+00,+2.174133e+00,,
+5.359467e+00,+2.160800e+00,,
+5.377067e+00,+2.187467e+00,,
+5.394933e+00,+2.152000e+00,,
+5.385867e+00,+2.196267e+00,,
+5.372800e+00,+2.160800e+00,,
+5.385867e+00,+2.205333e+00,,
+5.394933e+00,+2.174133e+00,,
+5.394933e+00,+2.209600e+00,,
+5.390400e+00,+2.169600e+00,,
+5.394933e+00,+2.205333e+00,,
+5.403733e+00,+2.174133e+00,,
+5.434667e+00,+2.205333e+00,,
+5.408000e+00,+2.182933e+00,,
+5.425867e+00,+2.245333e+00,,
+5.399200e+00,+2.192000e+00,,
+5.425867e+00,+2.240800e+00,,
+5.443467e+00,+2.192000e+00,,
+5.434667e+00,+2.236267e+00,,
+5.430133e+00,+2.205333e+00,,
+5.434667e+00,+2.254133e+00,,
+5.443467e+00,+2.227467e+00,,
+5.465600e+00,+2.258667e+00,,
+5.461067e+00,+2.227467e+00,,
+5.461067e+00,+2.276267e+00,,
+5.474400e+00,+2.254133e+00,,
+5.478933e+00,+2.267467e+00,,
+5.452267e+00,+2.232000e+00,,
+5.456800e+00,+2.272000e+00,,
+5.469867e+00,+2.254133e+00,,
+5.487733e+00,+2.280800e+00,,
+5.496533e+00,+2.272000e+00,,
+5.474400e+00,+2.294133e+00,,
+5.496533e+00,+2.272000e+00,,
+5.500800e+00,+2.312000e+00,,
+5.483200e+00,+2.276267e+00,,
+5.505333e+00,+2.316267e+00,,
+5.483200e+00,+2.272000e+00,,
+5.522933e+00,+2.316267e+00,,
+5.518667e+00,+2.294133e+00,,
+5.522933e+00,+2.316267e+00,,
+5.514133e+00,+2.298667e+00,,
+5.531734e+00,+2.316267e+00,,
+5.527467e+00,+2.320800e+00,,
+5.531734e+00,+2.316267e+00,,
+5.540800e+00,+2.298667e+00,,
+5.536267e+00,+2.356267e+00,,
+5.553867e+00,+2.307467e+00,,
+5.536267e+00,+2.356267e+00,,
+5.562933e+00,+2.334133e+00,,
+5.553867e+00,+2.365333e+00,,
+5.553867e+00,+2.329600e+00,,
+5.553867e+00,+2.369600e+00,,
+5.580534e+00,+2.360800e+00,,
+5.576000e+00,+2.392000e+00,,
+5.558400e+00,+2.342933e+00,,
+5.584800e+00,+2.387467e+00,,
+5.598134e+00,+2.365333e+00,,
+5.589334e+00,+2.400800e+00,,
+5.584800e+00,+2.392000e+00,,
+5.615734e+00,+2.414133e+00,,
+5.606934e+00,+2.383200e+00,,
+5.606934e+00,+2.387467e+00,,
+5.602667e+00,+2.374133e+00,,
+5.629067e+00,+2.414133e+00,,
+5.615734e+00,+2.374133e+00,,
+5.624800e+00,+2.418667e+00,,
+5.642400e+00,+2.400800e+00,,
+5.633600e+00,+2.432000e+00,,
+5.620267e+00,+2.409867e+00,,
+5.637866e+00,+2.418667e+00,,
+5.655734e+00,+2.405333e+00,,
+5.651200e+00,+2.454133e+00,,
+5.655734e+00,+2.414133e+00,,
+5.651200e+00,+2.445333e+00,,
+5.637866e+00,+2.418667e+00,,
+5.682133e+00,+2.458667e+00,,
+5.673333e+00,+2.432000e+00,,
+5.660000e+00,+2.463200e+00,,
+5.682133e+00,+2.436533e+00,,
+5.695467e+00,+2.485333e+00,,
+5.682133e+00,+2.449867e+00,,
+5.695467e+00,+2.472000e+00,,
+5.686667e+00,+2.458667e+00,,
+5.704267e+00,+2.472000e+00,,
+5.699733e+00,+2.467467e+00,,
+5.708800e+00,+2.498667e+00,,
+5.713067e+00,+2.485333e+00,,
+5.708800e+00,+2.507467e+00,,
+5.699733e+00,+2.489867e+00,,
+5.739733e+00,+2.525333e+00,,
+5.713067e+00,+2.467467e+00,,
+5.730667e+00,+2.520800e+00,,
+5.726400e+00,+2.516533e+00,,
+5.730667e+00,+2.525333e+00,,
+5.739733e+00,+2.503200e+00,,
+5.757333e+00,+2.529867e+00,,
+5.752800e+00,+2.516533e+00,,
+5.739733e+00,+2.534133e+00,,
+5.761867e+00,+2.516533e+00,,
+5.748533e+00,+2.552000e+00,,
+5.788267e+00,+2.529867e+00,,
+5.770667e+00,+2.560800e+00,,
+5.770667e+00,+2.538667e+00,,
+5.792800e+00,+2.578667e+00,,
+5.774933e+00,+2.547467e+00,,
+5.774933e+00,+2.565333e+00,,
+5.774933e+00,+2.552000e+00,,
+5.779467e+00,+2.592000e+00,,
+5.797067e+00,+2.547467e+00,,
+5.797067e+00,+2.583200e+00,,
+5.797067e+00,+2.578667e+00,,
+5.814667e+00,+2.569867e+00,,
+5.788267e+00,+2.578667e+00,,
+5.823733e+00,+2.614133e+00,,
+5.814667e+00,+2.574133e+00,,
+5.828000e+00,+2.614133e+00,,
+5.841333e+00,+2.578667e+00,,
+5.823733e+00,+2.614133e+00,,
+5.823733e+00,+2.596533e+00,,
+5.823733e+00,+2.627467e+00,,
+5.850133e+00,+2.605333e+00,,
+5.836800e+00,+2.623200e+00,,
+5.850133e+00,+2.618667e+00,,
+5.845867e+00,+2.649867e+00,,
+5.850133e+00,+2.592000e+00,,
+5.863467e+00,+2.640800e+00,,
+5.858933e+00,+2.632000e+00,,
+5.858933e+00,+2.640800e+00,,
+5.876800e+00,+2.640800e+00,,
+5.885600e+00,+2.672000e+00,,
+5.872267e+00,+2.632000e+00,,
+5.889867e+00,+2.654133e+00,,
+5.885600e+00,+2.649867e+00,,
+5.881067e+00,+2.676533e+00,,
+5.907733e+00,+2.658667e+00,,
+5.903200e+00,+2.694400e+00,,
+5.907733e+00,+2.672000e+00,,
+5.903200e+00,+2.689867e+00,,
+5.903200e+00,+2.663200e+00,,
+5.907733e+00,+2.707733e+00,,
+5.929867e+00,+2.694400e+00,,
+5.925333e+00,+2.716533e+00,,
+5.934134e+00,+2.685333e+00,,
+5.903200e+00,+2.738667e+00,,
+5.934134e+00,+2.698667e+00,,
+5.942934e+00,+2.747733e+00,,
+5.925333e+00,+2.694400e+00,,
+5.960800e+00,+2.725333e+00,,
+5.929867e+00,+2.703200e+00,,
+5.960800e+00,+2.729867e+00,,
+5.951734e+00,+2.712000e+00,,
+5.969600e+00,+2.769867e+00,,
+5.956267e+00,+2.716533e+00,,
+5.960800e+00,+2.747733e+00,,
+5.987200e+00,+2.734400e+00,,
+5.982667e+00,+2.756533e+00,,
+5.987200e+00,+2.725333e+00,,
+6.004800e+00,+2.765333e+00,,
+5.996000e+00,+2.734400e+00,,
+5.991734e+00,+2.765333e+00,,
+6.000534e+00,+2.774400e+00,,
+6.013600e+00,+2.787733e+00,,
+6.009334e+00,+2.769867e+00,,
+6.018133e+00,+2.783200e+00,,
+6.022667e+00,+2.769867e+00,,
+6.009334e+00,+2.801067e+00,,
+6.013600e+00,+2.769867e+00,,
+6.035733e+00,+2.801067e+00,,
+6.044800e+00,+2.787733e+00,,
+6.026933e+00,+2.823200e+00,,
+6.035733e+00,+2.801067e+00,,
+6.049067e+00,+2.827733e+00,,
+6.044800e+00,+2.818667e+00,,
+6.049067e+00,+2.823200e+00,,
+6.057867e+00,+2.801067e+00,,
+6.075733e+00,+2.841067e+00,,
+6.075733e+00,+2.809867e+00,,
+6.066667e+00,+2.867733e+00,,
+6.053600e+00,+2.841067e+00,,
+6.080000e+00,+2.867733e+00,,
+6.088800e+00,+2.818667e+00,,
+6.088800e+00,+2.867733e+00,,
+6.093333e+00,+2.823200e+00,,
+6.084533e+00,+2.872000e+00,,
+6.097600e+00,+2.841067e+00,,
+6.106667e+00,+2.867733e+00,,
+6.110933e+00,+2.881067e+00,,
+6.093333e+00,+2.872000e+00,,
+6.115467e+00,+2.863200e+00,,
+6.115467e+00,+2.885333e+00,,
+6.128800e+00,+2.863200e+00,,
+6.124267e+00,+2.889867e+00,,
+6.133067e+00,+2.858667e+00,,
+6.119733e+00,+2.916533e+00,,
+6.119733e+00,+2.881067e+00,,
+6.133067e+00,+2.898667e+00,,
+6.146400e+00,+2.912000e+00,,
+6.155200e+00,+2.934400e+00,,
+6.141867e+00,+2.921067e+00,,
+6.164000e+00,+2.925333e+00,,
+6.164000e+00,+2.889867e+00,,
+6.172800e+00,+2.929867e+00,,
+6.159733e+00,+2.898667e+00,,
+6.199467e+00,+2.925333e+00,,
+6.181600e+00,+2.921067e+00,,
+6.190667e+00,+2.961067e+00,,
+6.186133e+00,+2.925333e+00,,
+6.190667e+00,+2.965600e+00,,
+6.194933e+00,+2.938667e+00,,
+6.199467e+00,+2.983200e+00,,
+6.186133e+00,+2.943200e+00,,
+6.212800e+00,+2.987733e+00,,
+6.212800e+00,+2.961067e+00,,
+6.221600e+00,+2.996533e+00,,
+6.194933e+00,+2.961067e+00,,
+6.208267e+00,+2.996533e+00,,
+6.212800e+00,+2.969867e+00,,
+6.212800e+00,+2.983200e+00,,
+6.230400e+00,+2.974400e+00,,
+6.248000e+00,+3.009867e+00,,
+6.225867e+00,+2.996533e+00,,
+6.265600e+00,+2.996533e+00,,
+6.256800e+00,+2.978933e+00,,
+6.234667e+00,+3.018933e+00,,
+6.252533e+00,+2.978933e+00,,
+6.234667e+00,+3.018933e+00,,
+6.256800e+00,+3.023200e+00,,
+6.270133e+00,+3.027733e+00,,
+6.265600e+00,+3.005600e+00,,
+6.274667e+00,+3.032267e+00,,
+6.278934e+00,+3.032267e+00,,
+6.287734e+00,+3.072267e+00,,
+6.287734e+00,+3.014400e+00,,
+6.296534e+00,+3.049867e+00,,
+6.256800e+00,+3.009867e+00,,
+6.296534e+00,+3.049867e+00,,
+6.314400e+00,+3.036533e+00,,
+6.292267e+00,+3.067733e+00,,
+6.309867e+00,+3.058933e+00,,
+6.309867e+00,+3.081067e+00,,
+6.314400e+00,+3.054400e+00,,
+6.327734e+00,+3.076533e+00,,
+6.340800e+00,+3.081067e+00,,
+6.327734e+00,+3.089867e+00,,
+6.332000e+00,+3.067733e+00,,
+6.354134e+00,+3.116533e+00,,
+6.336534e+00,+3.072267e+00,,
+6.358667e+00,+3.112267e+00,,
+6.345334e+00,+3.094400e+00,,
+6.354134e+00,+3.116533e+00,,
+6.371733e+00,+3.107733e+00,,
+6.362934e+00,+3.116533e+00,,
+6.376267e+00,+3.125600e+00,,
+6.376267e+00,+3.143200e+00,,
+6.376267e+00,+3.125600e+00,,
+6.389600e+00,+3.156533e+00,,
+6.367467e+00,+3.125600e+00,,
+6.393867e+00,+3.147733e+00,,
+6.385067e+00,+3.116533e+00,,
+6.402667e+00,+3.143200e+00,,
+6.398400e+00,+3.121067e+00,,
+6.398400e+00,+3.165600e+00,,
+6.407200e+00,+3.147733e+00,,
+6.407200e+00,+3.178933e+00,,
+6.429333e+00,+3.147733e+00,,
+6.424800e+00,+3.169867e+00,,
+6.420533e+00,+3.152267e+00,,
+6.416000e+00,+3.205600e+00,,
+6.424800e+00,+3.169867e+00,,
+6.438133e+00,+3.192267e+00,,
+6.420533e+00,+3.169867e+00,,
+6.438133e+00,+3.196533e+00,,
+6.438133e+00,+3.174400e+00,,
+6.446933e+00,+3.205600e+00,,
+6.455733e+00,+3.183200e+00,,
+6.433600e+00,+3.218933e+00,,
+6.455733e+00,+3.183200e+00,,
+6.464533e+00,+3.214400e+00,,
+6.473600e+00,+3.201067e+00,,
+6.469067e+00,+3.223200e+00,,
+6.473600e+00,+3.205600e+00,,
+6.491200e+00,+3.250133e+00,,
+6.482400e+00,+3.218933e+00,,
+6.491200e+00,+3.254400e+00,,
+6.491200e+00,+3.227733e+00,,
+6.495733e+00,+3.250133e+00,,
+6.486667e+00,+3.218933e+00,,
+6.500000e+00,+3.272267e+00,,
+6.500000e+00,+3.232267e+00,,
+6.500000e+00,+3.298933e+00,,
+6.544267e+00,+3.241067e+00,,
+6.526667e+00,+3.285600e+00,,
+6.526667e+00,+3.258933e+00,,
+6.535467e+00,+3.281067e+00,,
+6.526667e+00,+3.267733e+00,,
+6.526667e+00,+3.298933e+00,,
+6.544267e+00,+3.272267e+00,,
+6.557600e+00,+3.312267e+00,,
+6.553067e+00,+3.281067e+00,,
+6.548533e+00,+3.312267e+00,,
+6.561867e+00,+3.285600e+00,,
+6.570667e+00,+3.334400e+00,,
+6.566400e+00,+3.290133e+00,,
+6.584000e+00,+3.347733e+00,,
+6.584000e+00,+3.298933e+00,,
+6.588533e+00,+3.330133e+00,,
+6.579467e+00,+3.316800e+00,,
+6.588533e+00,+3.316800e+00,,
+6.584000e+00,+3.307733e+00,,
+6.614933e+00,+3.334400e+00,,
+6.606133e+00,+3.330133e+00,,
+6.610667e+00,+3.361067e+00,,
+6.592800e+00,+3.330133e+00,,
+6.614933e+00,+3.370133e+00,,
+6.606133e+00,+3.352267e+00,,
+6.623734e+00,+3.378933e+00,,
+6.632534e+00,+3.356800e+00,,
+6.623734e+00,+3.370133e+00,,
+6.619467e+00,+3.347733e+00,,
+6.650400e+00,+3.378933e+00,,
+6.645867e+00,+3.338933e+00,,
+6.654667e+00,+3.396800e+00,,
+6.641600e+00,+3.352267e+00,,
+6.654667e+00,+3.405600e+00,,
+6.681334e+00,+3.361067e+00,,
+6.681334e+00,+3.392267e+00,,
+6.663467e+00,+3.396800e+00,,
+6.659200e+00,+3.427733e+00,,
+6.659200e+00,+3.396800e+00,,
+6.663467e+00,+3.410133e+00,,
+6.681334e+00,+3.374400e+00,,
+6.668000e+00,+3.436800e+00,,
+6.685600e+00,+3.414400e+00,,
+6.663467e+00,+3.463467e+00,,
+6.690134e+00,+3.427733e+00,,
+6.729867e+00,+3.454400e+00,,
+6.716533e+00,+3.427733e+00,,
+6.721067e+00,+3.458933e+00,,
+6.725600e+00,+3.427733e+00,,
+6.729867e+00,+3.450133e+00,,
+6.716533e+00,+3.427733e+00,,
+6.729867e+00,+3.458933e+00,,
+6.734400e+00,+3.458933e+00,,
+6.743200e+00,+3.485600e+00,,
+6.725600e+00,+3.454400e+00,,
+6.729867e+00,+3.498933e+00,,
+6.756534e+00,+3.481067e+00,,
+6.752000e+00,+3.494400e+00,,
+6.738667e+00,+3.498933e+00,,
+6.743200e+00,+3.503467e+00,,
+6.738667e+00,+3.481067e+00,,
+6.774133e+00,+3.507733e+00,,
+6.760800e+00,+3.498933e+00,,
+6.760800e+00,+3.512267e+00,,
+6.774133e+00,+3.490133e+00,,
+6.765333e+00,+3.525600e+00,,
+6.787467e+00,+3.516800e+00,,
+6.787467e+00,+3.538933e+00,,
+6.791733e+00,+3.521333e+00,,
+6.805067e+00,+3.548000e+00,,
+6.800533e+00,+3.534667e+00,,
+6.787467e+00,+3.543467e+00,,
+6.800533e+00,+3.507733e+00,,
+6.800533e+00,+3.570133e+00,,
+6.818400e+00,+3.516800e+00,,
+6.818400e+00,+3.548000e+00,,
+6.818400e+00,+3.534667e+00,,
+6.844800e+00,+3.570133e+00,,
+6.827200e+00,+3.552267e+00,,
+6.813867e+00,+3.570133e+00,,
+6.827200e+00,+3.552267e+00,,
+6.853600e+00,+3.583467e+00,,
+6.840533e+00,+3.565600e+00,,
+6.844800e+00,+3.596800e+00,,
+6.849333e+00,+3.570133e+00,,
+6.853600e+00,+3.592267e+00,,
+6.849333e+00,+3.565600e+00,,
+6.844800e+00,+3.601333e+00,,
+6.866933e+00,+3.565600e+00,,
+6.853600e+00,+3.605600e+00,,
+6.871467e+00,+3.592267e+00,,
+6.884533e+00,+3.605600e+00,,
+6.844800e+00,+3.605600e+00,,
+6.875733e+00,+3.618933e+00,,
+6.911200e+00,+3.623467e+00,,
+6.906667e+00,+3.636800e+00,,
+6.893600e+00,+3.605600e+00,,
+6.893600e+00,+3.636800e+00,,
+6.915467e+00,+3.645600e+00,,
+6.911200e+00,+3.641333e+00,,
+6.911200e+00,+3.623467e+00,,
+6.915467e+00,+3.663467e+00,,
+6.915467e+00,+3.645600e+00,,
+6.928800e+00,+3.645600e+00,,
+6.933333e+00,+3.641333e+00,,
+6.937600e+00,+3.658933e+00,,
+6.968534e+00,+3.654667e+00,,
+6.959733e+00,+3.676800e+00,,
+6.955467e+00,+3.663467e+00,,
+6.964267e+00,+3.703467e+00,,
+6.968534e+00,+3.681333e+00,,
+6.973067e+00,+3.712267e+00,,
+6.981867e+00,+3.681333e+00,,
+6.973067e+00,+3.712267e+00,,
+6.986400e+00,+3.698933e+00,,
+6.981867e+00,+3.703467e+00,,
+6.968534e+00,+3.698933e+00,,
+6.977600e+00,+3.716800e+00,,
+6.990667e+00,+3.685600e+00,,
+7.004000e+00,+3.721333e+00,,
+6.990667e+00,+3.698933e+00,,
+6.981867e+00,+3.734667e+00,,
+7.012800e+00,+3.694667e+00,,
+7.026134e+00,+3.743467e+00,,
+7.030400e+00,+3.712267e+00,,
+7.004000e+00,+3.743467e+00,,
+7.012800e+00,+3.725600e+00,,
+7.017334e+00,+3.743467e+00,,
+7.030400e+00,+3.756800e+00,,
+7.021600e+00,+3.756800e+00,,
+7.039467e+00,+3.734667e+00,,
+7.052534e+00,+3.770133e+00,,
+7.030400e+00,+3.738933e+00,,
+7.048267e+00,+3.805867e+00,,
+7.043734e+00,+3.770133e+00,,
+7.048267e+00,+3.792267e+00,,
+7.070400e+00,+3.770133e+00,,
+7.052534e+00,+3.788000e+00,,
+7.061600e+00,+3.788000e+00,,
+7.065867e+00,+3.805867e+00,,
+7.074667e+00,+3.770133e+00,,
+7.083467e+00,+3.810133e+00,,
+7.088000e+00,+3.774667e+00,,
